CallClass,ChargeCode,Description,NGCS Access Charge Per Minute,NGCS Service Charge Per Minute,NGCS Service Charge Per Call,Service Charge Start,Peak Per Minute,Off Peak Per Minute,Weekend Per Minute,Peak Per Call,Off Peak Per Call,Weekend Per Call
HEADLINE RATES:,,,,,,,,,,,,
SIPD,UKNFM6,UK Mobile Hutchison 3G,,,,,0.017900,0.017700,0.017700,0.000000,0.000000,0.000000
SIPD,UKNFM1,UK Mobile O2,,,,,0.017900,0.017700,0.017700,0.000000,0.000000,0.000000
SIPD,UKNFM4,UK Mobile Orange,,,,,0.017900,0.017700,0.017700,0.000000,0.000000,0.000000
SIPD,UKNFM3,UK Mobile T Mobile,,,,,0.017900,0.017700,0.017700,0.000000,0.000000,0.000000
SIPD,UKNFM5,UK Mobile Vodafone,,,,,0.017900,0.017700,0.017700,0.000000,0.000000,0.000000
SIPD,UKN,UK National Geographic,,,,,0.000000,0.000000,0.000000,0.000000,0.000000,0.000000
,,,,,,,,,,,,
,,,,,,,,,,,,
ALL RATES:,,,,,,,,,,,,
SIPD,ABA,Antigua & Barbuda,,,,,0.237700,0.237700,0.237700,0.000000,0.000000,0.000000
SIPD,ABAMOB,Antigua & Barbuda Mobile,,,,,0.270900,0.270900,0.270900,0.000000,0.000000,0.000000
SIPD,AFG,Afghanistan,,,,,0.260100,0.260100,0.260100,0.000000,0.000000,0.000000
SIPD,AFGMOB,Afghanistan Mobile,,,,,0.271300,0.271300,0.271300,0.000000,0.000000,0.000000
SIPD,ALA,Anguilla,,,,,0.300000,0.300000,0.300000,0.000000,0.000000,0.000000
SIPD,ALAMOB,Anguilla Mobile,,,,,0.352100,0.352100,0.352100,0.000000,0.000000,0.000000
SIPD,ALB,Albania,,,,,0.196800,0.196800,0.196800,0.000000,0.000000,0.000000
SIPD,ALBMOB,Albania Mobile,,,,,0.542300,0.542300,0.542300,0.000000,0.000000,0.000000
SIPD,ALG,Algeria,,,,,0.088200,0.088200,0.088200,0.000000,0.000000,0.000000
SIPD,ALGMBO,Algeria Mobile Other,,,,,0.748600,0.748600,0.748600,0.000000,0.000000,0.000000
SIPD,ALGMOB,Algeria Mobile,,,,,0.426000,0.426000,0.426000,0.000000,0.000000,0.000000
SIPD,AND,Andorra,,,,,0.017700,0.017700,0.017700,0.000000,0.000000,0.000000
SIPD,ANDMOB,Andorra Mobile,,,,,0.151100,0.151100,0.151100,0.000000,0.000000,0.000000
SIPD,ANG,Angola,,,,,0.049200,0.049200,0.049200,0.000000,0.000000,0.000000
SIPD,ANGMOB,Angola Mobile,,,,,0.114600,0.114600,0.114600,0.000000,0.000000,0.000000
SIPD,ANT,Antarctic,,,,,4.511000,4.511000,4.511000,0.000000,0.000000,0.000000
SIPD,ARB,Aruba,,,,,0.104500,0.104500,0.104500,0.000000,0.000000,0.000000
SIPD,ARBMOB,Aruba Mobile,,,,,0.274000,0.274000,0.274000,0.000000,0.000000,0.000000
SIPD,ARG,Argentina,,,,,0.028100,0.028100,0.028100,0.000000,0.000000,0.000000
SIPD,ARGMOB,Argentina Mobile,,,,,0.223400,0.223400,0.223400,0.000000,0.000000,0.000000
SIPD,ARM,Armenia,,,,,0.228600,0.228600,0.228600,0.000000,0.000000,0.000000
SIPD,ARMMOB,Armenia Mobile,,,,,0.293000,0.293000,0.293000,0.000000,0.000000,0.000000
SIPD,ASC,Ascension Island,,,,,1.711100,1.711100,1.711100,0.000000,0.000000,0.000000
SIPD,ASM,American Samoa,,,,,0.011600,0.011600,0.011600,0.000000,0.000000,0.000000
SIPD,AUS,Australia,,,,,0.014300,0.014300,0.014300,0.000000,0.000000,0.000000
SIPD,AUSMOB,Australia Mobile,,,,,0.057600,0.057600,0.057600,0.000000,0.000000,0.000000
SIPD,AUSSAT,Australia Satellite,,,,,2.778000,2.778000,2.778000,0.000000,0.000000,0.000000
SIPD,AUSSSV,Australia Special Services,,,,,0.019800,0.019800,0.019800,0.000000,0.000000,0.000000
SIPD,AUT,Austria,,,,,0.005300,0.005300,0.005300,0.000000,0.000000,0.000000
SIPD,AUTMBO,Austria Mobile Other,,,,,0.015000,0.015000,0.015000,0.000000,0.000000,0.000000
SIPD,AUTMOB,Austria Mobile,,,,,0.015400,0.015400,0.015400,0.000000,0.000000,0.000000
SIPD,AZE,Azerbaijan,,,,,0.252900,0.252900,0.252900,0.000000,0.000000,0.000000
SIPD,AZEMOB,Azerbaijan Mobile,,,,,0.408300,0.408300,0.408300,0.000000,0.000000,0.000000
SIPD,BAH,Bahrain,,,,,0.154500,0.154500,0.154500,0.000000,0.000000,0.000000
SIPD,BAHMOB,Bahrain Mobile,,,,,0.154700,0.154700,0.154700,0.000000,0.000000,0.000000
SIPD,BAN,Bangladesh,,,,,0.032100,0.032100,0.032100,0.000000,0.000000,0.000000
SIPD,BANMOB,Bangladesh Mobile,,,,,0.030000,0.030000,0.030000,0.000000,0.000000,0.000000
SIPD,BAS,Bahamas,,,,,0.131100,0.131100,0.131100,0.000000,0.000000,0.000000
SIPD,BASMOB,Bahamas Mobile,,,,,0.203500,0.203500,0.203500,0.000000,0.000000,0.000000
SIPD,BEL,Belarus,,,,,0.409800,0.409800,0.409800,0.000000,0.000000,0.000000
SIPD,BELOTH,Belarus Other,,,,,0.393500,0.393500,0.393500,0.000000,0.000000,0.000000
SIPD,BEN,Benin,,,,,0.463600,0.463600,0.463600,0.000000,0.000000,0.000000
SIPD,BENMOB,Benin Mobile,,,,,0.463600,0.463600,0.463600,0.000000,0.000000,0.000000
SIPD,BER,Bermuda,,,,,0.041000,0.041000,0.041000,0.000000,0.000000,0.000000
SIPD,BEZ,Belize,,,,,0.287900,0.287900,0.287900,0.000000,0.000000,0.000000
SIPD,BEZMOB,Belize Mobile,,,,,0.270600,0.270600,0.270600,0.000000,0.000000,0.000000
SIPD,BGM,Belgium,,,,,0.014300,0.014300,0.014300,0.000000,0.000000,0.000000
SIPD,BGMMMO,Belgium Mobistar Mobile,,,,,0.021100,0.021100,0.021100,0.000000,0.000000,0.000000
SIPD,BGMMOB,Belgium Mobile,,,,,0.423300,0.423300,0.423300,0.000000,0.000000,0.000000
SIPD,BGMPRO,Belgium Proximus Mobile,,,,,0.021900,0.021900,0.021900,0.000000,0.000000,0.000000
SIPD,BGMSSV,Belgium Special Service,,,,,0.057600,0.057600,0.057600,0.000000,0.000000,0.000000
SIPD,BHU,Bhutan,,,,,0.092900,0.092900,0.092900,0.000000,0.000000,0.000000
SIPD,BOL,Bolivia,,,,,0.182000,0.182000,0.182000,0.000000,0.000000,0.000000
SIPD,BOLMOB,Bolivia Mobile,,,,,0.207100,0.207100,0.207100,0.000000,0.000000,0.000000
SIPD,BOS,Bosnia Herzegovina,,,,,0.192100,0.192100,0.192100,0.000000,0.000000,0.000000
SIPD,BOSMOB,Bosnia Herzegovina Mobile,,,,,0.410800,0.410800,0.410800,0.000000,0.000000,0.000000
SIPD,BOT,Botswana,,,,,0.072400,0.072400,0.072400,0.000000,0.000000,0.000000
SIPD,BOTMOB,Botswana Mobile,,,,,0.308400,0.308400,0.308400,0.000000,0.000000,0.000000
SIPD,BRA,Brazil,,,,,0.007000,0.007000,0.007000,0.000000,0.000000,0.000000
SIPD,BRAMOB,Brazil Mobile,,,,,0.056100,0.056100,0.056100,0.000000,0.000000,0.000000
SIPD,BRD,Barbados,,,,,0.174400,0.174400,0.174400,0.000000,0.000000,0.000000
SIPD,BRDMOB,Barbados Mobile,,,,,0.273600,0.273600,0.273600,0.000000,0.000000,0.000000
SIPD,BRU,Brunei,,,,,0.031200,0.031200,0.031200,0.000000,0.000000,0.000000
SIPD,BRUMOB,Brunei Mobile,,,,,0.038800,0.038800,0.038800,0.000000,0.000000,0.000000
SIPD,BRV,British Virgin Islands,,,,,0.320700,0.320700,0.320700,0.000000,0.000000,0.000000
SIPD,BUK,Burkina Faso,,,,,0.429600,0.429600,0.429600,0.000000,0.000000,0.000000
SIPD,BUKMOB,Burkina Faso Mobile ,,,,,0.436600,0.436600,0.436600,0.000000,0.000000,0.000000
SIPD,BUL,Bulgaria,,,,,0.018100,0.018100,0.018100,0.000000,0.000000,0.000000
SIPD,BULMBO,Bulgaria Mobile Other,,,,,0.019200,0.019200,0.019200,0.000000,0.000000,0.000000
SIPD,BULMOB,Bulgaria Mobile,,,,,0.019200,0.019200,0.019200,0.000000,0.000000,0.000000
SIPD,BUR,Burundi,,,,,0.912600,0.912600,0.912600,0.000000,0.000000,0.000000
SIPD,CAM,Cambodia,,,,,0.068800,0.068800,0.068800,0.000000,0.000000,0.000000
SIPD,CAMMOB,Cambodia Mobile,,,,,0.083600,0.083600,0.083600,0.000000,0.000000,0.000000
SIPD,CAN,Canada,,,,,0.001300,0.001300,0.001300,0.000000,0.000000,0.000000
SIPD,CANOTH,Canada Other,,,,,0.100900,0.100900,0.100900,0.000000,0.000000,0.000000
SIPD,CAR,Central African Republic,,,,,0.726000,0.726000,0.726000,0.000000,0.000000,0.000000
SIPD,CARSSV,Central African Republic Special Services,,,,,0.748400,0.748400,0.748400,0.000000,0.000000,0.000000
SIPD,CAY,Cayman Islands,,,,,0.139100,0.139100,0.139100,0.000000,0.000000,0.000000
SIPD,CAYMOB,Cayman Islands Mobile,,,,,0.236200,0.236200,0.236200,0.000000,0.000000,0.000000
SIPD,CDR,Congo Democratic Republic,,,,,2.082800,2.082800,2.082800,0.000000,0.000000,0.000000
SIPD,CDRMBO,Congo Democratic Republic Mobile Other,,,,,0.376200,0.376200,0.376200,0.000000,0.000000,0.000000
SIPD,CDRMOB,Congo Democratic Republic Mobile,,,,,0.465700,0.465700,0.465700,0.000000,0.000000,0.000000
SIPD,CDRPRM,Congo Democratic Republic (Premium),,,,,0.475000,0.475000,0.475000,0.000000,0.000000,0.000000
SIPD,CHD,Chad,,,,,0.756600,0.756600,0.756600,0.000000,0.000000,0.000000
SIPD,CHDMOB,Chad Mobile,,,,,0.708900,0.708900,0.708900,0.000000,0.000000,0.000000
SIPD,CHL,Chile,,,,,0.815900,0.815900,0.815900,0.000000,0.000000,0.000000
SIPD,CHLMOB,Chile Mobile,,,,,0.048300,0.048300,0.048300,0.000000,0.000000,0.000000
SIPD,CHLSTG,Chile Santiago,,,,,0.009200,0.009200,0.009200,0.000000,0.000000,0.000000
SIPD,CHN,China,,,,,0.008900,0.008900,0.008900,0.000000,0.000000,0.000000
SIPD,COG,Congo,,,,,0.556700,0.556700,0.556700,0.000000,0.000000,0.000000
SIPD,COGMBO,Congo Mobile Other,,,,,0.431500,0.431500,0.431500,0.000000,0.000000,0.000000
SIPD,COGMOB,Congo Mobile,,,,,0.517900,0.517900,0.517900,0.000000,0.000000,0.000000
SIPD,COI,Cook Islands,,,,,0.932700,0.932700,0.932700,0.000000,0.000000,0.000000
SIPD,COL,Colombia,,,,,0.048300,0.048300,0.048300,0.000000,0.000000,0.000000
SIPD,COLBOG,Colombia Bogota,,,,,0.030400,0.030400,0.030400,0.000000,0.000000,0.000000
SIPD,COLCLO,Colombia Cali,,,,,0.046100,0.046100,0.046100,0.000000,0.000000,0.000000
SIPD,COLMED,Colombia Medellin,,,,,0.040800,0.040800,0.040800,0.000000,0.000000,0.000000
SIPD,COLMOB,Colombia Mobile,,,,,0.073000,0.073000,0.073000,0.000000,0.000000,0.000000
SIPD,COM,Comoros,,,,,0.424300,0.424300,0.424300,0.000000,0.000000,0.000000
SIPD,CPV,Cape Verde Islands,,,,,0.216600,0.216600,0.216600,0.000000,0.000000,0.000000
SIPD,CPVMOB,Cape Verde Mobile,,,,,0.305900,0.305900,0.305900,0.000000,0.000000,0.000000
SIPD,CRI,Costa Rica,,,,,0.023400,0.023400,0.023400,0.000000,0.000000,0.000000
SIPD,CRIMOB,Costa Rica Mobile,,,,,0.088700,0.088700,0.088700,0.000000,0.000000,0.000000
SIPD,CRN,Cameroon,,,,,0.140400,0.140400,0.140400,0.000000,0.000000,0.000000
SIPD,CRNMOB,Cameroon Mobile,,,,,0.562000,0.562000,0.562000,0.000000,0.000000,0.000000
SIPD,CRNSSV,Cameroon Special Services,,,,,0.287100,0.287100,0.287100,0.000000,0.000000,0.000000
SIPD,CRO,Croatia,,,,,0.024700,0.024700,0.024700,0.000000,0.000000,0.000000
SIPD,CROMOB,Croatia Mobile,,,,,0.119500,0.119500,0.119500,0.000000,0.000000,0.000000
SIPD,CUB,Cuba,,,,,0.886000,0.886000,0.886000,0.000000,0.000000,0.000000
SIPD,CYP,Cyprus,,,,,0.005300,0.005300,0.005300,0.000000,0.000000,0.000000
SIPD,CYPMOB,Cyprus Mobile,,,,,0.018400,0.018400,0.018400,0.000000,0.000000,0.000000
SIPD,CYPMOB1,Cyprus Mobile One,,,,,0.147400,0.147400,0.147400,0.000000,0.000000,0.000000
SIPD,CZE,Czech Republic,,,,,0.010300,0.010300,0.010300,0.000000,0.000000,0.000000
SIPD,CZEMBO,Czech Republic Mobile Other,,,,,0.019800,0.019800,0.019800,0.000000,0.000000,0.000000
SIPD,CZEMOB,Czech Republic Mobile,,,,,0.363100,0.363100,0.363100,0.000000,0.000000,0.000000
SIPD,CZESSV,Czech Republic Special Services,,,,,0.051500,0.051500,0.051500,0.000000,0.000000,0.000000
SIPD,DIG,Diego Garcia,,,,,1.235600,1.235600,1.235600,0.000000,0.000000,0.000000
SIPD,DJI,Djibouti,,,,,0.443100,0.443100,0.443100,0.000000,0.000000,0.000000
SIPD,DMK,Denmark,,,,,0.006500,0.006500,0.006500,0.000000,0.000000,0.000000
SIPD,DMKMBO,Denmark Mobile Other,,,,,0.025300,0.025300,0.025300,0.000000,0.000000,0.000000
SIPD,DMKMOB,Denmark Mobile,,,,,0.016300,0.016300,0.016300,0.000000,0.000000,0.000000
SIPD,DMR,Dominican Republic,,,,,0.023600,0.023600,0.023600,0.000000,0.000000,0.000000
SIPD,DMRMOB,Dominican Republic Mobile,,,,,0.088700,0.088700,0.088700,0.000000,0.000000,0.000000
SIPD,DOM,Dominica,,,,,0.261800,0.261800,0.261800,0.000000,0.000000,0.000000
SIPD,DOMMOB,Dominica Mobile,,,,,0.307800,0.307800,0.307800,0.000000,0.000000,0.000000
SIPD,EAS,East Timor,,,,,0.382900,0.382900,0.382900,0.000000,0.000000,0.000000
SIPD,ECU,Ecuador,,,,,0.152600,0.152600,0.152600,0.000000,0.000000,0.000000
SIPD,ECUMOB,Ecuador Mobile,,,,,0.265800,0.265800,0.265800,0.000000,0.000000,0.000000
SIPD,EGY,Egypt,,,,,0.171000,0.171000,0.171000,0.000000,0.000000,0.000000
SIPD,EGYMOB,Egypt Mobile,,,,,0.154300,0.154300,0.154300,0.000000,0.000000,0.000000
SIPD,ELS,El Salvador,,,,,0.289200,0.289200,0.289200,0.000000,0.000000,0.000000
SIPD,ELSMOB,El Salvador Mobile,,,,,0.206000,0.206000,0.206000,0.000000,0.000000,0.000000
SIPD,EMS,Emsat Satellite System,,,,,8.504800,8.504800,8.504800,0.000000,0.000000,0.000000
SIPD,EQG,Equatorial Guinea,,,,,0.603300,0.603300,0.603300,0.000000,0.000000,0.000000
SIPD,ERI,Eritrea,,,,,0.297500,0.297500,0.297500,0.000000,0.000000,0.000000
SIPD,EST,Estonia,,,,,0.009300,0.009300,0.009300,0.000000,0.000000,0.000000
SIPD,ESTMBO,Estonia Mobile Other,,,,,0.437200,0.437200,0.437200,0.000000,0.000000,0.000000
SIPD,ESTMOB,Estonia Mobile,,,,,0.031900,0.031900,0.031900,0.000000,0.000000,0.000000
SIPD,ESTPNS,Estonia (PERSONAL NUMBER),,,,,0.009100,0.009100,0.009100,0.000000,0.000000,0.000000
SIPD,ETH,Ethiopia,,,,,0.296200,0.296200,0.296200,0.000000,0.000000,0.000000
SIPD,FAL,Falkland Islands,,,,,1.573400,1.573400,1.573400,0.000000,0.000000,0.000000
SIPD,FAR,Faroe Islands,,,,,0.052400,0.052400,0.052400,0.000000,0.000000,0.000000
SIPD,FARMOB,Faroe Islands Mobile,,,,,0.103200,0.103200,0.103200,0.000000,0.000000,0.000000
SIPD,FIJ,Fiji,,,,,0.325700,0.325700,0.325700,0.000000,0.000000,0.000000
SIPD,FIJMOB,Fiji Mobile,,,,,0.325700,0.325700,0.325700,0.000000,0.000000,0.000000
SIPD,FIN,Finland,,,,,0.042200,0.042200,0.042200,0.000000,0.000000,0.000000
SIPD,FINMOB,Finland Mobile,,,,,0.034000,0.034000,0.034000,0.000000,0.000000,0.000000
SIPD,FINPRM,Finland (PREMIUM),,,,,0.061900,0.061900,0.061900,0.000000,0.000000,0.000000
SIPD,FRA,France,,,,,0.002700,0.002700,0.002700,0.000000,0.000000,0.000000
SIPD,FRAMBO,France Mobile Other,,,,,0.023000,0.023000,0.023000,0.000000,0.000000,0.000000
SIPD,FRAMOB,France Mobile,,,,,0.020000,0.020000,0.020000,0.000000,0.000000,0.000000
SIPD,FRAMOB1,France Mobile One,,,,,0.441600,0.441600,0.441600,0.000000,0.000000,0.000000
SIPD,FRASSV,France Special Services,,,,,0.330600,0.330600,0.330600,0.000000,0.000000,0.000000
SIPD,FRG,French Guyana,,,,,0.009100,0.009100,0.009100,0.000000,0.000000,0.000000
SIPD,FRGMOB,French Guyana Mobile,,,,,0.045800,0.045800,0.045800,0.000000,0.000000,0.000000
SIPD,FRP,French Polynesia,,,,,0.320500,0.320500,0.320500,0.000000,0.000000,0.000000
SIPD,GAB,Gabon,,,,,0.609300,0.609300,0.609300,0.000000,0.000000,0.000000
SIPD,GABMOB,Gabon Mobile,,,,,0.538100,0.538100,0.538100,0.000000,0.000000,0.000000
SIPD,GAMMBO,Gambia Mobile Other,,,,,0.894000,0.894000,0.894000,0.000000,0.000000,0.000000
SIPD,GDA,Grenada,,,,,0.233500,0.233500,0.233500,0.000000,0.000000,0.000000
SIPD,GDAMOB,Grenada Mobile,,,,,0.286300,0.286300,0.286300,0.000000,0.000000,0.000000
SIPD,GEO,Georgia,,,,,0.776900,0.776900,0.776900,0.000000,0.000000,0.000000
SIPD,GEOMOB,Georgia Mobile,,,,,0.388600,0.388600,0.388600,0.000000,0.000000,0.000000
SIPD,GER,Germany,,,,,0.010300,0.010300,0.010300,0.000000,0.000000,0.000000
SIPD,GERMBO,Germany Mobile Other,,,,,0.123500,0.123500,0.123500,0.000000,0.000000,0.000000
SIPD,GERMOB,Germany Mobile,,,,,0.123500,0.123500,0.123500,0.000000,0.000000,0.000000
SIPD,GERPNS,Germany Personal Numbers,,,,,0.476100,0.476100,0.476100,0.000000,0.000000,0.000000
SIPD,GHA,Ghana,,,,,0.314100,0.314100,0.314100,0.000000,0.000000,0.000000
SIPD,GHAMOB,Ghana Mobile,,,,,0.381500,0.381500,0.381500,0.000000,0.000000,0.000000
SIPD,GIB,Gibraltar,,,,,0.033600,0.033600,0.033600,0.000000,0.000000,0.000000
SIPD,GIBMOB,Gibraltar Mobile,,,,,0.150900,0.150900,0.150900,0.000000,0.000000,0.000000
SIPD,GLP,Guadeloupe,,,,,0.020700,0.020700,0.020700,0.000000,0.000000,0.000000
SIPD,GLPMOB,Guadeloupe Mobile,,,,,0.035900,0.035900,0.035900,0.000000,0.000000,0.000000
SIPD,GRD,Greenland,,,,,0.548300,0.548300,0.548300,0.000000,0.000000,0.000000
SIPD,GRE,Greece,,,,,0.004600,0.004600,0.004600,0.000000,0.000000,0.000000
SIPD,GREMOB,Greece Mobile,,,,,0.010100,0.010100,0.010100,0.000000,0.000000,0.000000
SIPD,GUA,Guatemala,,,,,0.181300,0.181300,0.181300,0.000000,0.000000,0.000000
SIPD,GUAMOB,Guatemala Mobile,,,,,0.181300,0.181300,0.181300,0.000000,0.000000,0.000000
SIPD,GUB,Guinea Bissau,,,,,0.568700,0.568700,0.568700,0.000000,0.000000,0.000000
SIPD,GUBMOB,Guinea Bissau Mobile,,,,,0.712100,0.712100,0.712100,0.000000,0.000000,0.000000
SIPD,GUI,Guinea,,,,,0.607600,0.607600,0.607600,0.000000,0.000000,0.000000
SIPD,GUIMOB,Guinea Mobile,,,,,0.587700,0.587700,0.587700,0.000000,0.000000,0.000000
SIPD,GUM,Guam,,,,,0.010800,0.010800,0.010800,0.000000,0.000000,0.000000
SIPD,GUY,Guyana,,,,,0.324300,0.324300,0.324300,0.000000,0.000000,0.000000
SIPD,GUYMOB,Guyana Mobile,,,,,0.138100,0.138100,0.138100,0.000000,0.000000,0.000000
SIPD,HAI,Haiti,,,,,0.379800,0.379800,0.379800,0.000000,0.000000,0.000000
SIPD,HAIMOB,Haiti Mobile,,,,,0.436600,0.436600,0.436600,0.000000,0.000000,0.000000
SIPD,HKG,Hong Kong,,,,,0.018800,0.018800,0.018800,0.000000,0.000000,0.000000
SIPD,HKGMOB,Hong Kong Mobile,,,,,0.034600,0.034600,0.034600,0.000000,0.000000,0.000000
SIPD,HON,Honduras,,,,,0.155000,0.155000,0.155000,0.000000,0.000000,0.000000
SIPD,HONMOB,Honduras Mobile,,,,,0.211700,0.211700,0.211700,0.000000,0.000000,0.000000
SIPD,HUN,Hungary,,,,,0.002700,0.002700,0.002700,0.000000,0.000000,0.000000
SIPD,HUNMOB,Hungary Mobile,,,,,0.027200,0.027200,0.027200,0.000000,0.000000,0.000000
SIPD,ICE,Iceland,,,,,0.013900,0.013900,0.013900,0.000000,0.000000,0.000000
SIPD,ICEMOB,Iceland Mobile,,,,,0.022800,0.022800,0.022800,0.000000,0.000000,0.000000
SIPD,IND,India,,,,,0.013900,0.013900,0.013900,0.000000,0.000000,0.000000
SIPD,INDMJR,India Mobile,,,,,0.013900,0.013900,0.013900,0.000000,0.000000,0.000000
SIPD,INMAER,Inmarsat aero,,,,,6.730200,6.730200,6.730200,0.000000,0.000000,0.000000
SIPD,INMHSD,Inmarsat hsd,,,,,11.251600,11.251600,11.251600,0.000000,0.000000,0.000000
SIPD,INMM04,Inmarsat m4,,,,,11.947800,11.947800,11.947800,0.000000,0.000000,0.000000
SIPD,INMMMM,Inmarsat m,,,,,4.357700,4.357700,4.357700,0.000000,0.000000,0.000000
SIPD,INO,Indonesia,,,,,0.053000,0.053000,0.053000,0.000000,0.000000,0.000000
SIPD,INOMOB,Indonesia Mobile,,,,,0.048300,0.048300,0.048300,0.000000,0.000000,0.000000
SIPD,IRA,Iran,,,,,0.229100,0.229100,0.229100,0.000000,0.000000,0.000000
SIPD,IRAMOB,Iran Mobile,,,,,0.229100,0.229100,0.229100,0.000000,0.000000,0.000000
SIPD,IRD,Iridium Satellite System,,,,,5.618300,5.618300,5.618300,0.000000,0.000000,0.000000
SIPD,IRE,Ireland,,,,,0.006100,0.006100,0.006100,0.000000,0.000000,0.000000
SIPD,IREMOB,Ireland Mobile,,,,,0.046200,0.046200,0.046200,0.000000,0.000000,0.000000
SIPD,IREMOB1,Ireland Mobile One,,,,,0.129400,0.129400,0.129400,0.000000,0.000000,0.000000
SIPD,IREPNS,Ireland Personal Numbering,,,,,0.016900,0.016900,0.016900,0.000000,0.000000,0.000000
SIPD,IREPRM,Ireland Premium,,,,,0.100900,0.100900,0.100900,0.000000,0.000000,0.000000
SIPD,IRQ,Iraq,,,,,0.225900,0.225900,0.225900,0.000000,0.000000,0.000000
SIPD,IRQBAG,Iraq Baghdad,,,,,0.342800,0.342800,0.342800,0.000000,0.000000,0.000000
SIPD,IRQMOB,Iraq Mobile,,,,,0.259900,0.259900,0.259900,0.000000,0.000000,0.000000
SIPD,ISR,Israel,,,,,0.003800,0.003800,0.003800,0.000000,0.000000,0.000000
SIPD,ISRMOB,Israel Mobile,,,,,0.021700,0.021700,0.021700,0.000000,0.000000,0.000000
SIPD,ISRPAL,Israel Palestine,,,,,0.209400,0.209400,0.209400,0.000000,0.000000,0.000000
SIPD,ITA,Italy,,,,,0.006700,0.006700,0.006700,0.000000,0.000000,0.000000
SIPD,ITAH3G,Italy Hutchison 3G Mobile,,,,,0.019800,0.019800,0.019800,0.000000,0.000000,0.000000
SIPD,ITAMBT,Italy Tim Mobile,,,,,0.020300,0.020300,0.020300,0.000000,0.000000,0.000000
SIPD,ITAMBV,Italy Vodafone Mobile,,,,,0.019800,0.019800,0.019800,0.000000,0.000000,0.000000
SIPD,ITAMOB,Italy Mobile,,,,,0.337100,0.337100,0.337100,0.000000,0.000000,0.000000
SIPD,IVC,Ivory Coast,,,,,0.381500,0.381500,0.381500,0.000000,0.000000,0.000000
SIPD,IVCMBO,Ivory Coast Mobile Other,,,,,0.381500,0.381500,0.381500,0.000000,0.000000,0.000000
SIPD,IVCMOB,Ivory Coast Mobile,,,,,0.464000,0.464000,0.464000,0.000000,0.000000,0.000000
SIPD,IVCOTH,Ivory Coast Other,,,,,1.202700,1.202700,1.202700,0.000000,0.000000,0.000000
SIPD,JMA,Jamaica,,,,,0.215800,0.215800,0.215800,0.000000,0.000000,0.000000
SIPD,JMAMOB,Jamaica Mobile,,,,,0.225300,0.225300,0.225300,0.000000,0.000000,0.000000
SIPD,JOR,Jordan,,,,,0.198000,0.198000,0.198000,0.000000,0.000000,0.000000
SIPD,JORMOB,Jordan Mobile,,,,,0.225500,0.225500,0.225500,0.000000,0.000000,0.000000
SIPD,JPN,Japan,,,,,0.018400,0.018400,0.018400,0.000000,0.000000,0.000000
SIPD,JPNMOB,Japan Mobile,,,,,0.058100,0.058100,0.058100,0.000000,0.000000,0.000000
SIPD,KAZ,Kazakhstan,,,,,0.083600,0.083600,0.083600,0.000000,0.000000,0.000000
SIPD,KAZMOB,Kazakhstan Mobile,,,,,0.114800,0.114800,0.114800,0.000000,0.000000,0.000000
SIPD,KEN,Kenya,,,,,0.261600,0.261600,0.261600,0.000000,0.000000,0.000000
SIPD,KENMBO,Kenya Mobile Other,,,,,0.315600,0.315600,0.315600,0.000000,0.000000,0.000000
SIPD,KENMOB,Kenya Mobile,,,,,0.155600,0.155600,0.155600,0.000000,0.000000,0.000000
SIPD,KIR,Kiribati,,,,,4.027800,4.027800,4.027800,0.000000,0.000000,0.000000
SIPD,KRZ,Kyrgyzstan,,,,,0.160000,0.160000,0.160000,0.000000,0.000000,0.000000
SIPD,KRZMOB,Kyrgyzstan Mobile,,,,,0.248900,0.248900,0.248900,0.000000,0.000000,0.000000
SIPD,KUW,Kuwait,,,,,0.100900,0.100900,0.100900,0.000000,0.000000,0.000000
SIPD,KUWMOB,Kuwait Mobile,,,,,0.058100,0.058100,0.058100,0.000000,0.000000,0.000000
SIPD,LAO,Laos,,,,,0.091600,0.091600,0.091600,0.000000,0.000000,0.000000
SIPD,LAT,Latvia,,,,,0.018100,0.018100,0.018100,0.000000,0.000000,0.000000
SIPD,LATMBO,Latvia Mobile Other,,,,,0.338600,0.338600,0.338600,0.000000,0.000000,0.000000
SIPD,LATMOB,Latvia Mobile,,,,,0.030200,0.030200,0.030200,0.000000,0.000000,0.000000
SIPD,LATMOB1,Latvia Mobile One,,,,,0.650600,0.650600,0.650600,0.000000,0.000000,0.000000
SIPD,LBN,Lebanon,,,,,0.112100,0.112100,0.112100,0.000000,0.000000,0.000000
SIPD,LBNMOB,Lebanon Mobile,,,,,0.210500,0.210500,0.210500,0.000000,0.000000,0.000000
SIPD,LBR,Liberia,,,,,0.572100,0.572100,0.572100,0.000000,0.000000,0.000000
SIPD,LBRMOB,Liberia Mobile,,,,,0.490600,0.490600,0.490600,0.000000,0.000000,0.000000
SIPD,LIB,Libya,,,,,0.303800,0.303800,0.303800,0.000000,0.000000,0.000000
SIPD,LIBMOB,Libya Mobile,,,,,0.417600,0.417600,0.417600,0.000000,0.000000,0.000000
SIPD,LIE,Liechtenstein,,,,,0.096300,0.096300,0.096300,0.000000,0.000000,0.000000
SIPD,LIEMOB,Liechtenstein Mobile,,,,,0.242400,0.242400,0.242400,0.000000,0.000000,0.000000
SIPD,LIT,Lithuania,,,,,0.015600,0.015600,0.015600,0.000000,0.000000,0.000000
SIPD,LITMBO,Lithuania Mobile Other,,,,,0.108300,0.108300,0.108300,0.000000,0.000000,0.000000
SIPD,LITMOB,Lithuania Mobile,,,,,0.065400,0.065400,0.065400,0.000000,0.000000,0.000000
SIPD,LITPNS,Lithuania (PERSONAL NUMBERS),,,,,0.773300,0.773300,0.773300,0.000000,0.000000,0.000000
SIPD,LSO,Lesotho,,,,,0.483400,0.483400,0.483400,0.000000,0.000000,0.000000
SIPD,LSOMOB,Lesotho Mobile,,,,,0.332500,0.332500,0.332500,0.000000,0.000000,0.000000
SIPD,LUX,Luxembourg,,,,,0.010600,0.010600,0.010600,0.000000,0.000000,0.000000
SIPD,LUXMOB,Luxembourg Mobile,,,,,0.026200,0.026200,0.026200,0.000000,0.000000,0.000000
SIPD,MAC,Macedonia,,,,,0.175400,0.175400,0.175400,0.000000,0.000000,0.000000
SIPD,MACMOB,Macedonia Mobile,,,,,0.434000,0.434000,0.434000,0.000000,0.000000,0.000000
SIPD,MAF,St. Martin,,,,,0.133200,0.133200,0.133200,0.000000,0.000000,0.000000
SIPD,MAL,Mali,,,,,0.246600,0.246600,0.246600,0.000000,0.000000,0.000000
SIPD,MALMOB,Mali Mobile,,,,,0.477500,0.477500,0.477500,0.000000,0.000000,0.000000
SIPD,MAR,Martinique,,,,,0.005300,0.005300,0.005300,0.000000,0.000000,0.000000
SIPD,MARMOB,Martinique Mobile,,,,,0.017700,0.017700,0.017700,0.000000,0.000000,0.000000
SIPD,MAU,Macau,,,,,0.069000,0.069000,0.069000,0.000000,0.000000,0.000000
SIPD,MAYMOB,Mayotte Mobile,,,,,0.078900,0.078900,0.078900,0.000000,0.000000,0.000000
SIPD,MDG,Madagascar,,,,,1.052600,1.052600,1.052600,0.000000,0.000000,0.000000
SIPD,MDGMOB,Madagascar Mobile,,,,,0.829200,0.829200,0.829200,0.000000,0.000000,0.000000
SIPD,MEX,Mexico,,,,,0.011000,0.011000,0.011000,0.000000,0.000000,0.000000
SIPD,MEXMOB,Mexico Mobile,,,,,0.018400,0.018400,0.018400,0.000000,0.000000,0.000000
SIPD,MHL,Marshall Islands,,,,,0.328500,0.328500,0.328500,0.000000,0.000000,0.000000
SIPD,MIC,Micronesia,,,,,0.671100,0.671100,0.671100,0.000000,0.000000,0.000000
SIPD,MLD,Maldives,,,,,1.018400,1.018400,1.018400,0.000000,0.000000,0.000000
SIPD,MLDMob,Maldives Mobile,,,,,1.079600,1.079600,1.079600,0.000000,0.000000,0.000000
SIPD,MLT,Malta,,,,,0.004400,0.004400,0.004400,0.000000,0.000000,0.000000
SIPD,MLTMOB,Malta Mobile,,,,,0.014600,0.014600,0.014600,0.000000,0.000000,0.000000
SIPD,MNR,Myanmar,,,,,0.355100,0.355100,0.355100,0.000000,0.000000,0.000000
SIPD,MNRMOB,Myanmar Mobile,,,,,0.371800,0.371800,0.371800,0.000000,0.000000,0.000000
SIPD,MNT,Montenegro,,,,,0.182200,0.182200,0.182200,0.000000,0.000000,0.000000
SIPD,MNTMOB,Montenegro Mobile,,,,,0.438100,0.438100,0.438100,0.000000,0.000000,0.000000
SIPD,MOG,Mongolia,,,,,0.031900,0.031900,0.031900,0.000000,0.000000,0.000000
SIPD,MOGMOB,Mongolia Mobile,,,,,0.031900,0.031900,0.031900,0.000000,0.000000,0.000000
SIPD,MOL,Moldova,,,,,0.412500,0.412500,0.412500,0.000000,0.000000,0.000000
SIPD,MOLMOB,Moldova Mobile,,,,,0.683200,0.683200,0.683200,0.000000,0.000000,0.000000
SIPD,MON,Monaco,,,,,0.085100,0.085100,0.085100,0.000000,0.000000,0.000000
SIPD,MONMOB,Monaco Mobile,,,,,0.449500,0.449500,0.449500,0.000000,0.000000,0.000000
SIPD,MOR,Morocco,,,,,0.017300,0.017300,0.017300,0.000000,0.000000,0.000000
SIPD,MORMBO,Morocco Mobile Other,,,,,0.910700,0.910700,0.910700,0.000000,0.000000,0.000000
SIPD,MORMOB,Morocco Mobile,,,,,0.473500,0.473500,0.473500,0.000000,0.000000,0.000000
SIPD,MOZ,Mozambique,,,,,0.075800,0.075800,0.075800,0.000000,0.000000,0.000000
SIPD,MOZMOB,Mozambique Mobile,,,,,0.336900,0.336900,0.336900,0.000000,0.000000,0.000000
SIPD,MRS,Mauritius,,,,,0.121600,0.121600,0.121600,0.000000,0.000000,0.000000
SIPD,MRSMOB,Mauritius Mobile,,,,,0.203500,0.203500,0.203500,0.000000,0.000000,0.000000
SIPD,MST,Montserrat,,,,,0.283500,0.283500,0.283500,0.000000,0.000000,0.000000
SIPD,MUR,Mauritania,,,,,0.833900,0.833900,0.833900,0.000000,0.000000,0.000000
SIPD,MURMOB,Mauritania Mobile,,,,,0.713600,0.713600,0.713600,0.000000,0.000000,0.000000
SIPD,MWI,Malawi,,,,,0.409300,0.409300,0.409300,0.000000,0.000000,0.000000
SIPD,MWIMOB,Malawi Mobile,,,,,0.428300,0.428300,0.428300,0.000000,0.000000,0.000000
SIPD,MYS,Malaysia,,,,,0.053400,0.053400,0.053400,0.000000,0.000000,0.000000
SIPD,MYSMOB,Malaysia Mobile,,,,,0.036100,0.036100,0.036100,0.000000,0.000000,0.000000
SIPD,NAM,Namibia,,,,,0.043900,0.043900,0.043900,0.000000,0.000000,0.000000
SIPD,NAMMOB,Namibia Mobile,,,,,0.072800,0.072800,0.072800,0.000000,0.000000,0.000000
SIPD,NAT,Netherlands Antilles,,,,,0.156900,0.156900,0.156900,0.000000,0.000000,0.000000
SIPD,NATMOB,Netherlands Antilles Mobile,,,,,0.145500,0.145500,0.145500,0.000000,0.000000,0.000000
SIPD,NAU,Nauru,,,,,1.214500,1.214500,1.214500,0.000000,0.000000,0.000000
SIPD,NEC,New Caledonia,,,,,0.211300,0.211300,0.211300,0.000000,0.000000,0.000000
SIPD,NEZ,New Zealand,,,,,0.013100,0.013100,0.013100,0.000000,0.000000,0.000000
SIPD,NEZMOB,New Zealand Mobile,,,,,0.052800,0.052800,0.052800,0.000000,0.000000,0.000000
SIPD,NGA,Nigeria,,,,,0.121800,0.121800,0.121800,0.000000,0.000000,0.000000
SIPD,NGAMBO,Nigeria Mobile Other,,,,,0.121800,0.121800,0.121800,0.000000,0.000000,0.000000
SIPD,NGAMOB,Nigeria Mobile,,,,,0.121800,0.121800,0.121800,0.000000,0.000000,0.000000
SIPD,NGASSV,Nigeria Special Services,,,,,0.121800,0.121800,0.121800,0.000000,0.000000,0.000000
SIPD,NGR,Niger,,,,,0.422800,0.422800,0.422800,0.000000,0.000000,0.000000
SIPD,NGRMOB,Niger Mobile,,,,,0.422800,0.422800,0.422800,0.000000,0.000000,0.000000
SIPD,NIC,Nicaragua,,,,,0.312700,0.312700,0.312700,0.000000,0.000000,0.000000
SIPD,NICMOB,Nicaragua Mobile,,,,,0.299300,0.299300,0.299300,0.000000,0.000000,0.000000
SIPD,NIU,Niue,,,,,1.848100,1.848100,1.848100,0.000000,0.000000,0.000000
SIPD,NKO,North Korea,,,,,0.522100,0.522100,0.522100,0.000000,0.000000,0.000000
SIPD,NOM,Northern Marianas,,,,,0.011000,0.011000,0.011000,0.000000,0.000000,0.000000
SIPD,NOR,Norway,,,,,0.009100,0.009100,0.009100,0.000000,0.000000,0.000000
SIPD,NORMBO,Norway Mobile Other,,,,,0.158300,0.158300,0.158300,0.000000,0.000000,0.000000
SIPD,NORMOB,Norway Mobile,,,,,0.034600,0.034600,0.034600,0.000000,0.000000,0.000000
SIPD,NPL,Nepal,,,,,0.128100,0.128100,0.128100,0.000000,0.000000,0.000000
SIPD,NPLMOB,Nepal Mobile,,,,,0.157700,0.157700,0.157700,0.000000,0.000000,0.000000
SIPD,NTH,Netherlands,,,,,0.007800,0.007800,0.007800,0.000000,0.000000,0.000000
SIPD,NTHMOB,Netherlands Mobile,,,,,0.033100,0.033100,0.033100,0.000000,0.000000,0.000000
SIPD,OMA,Oman,,,,,0.139300,0.139300,0.139300,0.000000,0.000000,0.000000
SIPD,OMAMOB,Oman Mobile,,,,,0.388400,0.388400,0.388400,0.000000,0.000000,0.000000
SIPD,PAK,Pakistan,,,,,0.050000,0.050000,0.050000,0.000000,0.000000,0.000000
SIPD,PAKMOB,Pakistan Mobile,,,,,0.058500,0.058500,0.058500,0.000000,0.000000,0.000000
SIPD,PAL,Palau,,,,,0.284800,0.284800,0.284800,0.000000,0.000000,0.000000
SIPD,PAN,Panama,,,,,0.023000,0.023000,0.023000,0.000000,0.000000,0.000000
SIPD,PANMOB,Panama Mobile,,,,,0.141900,0.141900,0.141900,0.000000,0.000000,0.000000
SIPD,PER,Peru,,,,,0.016300,0.016300,0.016300,0.000000,0.000000,0.000000
SIPD,PERMOB,Peru Mobile,,,,,0.030600,0.030600,0.030600,0.000000,0.000000,0.000000
SIPD,PERRUR,Peru Rural,,,,,0.427300,0.427300,0.427300,0.000000,0.000000,0.000000
SIPD,PGL,Portugal,,,,,0.003800,0.003800,0.003800,0.000000,0.000000,0.000000
SIPD,PGLMOB,Portugal Mobile,,,,,0.022800,0.022800,0.022800,0.000000,0.000000,0.000000
SIPD,PGY,Paraguay,,,,,0.039900,0.039900,0.039900,0.000000,0.000000,0.000000
SIPD,PGYMOB,Paraguay Mobile,,,,,0.082300,0.082300,0.082300,0.000000,0.000000,0.000000
SIPD,PHL,Philippines,,,,,0.117000,0.117000,0.117000,0.000000,0.000000,0.000000
SIPD,PHLMOB,Philippines Mobile,,,,,0.191100,0.191100,0.191100,0.000000,0.000000,0.000000
SIPD,PNG,Papua New Guinea,,,,,0.763600,0.763600,0.763600,0.000000,0.000000,0.000000
SIPD,PNGMOB,Papua New Guinea Mobile,,,,,2.320500,2.320500,2.320500,0.000000,0.000000,0.000000
SIPD,POL,Poland,,,,,0.010800,0.010800,0.010800,0.000000,0.000000,0.000000
SIPD,POLMBC,Poland Mobile Centernet,,,,,0.309300,0.309300,0.309300,0.000000,0.000000,0.000000
SIPD,POLMBO,Poland Mobile Other,,,,,0.343700,0.343700,0.343700,0.000000,0.000000,0.000000
SIPD,POLMOB,Poland Mobile,,,,,0.018400,0.018400,0.018400,0.000000,0.000000,0.000000
SIPD,PRI,Puerto Rico,,,,,0.008400,0.008400,0.008400,0.000000,0.000000,0.000000
SIPD,PSE,Palestine,,,,,0.175800,0.175800,0.175800,0.000000,0.000000,0.000000
SIPD,PSEMOB,Palestine Mobile,,,,,0.221700,0.221700,0.221700,0.000000,0.000000,0.000000
SIPD,QAT,Qatar,,,,,0.198700,0.198700,0.198700,0.000000,0.000000,0.000000
SIPD,QATMOB,Qatar Mobile,,,,,0.211100,0.211100,0.211100,0.000000,0.000000,0.000000
SIPD,REU,Reunion,,,,,0.017300,0.017300,0.017300,0.000000,0.000000,0.000000
SIPD,REUMOB,Reunion Mobile,,,,,0.017100,0.017100,0.017100,0.000000,0.000000,0.000000
SIPD,ROM,Romania,,,,,0.002300,0.002300,0.002300,0.000000,0.000000,0.000000
SIPD,ROMMOB,Romania Mobile,,,,,0.017900,0.017900,0.017900,0.000000,0.000000,0.000000
SIPD,ROMOTH,Romania Other,,,,,0.002300,0.002300,0.002300,0.000000,0.000000,0.000000
SIPD,RUS,Russia,,,,,0.038200,0.038200,0.038200,0.000000,0.000000,0.000000
SIPD,RUSCIT,Russia Major Cities,,,,,0.032700,0.032700,0.032700,0.000000,0.000000,0.000000
SIPD,RUSMBO,Russia Mobile Other,,,,,0.293600,0.293600,0.293600,0.000000,0.000000,0.000000
SIPD,RUSMOB,Russia Mobile,,,,,0.262400,0.262400,0.262400,0.000000,0.000000,0.000000
SIPD,RUSMOB1,Russia Mobile One,,,,,0.290300,0.290300,0.290300,0.000000,0.000000,0.000000
SIPD,RWD,Rwanda,,,,,0.454300,0.454300,0.454300,0.000000,0.000000,0.000000
SIPD,RWDMOB,Rwanda Mobile,,,,,0.336500,0.336500,0.336500,0.000000,0.000000,0.000000
SIPD,SAF,South Africa,,,,,0.017300,0.017300,0.017300,0.000000,0.000000,0.000000
SIPD,SAFMBO,South Africa Mobile Other,,,,,0.016500,0.016500,0.016500,0.000000,0.000000,0.000000
SIPD,SAFMOB,South Africa Mobile,,,,,0.025300,0.025300,0.025300,0.000000,0.000000,0.000000
SIPD,SAFMOB1,South Africa Mobile One,,,,,0.017700,0.017700,0.017700,0.000000,0.000000,0.000000
SIPD,SAFSSV,South Africa Special Services,,,,,0.053400,0.053400,0.053400,0.000000,0.000000,0.000000
SIPD,SAT,Satelite Other,,,,,6.700700,6.700700,6.700700,0.000000,0.000000,0.000000
SIPD,SATSAT,Satellite,,,,,165.451100,165.451100,165.451100,0.000000,0.000000,0.000000
SIPD,SAU,Saudi Arabia,,,,,0.102000,0.102000,0.102000,0.000000,0.000000,0.000000
SIPD,SAUMBO,Saudi Arabia Mobile Other,,,,,0.168000,0.168000,0.168000,0.000000,0.000000,0.000000
SIPD,SAUMOB,Saudi Arabia Mobile,,,,,0.162800,0.162800,0.162800,0.000000,0.000000,0.000000
SIPD,SEN,Senegal,,,,,0.515500,0.515500,0.515500,0.000000,0.000000,0.000000
SIPD,SENMOB,Senegal Mobile,,,,,0.500100,0.500100,0.500100,0.000000,0.000000,0.000000
SIPD,SER,Serbia,,,,,0.387800,0.387800,0.387800,0.000000,0.000000,0.000000
SIPD,SERMOB,Serbia Mobile,,,,,0.451100,0.451100,0.451100,0.000000,0.000000,0.000000
SIPD,SEY,Seychelles,,,,,0.813600,0.813600,0.813600,0.000000,0.000000,0.000000
SIPD,SEYSSV,Seychelles Special Services,,,,,0.802000,0.802000,0.802000,0.000000,0.000000,0.000000
SIPD,SGP,Singapore,,,,,0.080200,0.080200,0.080200,0.000000,0.000000,0.000000
SIPD,SGPMOB,Singapore Mobile,,,,,0.060400,0.060400,0.060400,0.000000,0.000000,0.000000
SIPD,SIE,Sierra Leone,,,,,0.527400,0.527400,0.527400,0.000000,0.000000,0.000000
SIPD,SIEMOB,Sierra Leone Mobile,,,,,0.529300,0.529300,0.529300,0.000000,0.000000,0.000000
SIPD,SKO,South Korea,,,,,0.004800,0.004800,0.004800,0.000000,0.000000,0.000000
SIPD,SKOMOB,South Korea Mobile,,,,,0.009100,0.009100,0.009100,0.000000,0.000000,0.000000
SIPD,SKOSEO,South Korea Seoul,,,,,0.012000,0.012000,0.012000,0.000000,0.000000,0.000000
SIPD,SLK,Sri Lanka,,,,,0.195100,0.195100,0.195100,0.000000,0.000000,0.000000
SIPD,SLKMOB,Sri Lanka Mobile,,,,,0.195100,0.195100,0.195100,0.000000,0.000000,0.000000
SIPD,SLO,Slovakia,,,,,0.004200,0.004200,0.004200,0.000000,0.000000,0.000000
SIPD,SLOMOB,Slovakia Mobile,,,,,0.034600,0.034600,0.034600,0.000000,0.000000,0.000000
SIPD,SLV,Slovenia,,,,,0.011400,0.011400,0.011400,0.000000,0.000000,0.000000
SIPD,SLVMBO,Slovenia Mobile Other,,,,,0.481300,0.481300,0.481300,0.000000,0.000000,0.000000
SIPD,SLVMOB,Slovenia Mobile,,,,,0.038200,0.038200,0.038200,0.000000,0.000000,0.000000
SIPD,SMO,San Marino,,,,,1.357200,1.357200,1.357200,0.000000,0.000000,0.000000
SIPD,SMOMOB,San Marino Mobile,,,,,0.446900,0.446900,0.446900,0.000000,0.000000,0.000000
SIPD,SOI,Solomon Islands,,,,,1.680600,1.680600,1.680600,0.000000,0.000000,0.000000
SIPD,SOM,Somalia,,,,,0.626400,0.626400,0.626400,0.000000,0.000000,0.000000
SIPD,SOMMOB,Somalia Mobile,,,,,0.559700,0.559700,0.559700,0.000000,0.000000,0.000000
SIPD,SPM,St. Pierre & Miquelon,,,,,0.289200,0.289200,0.289200,0.000000,0.000000,0.000000
SIPD,SPMMOB,St. Pierre & Miquelon Mobile,,,,,0.535000,0.535000,0.535000,0.000000,0.000000,0.000000
SIPD,SPN,Spain,,,,,0.003400,0.003400,0.003400,0.000000,0.000000,0.000000
SIPD,SPNMOB,Spain Mobile,,,,,0.020000,0.020000,0.020000,0.000000,0.000000,0.000000
SIPD,SPNMOB1,Spain Mobile One,,,,,0.020000,0.020000,0.020000,0.000000,0.000000,0.000000
SIPD,SPNSSV,Spain Special Services,,,,,0.173300,0.173300,0.173300,0.000000,0.000000,0.000000
SIPD,SSD,South Sudan,,,,,0.500500,0.500500,0.500500,0.000000,0.000000,0.000000
SIPD,STH,St. Helena,,,,,1.889900,1.889900,1.889900,0.000000,0.000000,0.000000
SIPD,STK,St. Kitts & Nevis,,,,,0.255000,0.255000,0.255000,0.000000,0.000000,0.000000
SIPD,STKMOB,St. Kitts & Nevis Mobile,,,,,0.285800,0.285800,0.285800,0.000000,0.000000,0.000000
SIPD,STL,St. Lucia,,,,,0.216800,0.216800,0.216800,0.000000,0.000000,0.000000
SIPD,STLMOB,St. Lucia Mobile,,,,,0.301300,0.301300,0.301300,0.000000,0.000000,0.000000
SIPD,STP,Sao Tome & Principe,,,,,1.595100,1.595100,1.595100,0.000000,0.000000,0.000000
SIPD,SUD,Sudan,,,,,0.281000,0.281000,0.281000,0.000000,0.000000,0.000000
SIPD,SUDMOB,Sudan Mobile,,,,,0.175900,0.175900,0.175900,0.000000,0.000000,0.000000
SIPD,SUR,Suriname,,,,,0.264100,0.264100,0.264100,0.000000,0.000000,0.000000
SIPD,SURMOB,Suriname Mobile,,,,,0.493200,0.493200,0.493200,0.000000,0.000000,0.000000
SIPD,SVG,St. Vincent & Grenadines,,,,,0.251900,0.251900,0.251900,0.000000,0.000000,0.000000
SIPD,SVGMOB,St. Vincent & Grenadines Mobile,,,,,0.281200,0.281200,0.281200,0.000000,0.000000,0.000000
SIPD,SWE,Sweden,,,,,0.004900,0.004900,0.004900,0.000000,0.000000,0.000000
SIPD,SWEMOB,Sweden Mobile,,,,,0.016300,0.016300,0.016300,0.000000,0.000000,0.000000
SIPD,SWT,Switzerland,,,,,0.012500,0.012500,0.012500,0.000000,0.000000,0.000000
SIPD,SWTMBO,Switzerland Mobile Other,,,,,0.137800,0.137800,0.137800,0.000000,0.000000,0.000000
SIPD,SWTMOB,Switzerland Mobile,,,,,0.112900,0.112900,0.112900,0.000000,0.000000,0.000000
SIPD,SWTMOB1,Switzerland Mobile One,,,,,0.519300,0.519300,0.519300,0.000000,0.000000,0.000000
SIPD,SWTPRM,Switzerland Premium,,,,,0.021700,0.021700,0.021700,0.000000,0.000000,0.000000
SIPD,SWZ,Swaziland,,,,,0.032900,0.032900,0.032900,0.000000,0.000000,0.000000
SIPD,SWZMOB,Swaziland Mobile,,,,,0.167400,0.167400,0.167400,0.000000,0.000000,0.000000
SIPD,SYR,Syria,,,,,0.093300,0.093300,0.093300,0.000000,0.000000,0.000000
SIPD,SYRMOB,Syria Mobile,,,,,0.137200,0.137200,0.137200,0.000000,0.000000,0.000000
SIPD,TAI,Taiwan,,,,,0.021500,0.021500,0.021500,0.000000,0.000000,0.000000
SIPD,TAIMOB,Taiwan Mobile,,,,,0.104300,0.104300,0.104300,0.000000,0.000000,0.000000
SIPD,TAJ,Tajikistan,,,,,0.155200,0.155200,0.155200,0.000000,0.000000,0.000000
SIPD,TAJMOB,Tajikistan Mobile,,,,,0.203100,0.203100,0.203100,0.000000,0.000000,0.000000
SIPD,TCI,Turks & Caicos Islands,,,,,0.244900,0.244900,0.244900,0.000000,0.000000,0.000000
SIPD,TCIMOB,Turks & Caicos Island Mobile,,,,,0.290900,0.290900,0.290900,0.000000,0.000000,0.000000
SIPD,THA,Thailand,,,,,0.058500,0.058500,0.058500,0.000000,0.000000,0.000000
SIPD,THAMOB,Thailand Mobile,,,,,0.058500,0.058500,0.058500,0.000000,0.000000,0.000000
SIPD,TNS,Tunisia,,,,,0.850600,0.850600,0.850600,0.000000,0.000000,0.000000
SIPD,TNSMOB,Tunisia Mobile,,,,,0.985400,0.985400,0.985400,0.000000,0.000000,0.000000
SIPD,TOG,Togo,,,,,0.469100,0.469100,0.469100,0.000000,0.000000,0.000000
SIPD,TOK,Tokelau,,,,,1.405100,1.405100,1.405100,0.000000,0.000000,0.000000
SIPD,TON,Tonga,,,,,0.699600,0.699600,0.699600,0.000000,0.000000,0.000000
SIPD,TRI,Trinidad & Tobago,,,,,0.077900,0.077900,0.077900,0.000000,0.000000,0.000000
SIPD,TRIMOB,Trinidad & Tobago Mobile,,,,,0.225900,0.225900,0.225900,0.000000,0.000000,0.000000
SIPD,TRK,Turkmenistan,,,,,0.167800,0.167800,0.167800,0.000000,0.000000,0.000000
SIPD,TUR,Turkey,,,,,0.050400,0.050400,0.050400,0.000000,0.000000,0.000000
SIPD,TURMBO,Turkey Mobile Other,,,,,0.039300,0.039300,0.039300,0.000000,0.000000,0.000000
SIPD,TURMOB,Turkey Mobile,,,,,0.166600,0.166600,0.166600,0.000000,0.000000,0.000000
SIPD,TUV,Tuvalu,,,,,1.586900,1.586900,1.586900,0.000000,0.000000,0.000000
SIPD,TZN,Tanzania,,,,,0.713800,0.713800,0.713800,0.000000,0.000000,0.000000
SIPD,TZNMOB,Tanzania Mobile,,,,,0.303400,0.303400,0.303400,0.000000,0.000000,0.000000
SIPD,UAE,United Arab Emirates,,,,,0.201200,0.201200,0.201200,0.000000,0.000000,0.000000
SIPD,UGA,Uganda,,,,,0.411200,0.411200,0.411200,0.000000,0.000000,0.000000
SIPD,UGAMOB,Uganda Mobile,,,,,0.403000,0.403000,0.403000,0.000000,0.000000,0.000000
SIPD,UIF,UIFS Universal International Freephone,,,,,0.000000,0.000000,0.000000,0.000000,0.000000,0.000000
SIPD,UKN,UK National Geographic,,,,,0.000000,0.000000,0.000000,0.000000,0.000000,0.000000
SIPD,UKNBDQ,UK Blind and Disabled Directory Enquiries,,,,,0.000400,0.000300,0.000200,0.720500,0.720500,0.720500
SIPD,UKNBTC,UK BT Click,,,,,0.014500,0.008100,0.006800,0.000000,0.000000,0.000000
SIPD,UKNEMG,UK Emergency Services,,,,,0.004600,0.002100,0.001700,1.018600,1.018600,1.018600
SIPD,UKNEMH,UK Emergency Services (hearing-impaired),,,,,1.519500,1.519500,1.519500,0.000000,0.000000,0.000000
SIPD,UKNFF03,UK Fixed Fee 3,,,,,0.000000,0.000000,0.000000,0.171200,0.085600,0.085600
SIPD,UKNFF06,UK Fixed Fee 6,,,,,0.000500,0.000500,0.000500,0.182200,0.182200,0.182200
SIPD,UKNFF08,UK Fixed Fee 8,,,,,0.000500,0.000500,0.000500,0.123300,0.123300,0.123300
SIPD,UKNFF09,UK Fixed Fee 9,,,,,0.000500,0.000500,0.000500,0.326600,0.326600,0.326600
SIPD,UKNFF10,UK Fixed Fee 10,,,,,0.000500,0.000500,0.000500,0.182200,0.182200,0.182200
SIPD,UKNFF31,UK Fixed Fee 31,,,,,0.000000,0.000000,0.000000,0.132700,0.137000,0.137700
SIPD,UKNFM1,UK Mobile O2,,,,,0.017900,0.017700,0.017700,0.000000,0.000000,0.000000
SIPD,UKNFM10,UK Mobile Voice and Data,,,,,0.040500,0.040500,0.040500,0.000000,0.000000,0.000000
SIPD,UKNFM11,UK Mobile Virtual 1,,,,,0.150000,0.148800,0.148600,0.000000,0.000000,0.000000
SIPD,UKNFM12,UK Mobile Virtual 2,,,,,0.006700,0.006700,0.006700,0.000000,0.000000,0.000000
SIPD,UKNFM16,UK Mobile Cable and Wireless,,,,,0.007500,0.007500,0.007500,0.000000,0.000000,0.000000
SIPD,UKNFM2,UK Mobile Other,,,,,0.121600,0.109900,0.034200,0.000000,0.000000,0.000000
SIPD,UKNFM3,UK Mobile T Mobile,,,,,0.017900,0.017700,0.017700,0.000000,0.000000,0.000000
SIPD,UKNFM4,UK Mobile Orange,,,,,0.017900,0.017700,0.017700,0.000000,0.000000,0.000000
SIPD,UKNFM5,UK Mobile Vodafone,,,,,0.017900,0.017700,0.017700,0.000000,0.000000,0.000000
SIPD,UKNFM6,UK Mobile Hutchison 3G,,,,,0.017900,0.017700,0.017700,0.000000,0.000000,0.000000
SIPD,UKNFM7,UK Mobile Opal,,,,,0.007500,0.007500,0.007500,0.000000,0.000000,0.000000
SIPD,UKNFPH,UK Freephone,,,,,0.000000,0.000000,0.000000,0.000000,0.000000,0.000000
SIPD,UKNFW1,UK Wi Fi Services 1,,,,,0.009700,0.009700,0.009700,0.000000,0.000000,0.000000
SIPD,UKNFW10,UK Wi Fi Services 10,,,,,0.009700,0.009700,0.009700,0.000000,0.000000,0.000000
SIPD,UKNFW12,UK Wi Fi Services 12,,,,,0.007900,0.007900,0.007900,0.000000,0.000000,0.000000
SIPD,UKNFW2,UK Wi Fi Services 2,,,,,0.006000,0.006000,0.006000,0.000000,0.000000,0.000000
SIPD,UKNFW3,UK Wi Fi Services 3,,,,,0.006000,0.006000,0.006000,0.000000,0.000000,0.000000
SIPD,UKNFW4,UK Wi Fi Services 4,,,,,0.032600,0.032600,0.032600,0.000000,0.000000,0.000000
SIPD,UKNFW5,UK Wi Fi Services 5,,,,,0.009700,0.009700,0.009700,0.000000,0.000000,0.000000
SIPD,UKNFW6,UK Wi Fi Services 6,,,,,0.009700,0.009700,0.009700,0.000000,0.000000,0.000000
SIPD,UKNFW7,UK Wi Fi Services 7,,,,,0.065200,0.067400,0.069600,0.000000,0.000000,0.000000
SIPD,UKNFW8,UK FW8 Rate - Voice & Data,,,,,0.129100,0.086300,0.043500,0.000000,0.000000,0.000000
SIPD,UKNFW9,UK Wi Fi Services 9,,,,,0.107700,0.107700,0.107700,0.000000,0.000000,0.000000
SIPD,UKNG06,UK Premium Rate g6,,,,,0.055100,0.062900,0.065200,0.000000,0.000000,0.000000
SIPD,UKNG21,UK Special Services g21,,,,,0.007600,0.003800,0.003100,0.000800,0.000800,0.000800
SIPD,UKNGAC,Gamma Audio Conferencing,,,,,0.000000,0.000000,0.000000,0.000000,0.000000,0.000000
SIPD,UKNGYM,Guernsey Mobile,,,,,0.116200,0.087400,0.060500,0.000000,0.000000,0.000000
SIPD,UKNIOP,UK International Operator,,,,,0.588500,0.588500,0.588500,0.000000,0.000000,0.000000
SIPD,UKNJYM,Jersey Mobile,,,,,0.097800,0.088400,0.074800,0.000000,0.000000,0.000000
SIPD,UKNNNG,UK National Non Geographic,,,,,0.000000,0.000000,0.000000,0.000000,0.000000,0.000000
SIPD,UKNNOP,UK National Operator,,,,,0.000400,0.000300,0.000200,0.615100,0.615100,0.615100
SIPD,UKNPAG,UK Pagers & Voice Messaging,,,,,0.000700,0.000700,0.000700,0.000000,0.000000,0.000000
SIPD,UKNPN01,UK Personal Numbering pn1,,,,,0.149600,0.104600,0.045800,0.000000,0.000000,0.000000
SIPD,UKNPN02,UK Personal Numbering pn2,,,,,0.412000,0.421300,0.422900,0.000000,0.000000,0.000000
SIPD,UKNPN03,UK Personal Numbering pn3,,,,,0.399300,0.327300,0.331400,0.000000,0.000000,0.000000
SIPD,UKNPN04,UK Personal Numbering pn4,,,,,0.198700,0.213900,0.218000,0.000000,0.000000,0.000000
SIPD,UKNPN05,UK Personal Numbering pn5,,,,,0.120100,0.135400,0.139500,0.000000,0.000000,0.000000
SIPD,UKNPN06,UK Personal Numbering pn6,,,,,0.146300,0.161500,0.165600,0.000000,0.000000,0.000000
SIPD,UKNPN07,UK Personal Numbering pn7,,,,,0.006100,0.000000,0.000000,0.449700,0.449700,0.449700
SIPD,UKNPN08,UK Personal Numbering pn8,,,,,0.146100,0.161400,0.165500,0.000000,0.000000,0.000000
SIPD,UKNPN09,UK Personal Numbering pn9,,,,,0.176800,0.192100,0.196200,0.000000,0.000000,0.000000
SIPD,UKNPN10,UK Personal Numbering pn10,,,,,0.277200,0.292400,0.296500,0.000000,0.000000,0.000000
SIPD,UKNPN11,UK Personal Numbering pn11,,,,,0.312100,0.240000,0.244100,0.000000,0.000000,0.000000
SIPD,UKNPN12,UK Personal Numbering pn12,,,,,0.207400,0.222600,0.226700,0.000000,0.000000,0.000000
SIPD,UKNPN13,UK Personal Numbering pn13,,,,,0.312100,0.327300,0.331400,0.000000,0.000000,0.000000
SIPD,UKNPN14,UK Personal Numbering pn14,,,,,0.229200,0.244400,0.248500,0.000000,0.000000,0.000000
SIPD,UKNPN15,UK Personal Numbering pn15,,,,,0.085200,0.100500,0.104600,0.000000,0.000000,0.000000
SIPD,UKNPN16,UK Personal Numbering pn16,,,,,0.094000,0.109200,0.113300,0.000000,0.000000,0.000000
SIPD,UKNPN17,UK Personal Numbering pn17,,,,,0.102700,0.117900,0.122000,0.000000,0.000000,0.000000
SIPD,UKNPN18,UK Personal Numbering pn18,,,,,0.111400,0.126600,0.130700,0.000000,0.000000,0.000000
SIPD,UKNPN19,UK Personal Numbering pn19,,,,,0.059100,0.074300,0.078400,0.000000,0.000000,0.000000
SIPD,UKNPN20,UK Personal Numbering pn20,,,,,0.181200,0.196400,0.200500,0.000000,0.000000,0.000000
SIPD,UKNPN21,UK Personal Numbering pn21,,,,,0.330600,0.345900,0.350000,0.000000,0.000000,0.000000
SIPD,UKNPN22,UK Personal Numbering pn22,,,,,0.029000,0.011600,0.007500,0.000000,0.000000,0.000000
SIPD,UKNPNC,UK Messaging Services C,,,,,0.054400,0.028400,0.019800,0.000000,0.000000,0.000000
SIPD,UKNPND,UK Personal Numbering D,,,,,0.079500,0.054600,0.054600,0.000000,0.000000,0.000000
SIPD,UKNPNE,Personal Numbering E,,,,,0.017500,0.017500,0.017500,0.000000,0.000000,0.000000
SIPD,UKNPNF,UK Personal Numbering F,,,,,0.187900,0.131200,0.074600,0.000000,0.000000,0.000000
SIPD,UKNPNJ,UK Personal Numbering j,,,,,0.204000,0.145100,0.060600,0.000000,0.000000,0.000000
SIPD,UKNPNK,UK Personal Numbering k,,,,,0.250200,0.166400,0.077100,0.000000,0.000000,0.000000
SIPD,UKNSC001,UK NGCS SC001 (0ppm),0.013000,0.000000,0.000000,1,0.013000,0.013000,0.013000,0.000000,0.000000,0.000000
SIPD,UKNSC002,UK NGCS SC002 (1ppm),0.013000,0.008334,0.000000,1,0.021334,0.021334,0.021334,0.000000,0.000000,0.000000
SIPD,UKNSC003,UK NGCS SC003 (2ppm),0.013000,0.016667,0.000000,1,0.029667,0.029667,0.029667,0.000000,0.000000,0.000000
SIPD,UKNSC004,UK NGCS SC004 (3ppm),0.013000,0.025000,0.000000,1,0.038000,0.038000,0.038000,0.000000,0.000000,0.000000
SIPD,UKNSC005,UK NGCS SC005 (4ppm),0.013000,0.033334,0.000000,1,0.046334,0.046334,0.046334,0.000000,0.000000,0.000000
SIPD,UKNSC006,UK NGCS SC006 (5ppm),0.013000,0.041667,0.000000,1,0.054667,0.054667,0.054667,0.000000,0.000000,0.000000
SIPD,UKNSC007,UK NGCS SC007 (6ppm),0.013000,0.050000,0.000000,1,0.063000,0.063000,0.063000,0.000000,0.000000,0.000000
SIPD,UKNSC008,UK NGCS SC008 (7ppm),0.013000,0.058334,0.000000,1,0.071334,0.071334,0.071334,0.000000,0.000000,0.000000
SIPD,UKNSC009,UK NGCS SC009 (8ppm),0.013000,0.066667,0.000000,1,0.079667,0.079667,0.079667,0.000000,0.000000,0.000000
SIPD,UKNSC010,UK NGCS SC010 (9ppm),0.013000,0.075000,0.000000,1,0.088000,0.088000,0.088000,0.000000,0.000000,0.000000
SIPD,UKNSC011,UK NGCS SC011 (10ppm),0.013000,0.083334,0.000000,1,0.096334,0.096334,0.096334,0.000000,0.000000,0.000000
SIPD,UKNSC012,UK NGCS SC012 (11ppm),0.013000,0.091667,0.000000,1,0.104667,0.104667,0.104667,0.000000,0.000000,0.000000
SIPD,UKNSC013,UK NGCS SC013 (12ppm),0.013000,0.100000,0.000000,1,0.113000,0.113000,0.113000,0.000000,0.000000,0.000000
SIPD,UKNSC014,UK NGCS SC014 (13ppm),0.013000,0.108334,0.000000,1,0.121334,0.121334,0.121334,0.000000,0.000000,0.000000
SIPD,UKNSC015,UK NGCS SC015 (15ppm),0.013000,0.125000,0.000000,1,0.138000,0.138000,0.138000,0.000000,0.000000,0.000000
SIPD,UKNSC016,UK NGCS SC016 (20ppm),0.013000,0.166667,0.000000,1,0.179667,0.179667,0.179667,0.000000,0.000000,0.000000
SIPD,UKNSC017,UK NGCS SC017 (25ppm),0.013000,0.208334,0.000000,1,0.221334,0.221334,0.221334,0.000000,0.000000,0.000000
SIPD,UKNSC018,UK NGCS SC018 (30ppm),0.013000,0.250000,0.000000,1,0.263000,0.263000,0.263000,0.000000,0.000000,0.000000
SIPD,UKNSC019,UK NGCS SC019 (35ppm),0.013000,0.291667,0.000000,1,0.304667,0.304667,0.304667,0.000000,0.000000,0.000000
SIPD,UKNSC020,UK NGCS SC020 (36ppm),0.013000,0.300000,0.000000,1,0.313000,0.313000,0.313000,0.000000,0.000000,0.000000
SIPD,UKNSC021,UK NGCS SC021 (40ppm),0.013000,0.333334,0.000000,1,0.346334,0.346334,0.346334,0.000000,0.000000,0.000000
SIPD,UKNSC022,UK NGCS SC022 (45ppm),0.013000,0.375000,0.000000,1,0.388000,0.388000,0.388000,0.000000,0.000000,0.000000
SIPD,UKNSC023,UK NGCS SC023 (46ppm),0.013000,0.383334,0.000000,1,0.396334,0.396334,0.396334,0.000000,0.000000,0.000000
SIPD,UKNSC024,UK NGCS SC024 (50ppm),0.013000,0.416667,0.000000,1,0.429667,0.429667,0.429667,0.000000,0.000000,0.000000
SIPD,UKNSC025,UK NGCS SC025 (55ppm),0.013000,0.458334,0.000000,1,0.471334,0.471334,0.471334,0.000000,0.000000,0.000000
SIPD,UKNSC026,UK NGCS SC026 (60ppm),0.013000,0.500000,0.000000,1,0.513000,0.513000,0.513000,0.000000,0.000000,0.000000
SIPD,UKNSC027,UK NGCS SC027 (65ppm),0.013000,0.541667,0.000000,1,0.554667,0.554667,0.554667,0.000000,0.000000,0.000000
SIPD,UKNSC028,UK NGCS SC028 (70ppm),0.013000,0.583334,0.000000,1,0.596334,0.596334,0.596334,0.000000,0.000000,0.000000
SIPD,UKNSC029,UK NGCS SC029 (75ppm),0.013000,0.625000,0.000000,1,0.638000,0.638000,0.638000,0.000000,0.000000,0.000000
SIPD,UKNSC030,UK NGCS SC030 (80ppm),0.013000,0.666667,0.000000,1,0.679667,0.679667,0.679667,0.000000,0.000000,0.000000
SIPD,UKNSC031,UK NGCS SC031 (90ppm),0.013000,0.750000,0.000000,1,0.763000,0.763000,0.763000,0.000000,0.000000,0.000000
SIPD,UKNSC032,UK NGCS SC032 (95ppm),0.013000,0.791667,0.000000,1,0.804667,0.804667,0.804667,0.000000,0.000000,0.000000
SIPD,UKNSC033,UK NGCS SC033 (99ppm),0.013000,0.825000,0.000000,1,0.838000,0.838000,0.838000,0.000000,0.000000,0.000000
SIPD,UKNSC034,UK NGCS SC034 (100ppm),0.013000,0.833334,0.000000,1,0.846334,0.846334,0.846334,0.000000,0.000000,0.000000
SIPD,UKNSC035,UK NGCS SC035 (110ppm),0.013000,0.916667,0.000000,1,0.929667,0.929667,0.929667,0.000000,0.000000,0.000000
SIPD,UKNSC036,UK NGCS SC036 (120ppm),0.013000,1.000000,0.000000,1,1.013000,1.013000,1.013000,0.000000,0.000000,0.000000
SIPD,UKNSC037,UK NGCS SC037 (145ppm),0.013000,1.208334,0.000000,1,1.221334,1.221334,1.221334,0.000000,0.000000,0.000000
SIPD,UKNSC038,UK NGCS SC038 (150ppm),0.013000,1.250000,0.000000,1,1.263000,1.263000,1.263000,0.000000,0.000000,0.000000
SIPD,UKNSC039,UK NGCS SC039 (155ppm),0.013000,1.291667,0.000000,1,1.304667,1.304667,1.304667,0.000000,0.000000,0.000000
SIPD,UKNSC040,UK NGCS SC040 (180ppm),0.013000,1.500000,0.000000,1,1.513000,1.513000,1.513000,0.000000,0.000000,0.000000
SIPD,UKNSC041,UK NGCS SC041 (200ppm),0.013000,1.666667,0.000000,1,1.679667,1.679667,1.679667,0.000000,0.000000,0.000000
SIPD,UKNSC042,UK NGCS SC042 (220ppm),0.013000,1.833334,0.000000,1,1.846334,1.846334,1.846334,0.000000,0.000000,0.000000
SIPD,UKNSC043,UK NGCS SC043 (250ppm),0.013000,2.083334,0.000000,1,2.096334,2.096334,2.096334,0.000000,0.000000,0.000000
SIPD,UKNSC044,UK NGCS SC044 (300ppm),0.013000,2.500000,0.000000,1,2.513000,2.513000,2.513000,0.000000,0.000000,0.000000
SIPD,UKNSC045,UK NGCS SC045 (360ppm),0.013000,3.000000,0.000000,1,3.013000,3.013000,3.013000,0.000000,0.000000,0.000000
SIPD,UKNSC046,UK NGCS SC046 (5ppc),0.013000,0.000000,0.041667,1,0.013000,0.013000,0.013000,0.041667,0.041667,0.041667
SIPD,UKNSC047,UK NGCS SC047 (10ppc),0.013000,0.000000,0.083334,1,0.013000,0.013000,0.013000,0.083334,0.083334,0.083334
SIPD,UKNSC048,UK NGCS SC048 (15ppc),0.013000,0.000000,0.125000,1,0.013000,0.013000,0.013000,0.125000,0.125000,0.125000
SIPD,UKNSC049,UK NGCS SC049 (25ppc),0.013000,0.000000,0.208334,1,0.013000,0.013000,0.013000,0.208334,0.208334,0.208334
SIPD,UKNSC050,UK NGCS SC050 (30ppc),0.013000,0.000000,0.250000,1,0.013000,0.013000,0.013000,0.250000,0.250000,0.250000
SIPD,UKNSC051,UK NGCS SC051 (35ppc),0.013000,0.000000,0.291667,1,0.013000,0.013000,0.013000,0.291667,0.291667,0.291667
SIPD,UKNSC052,UK NGCS SC052 (40ppc),0.013000,0.000000,0.333334,1,0.013000,0.013000,0.013000,0.333334,0.333334,0.333334
SIPD,UKNSC053,UK NGCS SC053 (48ppc),0.013000,0.000000,0.400000,1,0.013000,0.013000,0.013000,0.400000,0.400000,0.400000
SIPD,UKNSC054,UK NGCS SC054 (50ppc),0.013000,0.000000,0.416667,1,0.013000,0.013000,0.013000,0.416667,0.416667,0.416667
SIPD,UKNSC055,UK NGCS SC055 (70ppc),0.013000,0.000000,0.583334,1,0.013000,0.013000,0.013000,0.583334,0.583334,0.583334
SIPD,UKNSC056,UK NGCS SC056 (75ppc),0.013000,0.000000,0.625000,1,0.013000,0.013000,0.013000,0.625000,0.625000,0.625000
SIPD,UKNSC057,UK NGCS SC057 (100ppc),0.013000,0.000000,0.833334,1,0.013000,0.013000,0.013000,0.833334,0.833334,0.833334
SIPD,UKNSC058,UK NGCS SC058 (145ppc),0.013000,0.000000,1.208334,1,0.013000,0.013000,0.013000,1.208334,1.208334,1.208334
SIPD,UKNSC059,UK NGCS SC059 (150ppc),0.013000,0.000000,1.250000,1,0.013000,0.013000,0.013000,1.250000,1.250000,1.250000
SIPD,UKNSC060,UK NGCS SC060 (200ppc),0.013000,0.000000,1.666667,1,0.013000,0.013000,0.013000,1.666667,1.666667,1.666667
SIPD,UKNSC061,UK NGCS SC061 (250ppc),0.013000,0.000000,2.083334,1,0.013000,0.013000,0.013000,2.083334,2.083334,2.083334
SIPD,UKNSC062,UK NGCS SC062 (300ppc),0.013000,0.000000,2.500000,1,0.013000,0.013000,0.013000,2.500000,2.500000,2.500000
SIPD,UKNSC063,UK NGCS SC063 (400ppc),0.013000,0.000000,3.333334,1,0.013000,0.013000,0.013000,3.333334,3.333334,3.333334
SIPD,UKNSC064,UK NGCS SC064 (500ppc),0.013000,0.000000,4.166667,1,0.013000,0.013000,0.013000,4.166667,4.166667,4.166667
SIPD,UKNSC065,UK NGCS SC065 (600ppc),0.013000,0.000000,5.000000,1,0.013000,0.013000,0.013000,5.000000,5.000000,5.000000
SIPD,UKNSC066,UK NGCS SC066 (77ppc + 155ppm),0.013000,1.291667,0.641667,1,1.304667,1.304667,1.304667,0.641667,0.641667,0.641667
SIPD,UKNSC067,UK NGCS SC067 (80ppc + 25ppm),0.013000,0.208334,0.666667,1,0.221334,0.221334,0.221334,0.666667,0.666667,0.666667
SIPD,UKNSC068,UK NGCS SC068 (399ppc + 139ppm),0.013000,1.158334,3.325000,1,1.171334,1.171334,1.171334,3.325000,3.325000,3.325000
SIPD,UKNSC069,UK NGCS SC069 (499ppc + 135ppm),0.013000,1.125000,4.158334,1,1.138000,1.138000,1.138000,4.158334,4.158334,4.158334
SIPD,UKNSC070,UK NGCS SC070 (550ppc + 275ppm),0.013000,2.291667,4.583334,61,2.304667,2.304667,2.304667,4.583334,4.583334,4.583334
SIPD,UKNSC071,UK NGCS SC071 (574ppc + 299ppm),0.013000,2.491667,4.783334,61,2.504667,2.504667,2.504667,4.783334,4.783334,4.783334
SIPD,UKNSC072,UK NGCS SC072 (698ppc + 349ppm),0.013000,2.908334,5.816667,61,2.921334,2.921334,2.921334,5.816667,5.816667,5.816667
SIPD,UKNSC073,UK NGCS SC073 (250ppm),0.013000,2.083334,0.000000,61,2.096334,2.096334,2.096334,0.000000,0.000000,0.000000
SIPD,UKNSC074,UK NGCS SC074 (5ppc + 5ppm),0.013000,0.041667,0.041667,61,0.054667,0.054667,0.054667,0.041667,0.041667,0.041667
SIPD,UKNSC075,UK NGCS SC075 (10ppc + 10ppm),0.013000,0.083334,0.083334,61,0.096334,0.096334,0.096334,0.083334,0.083334,0.083334
SIPD,UKNSC076,UK NGCS SC076 (40ppc + 40ppm),0.013000,0.333334,0.333334,61,0.346334,0.346334,0.346334,0.333334,0.333334,0.333334
SIPD,UKNSC077,UK NGCS SC077 (70ppc + 70ppm),0.013000,0.583334,0.583334,61,0.596334,0.596334,0.596334,0.583334,0.583334,0.583334
SIPD,UKNSC078,UK NGCS SC078 (150ppc + 150ppm),0.013000,1.250000,1.250000,61,1.263000,1.263000,1.263000,1.250000,1.250000,1.250000
SIPD,UKNSC079,UK NGCS SC079 (200ppc + 200ppm),0.013000,1.666667,1.666667,61,1.679667,1.679667,1.679667,1.666667,1.666667,1.666667
SIPD,UKNSC080,UK NGCS SC080 (445ppc + 257ppm),0.013000,2.141667,3.708334,61,2.154667,2.154667,2.154667,3.708334,3.708334,3.708334
SIPD,UKNSC081,UK NGCS SC081 (18ppm),0.013000,0.150000,0.000000,1,0.163000,0.163000,0.163000,0.000000,0.000000,0.000000
SIPD,UKNSC082,UK NGCS SC082 (22ppm),0.013000,0.183333,0.000000,1,0.196334,0.196334,0.196334,0.000000,0.000000,0.000000
SIPD,UKNSC083,UK NGCS SC083 (350ppm),0.013000,2.916667,0.000000,1,2.929667,2.929667,2.929667,0.000000,0.000000,0.000000
SIPD,UKNSC084,UK NGCS SC084 (250ppc + 75ppm),0.013000,0.625000,2.083333,1,0.638000,0.638000,0.638000,2.083333,2.083333,2.083333
SIPD,UKNSC085,UK NGCS SC085 (260ppc + 99ppm),0.013000,0.825000,2.166667,1,0.838000,0.838000,0.838000,2.166667,2.166667,2.166667
SIPD,UKNSC086,UK NGCS SC086 (275ppc + 78ppm),0.013000,0.650000,2.291667,1,0.663000,0.663000,0.663000,2.291667,2.291667,2.291667
SIPD,UKNSC087,UK NGCS SC087 (898ppc + 449ppm),0.013000,3.741667,7.483333,61,3.754667,3.754667,3.754667,7.483333,7.483333,7.483333
SIPD,UKNSC088,UK NGCS SC088 (998ppc + 499ppm),0.013000,4.158333,8.316667,61,4.171334,4.171334,4.171334,8.316667,8.316667,8.316667
SIPD,UKNSC089,UK NGCS SC089 (1198ppc + 599ppm),0.013000,4.991667,9.983333,61,5.004667,5.004667,5.004667,9.983333,9.983333,9.983333
SIPD,UKNSC091,UK NGCS SC091 (1598ppc + 799ppm),0.013000,6.658333,13.316667,61,6.671334,6.671334,6.671334,13.316667,13.316667,13.316667
SIPD,UKNSC092,UK NGCS SC092 (7ppc +7ppm),0.013000,0.058333,0.058333,61,0.071334,0.071334,0.071334,0.058333,0.058333,0.058333
SIPD,UKNSC093,UK NGCS SC093 (13ppc + 13ppm),0.013000,0.108333,0.108333,61,0.121334,0.121334,0.121334,0.108333,0.108333,0.108333
SIPD,UKNSC094,UK NGCS SC094 (80ppc +80ppm),0.013000,0.666667,0.666667,61,0.679667,0.679667,0.679667,0.666667,0.666667,0.666667
SIPD,UKNSC095,UK NGCS SC095 (100ppc + 100ppm),0.013000,0.833333,0.833333,61,0.846333,0.846333,0.846333,0.833333,0.833333,0.833333
SIPD,UKNSC096,UK NGCS SC096 (300ppc+ 300ppm),0.013000,2.500000,2.500000,61,2.513000,2.513000,2.513000,2.500000,2.500000,2.500000
SIPD,UKNSC097,UK NGCS SC097 (360ppc + 50ppm),0.013000,0.416667,3.000000,61,0.429667,0.429667,0.429667,3.000000,3.000000,3.000000
SIPD,UKNSC098,UK NGCS SC098 (360ppc + 150ppm),0.013000,1.250000,3.000000,61,1.263000,1.263000,1.263000,3.000000,3.000000,3.000000
SIPD,UKNSC099,UK NGCS SC099 (360ppc + 200ppm),0.013000,1.666667,3.000000,61,1.679667,1.679667,1.679667,3.000000,3.000000,3.000000
SIPD,UKNSC100,UK NGCS SC100 (360ppc + 360ppm),0.013000,3.000000,3.000000,61,3.013000,3.013000,3.013000,3.000000,3.000000,3.000000
SIPD,UKNTIME,UK Timeline,,,,,0.012900,0.008900,0.008100,0.107000,0.107000,0.107000
SIPD,UKR,Ukraine,,,,,0.137600,0.137600,0.137600,0.000000,0.000000,0.000000
SIPD,UKRMOB,Ukraine Mobile,,,,,0.318400,0.318400,0.318400,0.000000,0.000000,0.000000
SIPD,URU,Uruguay,,,,,0.069700,0.069700,0.069700,0.000000,0.000000,0.000000
SIPD,URUMOB,Uruguay Mobile,,,,,0.207500,0.207500,0.207500,0.000000,0.000000,0.000000
SIPD,USA,USA,,,,,0.004200,0.004200,0.004200,0.000000,0.000000,0.000000
SIPD,USAHAW,USA Hawaii,,,,,0.004400,0.004400,0.004400,0.000000,0.000000,0.000000
SIPD,USV,US Virgin Islands,,,,,0.010800,0.010800,0.010800,0.000000,0.000000,0.000000
SIPD,UZB,Uzbekistan,,,,,0.066500,0.066500,0.066500,0.000000,0.000000,0.000000
SIPD,UZBMOB,Uzbekistan Mobile,,,,,0.074500,0.074500,0.074500,0.000000,0.000000,0.000000
SIPD,VAN,Vanuatu,,,,,0.825700,0.825700,0.825700,0.000000,0.000000,0.000000
SIPD,VEN,Venezuela,,,,,0.102800,0.102800,0.102800,0.000000,0.000000,0.000000
SIPD,VENMOB,Venezuela Mobile,,,,,0.098000,0.098000,0.098000,0.000000,0.000000,0.000000
SIPD,VIE,Vietnam,,,,,0.092000,0.092000,0.092000,0.000000,0.000000,0.000000
SIPD,WAF,Wallis & Futuna,,,,,0.402200,0.402200,0.402200,0.000000,0.000000,0.000000
SIPD,WSM,Western Samoa,,,,,0.830300,0.830300,0.830300,0.000000,0.000000,0.000000
SIPD,YEM,Yemen,,,,,0.184500,0.184500,0.184500,0.000000,0.000000,0.000000
SIPD,YEMMOB,Yemen Mobile,,,,,0.186800,0.186800,0.186800,0.000000,0.000000,0.000000
SIPD,ZAM,Zambia,,,,,0.480500,0.480500,0.480500,0.000000,0.000000,0.000000
SIPD,ZAMMOB,Zambia Mobile,,,,,0.601400,0.601400,0.601400,0.000000,0.000000,0.000000
SIPD,ZIM,Zimbabwe,,,,,0.128400,0.128400,0.128400,0.000000,0.000000,0.000000
SIPD,ZIMMOB,Zimbabwe Mobile,,,,,0.581000,0.581000,0.581000,0.000000,0.000000,0.000000
