"10/05/2017","October 2017","DC2N17GKP43397_A1","IPDC Standard - Free Mobile 3 Year Term","Rental",0.0000,0.0000,1
"10/05/2017","October 2017","DC2N17GKP43397_A1","SIP Trunking Fraud Protection","Rental",0.0000,0.0000,4
"10/05/2017","October 2017","DC2N17GKP43397_A1","IPDC Channel","Rental",18.0000,0.0000,4
"10/05/2017","October 2017","DC2N17GKP43397_S1","IPDC Standard - Free Mobile 3 Year Term","Rental",0.0000,0.0000,1
"10/05/2017","October 2017","DC2N17GKP43397_S1","IPDC Channel - Enhanced Standby","Rental",0.0000,0.0000,4
"23/02/2017","October 2017","DC2N17COP40785_S1","IPDC Standard - Free Mobile 3 Year Term","Rental",0.0000,0.0000,1
"23/02/2017","October 2017","DC2N17COP40785_S1","IPDC Channel - Enhanced Standby","Rental",0.0000,0.0000,4
"23/02/2017","October 2017","DC2N17COP40785_A1","IPDC Standard - Free Mobile 3 Year Term","Rental",0.0000,0.0000,1
"23/02/2017","October 2017","DC2N17COP40785_A1","SIP Trunking Fraud Protection","Rental",0.0000,0.0000,4
"23/02/2017","October 2017","DC2N17COP40785_A1","IPDC Channel","Rental",18.0000,0.0000,4
