"16/05/2017","July 2017","1782623218","Gamma Fixed IP","Rental",0.0000,0.0000,1
"16/05/2017","July 2017","1782623218","FTTC 80:20","Rental",21.9500,0.0000,1
"15/05/2017","July 2017","1509214299","Gamma Fixed IP","Rental",0.0000,0.0000,1
"15/05/2017","July 2017","1509214299","FTTC 80:20","Rental",21.9500,0.0000,1
"10/03/2017","July 2017","1162692806","Gamma Fixed IP","Rental",0.0000,0.0000,1
"10/03/2017","July 2017","1162692806","FTTC 80:20","Rental",21.9500,0.0000,1
