"Call Type","Call Cause Definition Required","Customer Identifier","Non-Charged Party","Call Date","Call Time","Duration","Bytes Transmitted","Bytes Received","Description","Chargecode","Time Band","Salesprice","Salesprice (Pre-Bundle)","Extension","DDI","Grouping ID","Call Class (Feature)","Carrier","Recording","VAT","Country of Origin","Network","Retail Tariff Code","Remote Network","APN","Diverted Number","Ring time","Record ID","Currency","Caller Line Identity","Network Access Reference","NGCS Access Charge","NGCS Service Charge","Total Bytes Transferred","User ID","Onward Billing Reference","Contract Name","Bundle Name","Bundle Allowance","Discount Reference","Routing Code"
"V","0","+441162893308","+448080044549","28/08/2017","07:37:36","12","","","UK Freephone","UKNFPH","2","0.000000","","","+441162893308","","CPS","Gamma","","","","","3194","","","","","CE60832D64903A3EBB9E0B29B087D7FDD","GBP","+441162893308","","","","","","","","","","",""
"V","0","+441162893308","+448080044549","28/08/2017","07:39:36","12","","","UK Freephone","UKNFPH","2","0.000000","","","+441162893308","","CPS","Gamma","","","","","3194","","","","","C34D6D1ABA9B9E7DE2E143661AA5367CB","GBP","+441162893308","","","","","","","","","","",""
