"Call Type","Call Cause Definition Required","Customer Identifier","Non-Charged Party","Call Date","Call Time","Duration","Bytes Transmitted","Bytes Received","Description","Chargecode","Time Band","Salesprice","Salesprice (Pre-Bundle)","Extension","DDI","Grouping ID","Call Class (Feature)","Carrier","Recording","VAT","Country of Origin","Network","Retail Tariff Code","Remote Network","APN","Diverted Number","Ring time","Record ID","Currency","Caller Line Identity","Network Access Reference","NGCS Access Charge","NGCS Service Charge","Total Bytes Transferred","User ID","Onward Billing Reference","Contract Name","Bundle Name","Bundle Allowance","Discount Reference","Routing Code"
"N","0","+443300538880","+447768xxxxxx","13/07/2017","09:32:49","110","","","UK STOKE-ON-TRENT","UKN","1","0.014000","","","","","NT03","Gamma","","","","","3194","","","+441782898004","","S96FB7E068D30F066F431C6CC1E14C460","GBP","+443300538880","","","","","","","","","","",""
"N","0","+443300538880","+447741xxxxxx","13/07/2017","09:44:40","81","","","UK STOKE-ON-TRENT","UKN","1","0.010000","","","","","NT03","Gamma","","","","","3194","","","+441782898004","","SD87E43D4418B461BD4860B2D30D41C4C","GBP","+443300538880","","","","","","","","","","",""
"N","0","+443300539660","+442076xxxxxx","13/07/2017","10:06:04","110","","","UK LEICESTER","UKN","1","0.014000","","","","","NT03","Gamma","","","","","3194","","","+441162690770","","Se876a3c034987d6238e89b89249557a9","GBP","+443300539660","","","","","","","","","","",""
"N","0","+443300538880","+447495xxxxxx","13/07/2017","10:34:26","116","","","UK STOKE-ON-TRENT","UKN","1","0.014000","","","","","NT03","Gamma","","","","","3194","","","+441782898004","","SA4842B3A642CA93AA2AB0CEBDAA5EF86","GBP","+443300538880","","","","","","","","","","",""
"N","0","+443300538880","+447495xxxxxx","13/07/2017","11:07:49","125","","","UK STOKE-ON-TRENT","UKN","1","0.015000","","","","","NT03","Gamma","","","","","3194","","","+441782898004","","SF7C5C29805E4DD813127D53ABCE5A4A7","GBP","+443300538880","","","","","","","","","","",""
"N","0","+443300538880","+353224xxxxxx","13/07/2017","11:40:50","105","","","UK STOKE-ON-TRENT","UKN","1","0.013000","","","","","NT03","Gamma","","","","","3194","","","+441782898004","","S3a1dabeb485886047c2d4d12437faf2d","GBP","+443300538880","","","","","","","","","","",""
"N","0","+443300538880","+441538xxxxxx","13/07/2017","12:00:53","165","","","UK STOKE-ON-TRENT","UKN","1","0.020000","","","","","NT03","Gamma","","","","","3194","","","+441782898004","","S4794BB2A35D1FCFC6337630ED9CA93AE","GBP","+443300538880","","","","","","","","","","",""
"N","0","+443300538880","+447741xxxxxx","13/07/2017","12:01:56","280","","","UK STOKE-ON-TRENT","UKN","1","0.034000","","","","","NT03","Gamma","","","","","3194","","","+441782898004","","S347BC1A74717F5DF687D86A3881A0DD2","GBP","+443300538880","","","","","","","","","","",""
"N","0","+443300539660","+441704xxxxxx","13/07/2017","12:43:49","121","","","UK LEICESTER","UKN","1","0.015000","","","","","NT03","Gamma","","","","","3194","","","+441162690770","","S388E2282589E2BCA10A82F20DE1EE0DE","GBP","+443300539660","","","","","","","","","","",""
"N","0","+443300538880","+442084xxxxxx","13/07/2017","13:02:33","52","","","UK STOKE-ON-TRENT","UKN","1","0.007000","","","","","NT03","Gamma","","","","","3194","","","+441782898004","","S4E0B48DA057AAEF123BBC82B97615718","GBP","+443300538880","","","","","","","","","","",""
"N","0","+443300538880","+447970xxxxxx","13/07/2017","13:03:36","173","","","UK STOKE-ON-TRENT","UKN","1","0.021000","","","","","NT03","Gamma","","","","","3194","","","+441782898004","","SBE068473876F1CB2C38EBE9E8E58585D","GBP","+443300538880","","","","","","","","","","",""
"N","0","+443300538880","+447939xxxxxx","13/07/2017","13:07:11","92","","","UK STOKE-ON-TRENT","UKN","1","0.012000","","","","","NT03","Gamma","","","","","3194","","","+441782898004","","SC5C5870FC728ECCF432D11C6710E075D","GBP","+443300538880","","","","","","","","","","",""
"N","0","+443300539660","+447888xxxxxx","13/07/2017","13:48:27","42","","","UK LEICESTER","UKN","1","0.006000","","","","","NT03","Gamma","","","","","3194","","","+441162690770","","S6F5F2E07C76D891144100EEC592969C3","GBP","+443300539660","","","","","","","","","","",""
"N","0","+443300538880","+447741xxxxxx","13/07/2017","14:01:08","187","","","UK STOKE-ON-TRENT","UKN","1","0.023000","","","","","NT03","Gamma","","","","","3194","","","+441782898004","","S8354505DEB43AEB6A9915B7D54D946C9","GBP","+443300538880","","","","","","","","","","",""
"N","0","+443300538880","+447741xxxxxx","13/07/2017","14:12:34","222","","","UK STOKE-ON-TRENT","UKN","1","0.027000","","","","","NT03","Gamma","","","","","3194","","","+441782898004","","S4A67A97EF7E5EE0BA186F7489B3DA812","GBP","+443300538880","","","","","","","","","","",""
"N","0","+443300538880","+447817xxxxxx","13/07/2017","14:28:29","203","","","UK STOKE-ON-TRENT","UKN","1","0.025000","","","","","NT03","Gamma","","","","","3194","","","+441782898004","","SC73308B2D0782E5D69A99C671A5D8326","GBP","+443300538880","","","","","","","","","","",""
"N","0","+443300539660","+441392xxxxxx","13/07/2017","14:46:43","348","","","UK LEICESTER","UKN","1","0.042000","","","","","NT03","Gamma","","","","","3194","","","+441162690770","","S5E8693E196BCDA0F59E779F976DDCD1C","GBP","+443300539660","","","","","","","","","","",""
"N","0","+443300539660","+447888xxxxxx","13/07/2017","15:05:17","189","","","UK LEICESTER","UKN","1","0.023000","","","","","NT03","Gamma","","","","","3194","","","+441162690770","","SA9ED8F624A29DAF41508A3F63B25416A","GBP","+443300539660","","","","","","","","","","",""
"N","0","+443300538880","+353224xxxxxx","13/07/2017","15:19:43","70","","","UK STOKE-ON-TRENT","UKN","1","0.009000","","","","","NT03","Gamma","","","","","3194","","","+441782898004","","S10722fb71696b60d6fc1e5aefff6fd8a","GBP","+443300538880","","","","","","","","","","",""
"N","0","+443300538880","+499876xxxxxx","13/07/2017","15:40:03","181","","","UK STOKE-ON-TRENT","UKN","1","0.022000","","","","","NT03","Gamma","","","","","3194","","","+441782898004","","S2083080CB135CAB0D28F4B30ECBD2181","GBP","+443300538880","","","","","","","","","","",""
"N","0","+443300538880","+447495xxxxxx","13/07/2017","15:56:39","210","","","UK STOKE-ON-TRENT","UKN","1","0.026000","","","","","NT03","Gamma","","","","","3194","","","+441782898004","","S22C53DD7A47ACD45E27B1DA6C38AA9E1","GBP","+443300538880","","","","","","","","","","",""
"N","0","+443300538880","+441422xxxxxx","13/07/2017","16:01:34","95","","","UK STOKE-ON-TRENT","UKN","1","0.012000","","","","","NT03","Gamma","","","","","3194","","","+441782898004","","SFC3D4CCBBB2B92533FD129D86BCD61C8","GBP","+443300538880","","","","","","","","","","",""
