"Call Type","Call Cause Definition Required","Customer Identifier","Non-Charged Party","Call Date","Call Time","Duration","Bytes Transmitted","Bytes Received","Description","Chargecode","Time Band","Salesprice","Salesprice (Pre-Bundle)","Extension","DDI","Grouping ID","Call Class (Feature)","Carrier","Recording","VAT","Country of Origin","Network","Retail Tariff Code","Remote Network","APN","Diverted Number","Ring time","Record ID","Currency","Caller Line Identity","Network Access Reference","NGCS Access Charge","NGCS Service Charge","Total Bytes Transferred","User ID","Onward Billing Reference","Contract Name","Bundle Name","Bundle Allowance","Discount Reference","Routing Code"
"N","0","+443300538880","+447871xxxxxx","11/08/2017","08:54:19","31","","","UK STOKE-ON-TRENT","UKN","1","0.004000","","","","","NT03","Gamma","","","","","3194","","","+441782898004","","S63B0C87E04419820AF94DA1C1C3A41C2","GBP","+443300538880","","","","","","","","","","",""
"N","0","+443300538880","+441302xxxxxx","11/08/2017","09:07:20","63","","","UK STOKE-ON-TRENT","UKN","1","0.008000","","","","","NT03","Gamma","","","","","3194","","","+441782898004","","Saf9b0cb6d6d5f4e7af58c32150dc97a9","GBP","+443300538880","","","","","","","","","","",""
"N","0","+443300538880","+447779xxxxxx","11/08/2017","09:10:35","148","","","UK STOKE-ON-TRENT","UKN","1","0.018000","","","","","NT03","Gamma","","","","","3194","","","+441782898004","","SFF6AC3A836EF32CB16C11F2729685446","GBP","+443300538880","","","","","","","","","","",""
"N","0","+443300538880","+447595xxxxxx","11/08/2017","09:24:38","122","","","UK STOKE-ON-TRENT","UKN","1","0.015000","","","","","NT03","Gamma","","","","","3194","","","+441782898004","","SD0CD85885A6A910EFB1A0811FD0DE1E4","GBP","+443300538880","","","","","","","","","","",""
"N","0","+443300538880","+447557xxxxxx","11/08/2017","09:37:19","423","","","UK STOKE-ON-TRENT","UKN","1","0.051000","","","","","NT03","Gamma","","","","","3194","","","+441782898004","","S73B8B56BB1A254C594CF1D041440266E","GBP","+443300538880","","","","","","","","","","",""
"N","0","+443300538880","+441249xxxxxx","11/08/2017","09:55:09","196","","","UK STOKE-ON-TRENT","UKN","1","0.024000","","","","","NT03","Gamma","","","","","3194","","","+441782898004","","S62D1406D9E4D811CE46F4E82D12AC42D","GBP","+443300538880","","","","","","","","","","",""
"N","0","+443300538880","+441738xxxxxx","11/08/2017","09:58:02","96","","","UK STOKE-ON-TRENT","UKN","1","0.012000","","","","","NT03","Gamma","","","","","3194","","","+441782898004","","S4D0611B0D36E8C46E065302835EA4552","GBP","+443300538880","","","","","","","","","","",""
"N","0","+443300538880","+441782xxxxxx","11/08/2017","09:58:36","64","","","UK STOKE-ON-TRENT","UKN","1","0.008000","","","","","NT03","Gamma","","","","","3194","","","+441782898004","","SA379F86CCC91C9293F24EFC71C91B60E","GBP","+443300538880","","","","","","","","","","",""
"N","0","+443300538880","+441882xxxxxx","11/08/2017","11:12:30","147","","","UK STOKE-ON-TRENT","UKN","1","0.018000","","","","","NT03","Gamma","","","","","3194","","","+441782898004","","SCF21D2B276459CEAEF394565C4890AF3","GBP","+443300538880","","","","","","","","","","",""
"N","0","+443300538880","+441480xxxxxx","11/08/2017","11:20:56","113","","","UK STOKE-ON-TRENT","UKN","1","0.014000","","","","","NT03","Gamma","","","","","3194","","","+441782898004","","SF3A0062FDAB3C2F9C0987CE9A174F857","GBP","+443300538880","","","","","","","","","","",""
"N","0","+443300538880","+442080xxxxxx","11/08/2017","11:37:08","56","","","UK STOKE-ON-TRENT","UKN","1","0.007000","","","","","NT03","Gamma","","","","","3194","","","+441782898004","","S37B6069CA9D78F32CD754EEAD93FA634","GBP","+443300538880","","","","","","","","","","",""
"N","0","+443300538880","+441691xxxxxx","11/08/2017","11:44:09","189","","","UK STOKE-ON-TRENT","UKN","1","0.023000","","","","","NT03","Gamma","","","","","3194","","","+441782898004","","Sc755254071ab443ec7c11acb0d2193e8","GBP","+443300538880","","","","","","","","","","",""
"N","0","+443300539660","+441326xxxxxx","11/08/2017","12:34:35","232","","","UK LEICESTER","UKN","1","0.028000","","","","","NT03","Gamma","","","","","3194","","","+441162690770","","S50DF8C6061A0BF4E2677FB40AD76902D","GBP","+443300539660","","","","","","","","","","",""
"N","0","+443300538880","+441942xxxxxx","11/08/2017","12:39:17","212","","","UK STOKE-ON-TRENT","UKN","1","0.026000","","","","","NT03","Gamma","","","","","3194","","","+441782898004","","S074a41bf364457140022a3920910b80e","GBP","+443300538880","","","","","","","","","","",""
"N","0","+443300538880","+447958xxxxxx","11/08/2017","13:05:35","16","","","UK STOKE-ON-TRENT","UKN","1","0.002000","","","","","NT03","Gamma","","","","","3194","","","+441782898004","","SB26E9CF33C08FF05FFDD9FEF8B9E7867","GBP","+443300538880","","","","","","","","","","",""
"N","0","+443300538880","+441516xxxxxx","11/08/2017","14:37:58","87","","","UK STOKE-ON-TRENT","UKN","1","0.011000","","","","","NT03","Gamma","","","","","3194","","","+441782898004","","S44BD661F410BE53B347B6B564FD4ACE1","GBP","+443300538880","","","","","","","","","","",""
"N","0","+443300539660","+441992xxxxxx","11/08/2017","15:00:57","185","","","UK LEICESTER","UKN","1","0.023000","","","","","NT03","Gamma","","","","","3194","","","+441162690770","","SC3F948490114803BE7FCF7FA5745A6AD","GBP","+443300539660","","","","","","","","","","",""
"N","0","+443300538880","+441387xxxxxx","11/08/2017","15:57:24","144","","","UK STOKE-ON-TRENT","UKN","1","0.018000","","","","","NT03","Gamma","","","","","3194","","","+441782898004","","S3A6A76C7B39EE6DC6A5C17970CE6607F","GBP","+443300538880","","","","","","","","","","",""
"N","0","+443300538880","+442077xxxxxx","11/08/2017","16:37:13","625","","","UK STOKE-ON-TRENT","UKN","1","0.075000","","","","","NT03","Gamma","","","","","3194","","","+441782898004","","SCD7BA5356CCE59B0E18AEA3CF3ACFB2D","GBP","+443300538880","","","","","","","","","","",""
"N","0","+443300538880","+441737xxxxxx","11/08/2017","16:55:34","139","","","UK STOKE-ON-TRENT","UKN","1","0.017000","","","","","NT03","Gamma","","","","","3194","","","+441782898004","","Scfc71032b05604e2db331e570d5954c4","GBP","+443300538880","","","","","","","","","","",""
