"Call Type","Call Cause Definition Required","Customer Identifier","Non-Charged Party","Call Date","Call Time","Duration","Bytes Transmitted","Bytes Received","Description","Chargecode","Time Band","Salesprice","Salesprice (Pre-Bundle)","Extension","DDI","Grouping ID","Call Class (Feature)","Carrier","Recording","VAT","Country of Origin","Network","Retail Tariff Code","Remote Network","APN","Diverted Number","Ring time","Record ID","Currency","Caller Line Identity","Network Access Reference","NGCS Access Charge","NGCS Service Charge","Total Bytes Transferred","User ID","Onward Billing Reference","Contract Name","Bundle Name","Bundle Allowance","Discount Reference","Routing Code"
"N","0","+443300538880","+441386xxxxxx","07/06/2017","09:06:39","77","","","UK STOKE-ON-TRENT","UKN","1","0.010000","","","","","NT03","Gamma","","","","","3194","","","+441782898004","","Sd265106174b83f741d938914269b5479","GBP","+443300538880","","","","","","","","","","",""
"N","0","+443300538880","+447741xxxxxx","07/06/2017","09:09:56","114","","","UK STOKE-ON-TRENT","UKN","1","0.014000","","","","","NT03","Gamma","","","","","3194","","","+441782898004","","SAE6B540261AEF17592012514D6729A8B","GBP","+443300538880","","","","","","","","","","",""
"N","0","+443300538880","+441989xxxxxx","07/06/2017","09:11:57","62","","","UK STOKE-ON-TRENT","UKN","1","0.008000","","","","","NT03","Gamma","","","","","3194","","","+441782898004","","S63281F039B41D672DB2124DCE6483A49","GBP","+443300538880","","","","","","","","","","",""
"N","0","+443300538880","+447741xxxxxx","07/06/2017","09:11:57","71","","","UK STOKE-ON-TRENT","UKN","1","0.009000","","","","","NT03","Gamma","","","","","3194","","","+441782898004","","S81756907DD005D9C77A30CCBD1BF3AD8","GBP","+443300538880","","","","","","","","","","",""
"N","0","+443300538880","+447557xxxxxx","07/06/2017","09:26:10","118","","","UK STOKE-ON-TRENT","UKN","1","0.015000","","","","","NT03","Gamma","","","","","3194","","","+441782898004","","S828429002A93B98F9D0EC66F3BB28ED6","GBP","+443300538880","","","","","","","","","","",""
"N","0","+443300538880","+441686xxxxxx","07/06/2017","10:31:13","45","","","UK STOKE-ON-TRENT","UKN","1","0.006000","","","","","NT03","Gamma","","","","","3194","","","+441782898004","","S4AB558067DA697A3C173AB646FEF8B46","GBP","+443300538880","","","","","","","","","","",""
"N","0","+443300538880","+447741xxxxxx","07/06/2017","10:35:06","152","","","UK STOKE-ON-TRENT","UKN","1","0.019000","","","","","NT03","Gamma","","","","","3194","","","+441782898004","","SFC1E3CB50617629D293D1EB0EFD19F94","GBP","+443300538880","","","","","","","","","","",""
"N","0","+443300538880","+441617xxxxxx","07/06/2017","11:41:35","57","","","UK STOKE-ON-TRENT","UKN","1","0.007000","","","","","NT03","Gamma","","","","","3194","","","+441782898004","","SC0013C2440EDE523B1F02DD11893B90F","GBP","+443300538880","","","","","","","","","","",""
"N","0","+443300538880","+447913xxxxxx","07/06/2017","12:03:44","288","","","UK STOKE-ON-TRENT","UKN","1","0.035000","","","","","NT03","Gamma","","","","","3194","","","+441782898004","","S0CD04E5F513DF9720087EE8829E3554B","GBP","+443300538880","","","","","","","","","","",""
"N","0","+443300538880","+447495xxxxxx","07/06/2017","12:10:24","191","","","UK STOKE-ON-TRENT","UKN","1","0.023000","","","","","NT03","Gamma","","","","","3194","","","+441782898004","","SA08F426AAED9903CAE92F5D666A57A23","GBP","+443300538880","","","","","","","","","","",""
"N","0","+443300538880","+441617xxxxxx","07/06/2017","13:41:37","65","","","UK STOKE-ON-TRENT","UKN","1","0.008000","","","","","NT03","Gamma","","","","","3194","","","+441782898004","","S6DD96C6A4936FE747ED3DC380ABB999F","GBP","+443300538880","","","","","","","","","","",""
"N","0","+443300538880","+441617xxxxxx","07/06/2017","13:45:30","77","","","UK STOKE-ON-TRENT","UKN","1","0.010000","","","","","NT03","Gamma","","","","","3194","","","+441782898004","","SCA67FDF7BC15D234A3A5F57330FA7839","GBP","+443300538880","","","","","","","","","","",""
"N","0","+443300538880","+441273xxxxxx","07/06/2017","13:50:27","154","","","UK STOKE-ON-TRENT","UKN","1","0.019000","","","","","NT03","Gamma","","","","","3194","","","+441782898004","","SDB3D83F65B7F1640FD1DF8B958B4B48E","GBP","+443300538880","","","","","","","","","","",""
"N","0","+443300538880","+441463xxxxxx","07/06/2017","13:59:19","66","","","UK STOKE-ON-TRENT","UKN","1","0.008000","","","","","NT03","Gamma","","","","","3194","","","+441782898004","","S6D5F75AE49DB1ED5EAFA0E42CB00E70F","GBP","+443300538880","","","","","","","","","","",""
"N","0","+443300538880","+441953xxxxxx","07/06/2017","14:29:10","119","","","UK STOKE-ON-TRENT","UKN","1","0.015000","","","","","NT03","Gamma","","","","","3194","","","+441782898004","","S17f6a49ba120a3f4d9642885b9375663","GBP","+443300538880","","","","","","","","","","",""
"N","0","+443300538880","+447741xxxxxx","07/06/2017","15:23:47","323","","","UK STOKE-ON-TRENT","UKN","1","0.039000","","","","","NT03","Gamma","","","","","3194","","","+441782898004","","SEC6CB234C63ACAF858D8F7BFC4360825","GBP","+443300538880","","","","","","","","","","",""
"N","0","+443300538880","+447741xxxxxx","07/06/2017","15:37:26","368","","","UK STOKE-ON-TRENT","UKN","1","0.045000","","","","","NT03","Gamma","","","","","3194","","","+441782898004","","S2E7D3464B21A1C8A84C9D2EF225A6285","GBP","+443300538880","","","","","","","","","","",""
"N","0","+443300538880","+447741xxxxxx","07/06/2017","16:48:30","17","","","UK STOKE-ON-TRENT","UKN","1","0.003000","","","","","NT03","Gamma","","","","","3194","","","+441782898004","","S8E610D57FD3C8389676794C8E5EF5D9F","GBP","+443300538880","","","","","","","","","","",""
"N","0","+443300538880","+447741xxxxxx","07/06/2017","16:49:02","170","","","UK STOKE-ON-TRENT","UKN","1","0.021000","","","","","NT03","Gamma","","","","","3194","","","+441782898004","","S99AC627C1A7193190B39141EA4E1EA0F","GBP","+443300538880","","","","","","","","","","",""
