"Call Type","Call Cause Definition Required","Customer Identifier","Non-Charged Party","Call Date","Call Time","Duration","Bytes Transmitted","Bytes Received","Description","Chargecode","Time Band","Salesprice","Salesprice (Pre-Bundle)","Extension","DDI","Grouping ID","Call Class (Feature)","Carrier","Recording","VAT","Country of Origin","Network","Retail Tariff Code","Remote Network","APN","Diverted Number","Ring time","Record ID","Currency","Caller Line Identity","Network Access Reference","NGCS Access Charge","NGCS Service Charge","Total Bytes Transferred","User ID","Onward Billing Reference","Contract Name","Bundle Name","Bundle Allowance","Discount Reference","Routing Code"
"N","0","+443300538880","+441359xxxxxx","20/09/2017","08:38:11","512","","","UK STOKE-ON-TRENT","UKN","1","0.062000","","","","","NT03","Gamma","","","","","3194","","","+441782898004","","S66f44dcca2543d77da7115aef23d8827","GBP","+443300538880","","","","","","","","","","",""
"N","0","+443300538880","+447557xxxxxx","20/09/2017","09:12:16","120","","","UK STOKE-ON-TRENT","UKN","1","0.015000","","","","","NT03","Gamma","","","","","3194","","","+441782898004","","S3D8C2C072E56D6EDF7693D3B8740AE66","GBP","+443300538880","","","","","","","","","","",""
"N","0","+443300538880","+441359xxxxxx","20/09/2017","09:12:51","159","","","UK STOKE-ON-TRENT","UKN","1","0.020000","","","","","NT03","Gamma","","","","","3194","","","+441782898004","","S0813279e6647aed01465a8926923c4ef","GBP","+443300538880","","","","","","","","","","",""
"N","0","+443300539660","+447739xxxxxx","20/09/2017","09:13:27","127","","","UK LEICESTER","UKN","1","0.016000","","","","","NT03","Gamma","","","","","3194","","","+441162690770","","S2CE1A97C3C0A0A788839F0CDCACC3453","GBP","+443300539660","","","","","","","","","","",""
"N","0","+443300538880","+447469xxxxxx","20/09/2017","09:19:08","345","","","UK STOKE-ON-TRENT","UKN","1","0.042000","","","","","NT03","Gamma","","","","","3194","","","+441782898004","","S1e5c8776278032af5dea304193a6c7c3","GBP","+443300538880","","","","","","","","","","",""
"N","0","+443300538880","+441386xxxxxx","20/09/2017","09:25:52","77","","","UK STOKE-ON-TRENT","UKN","1","0.010000","","","","","NT03","Gamma","","","","","3194","","","+441782898004","","SF59C46B15EF3F5E08B2E9F466F0216F0","GBP","+443300538880","","","","","","","","","","",""
"N","0","+443300539660","+441913xxxxxx","20/09/2017","09:28:02","18","","","UK LEICESTER","UKN","1","0.003000","","","","","NT03","Gamma","","","","","3194","","","+441162690770","","S9ECD6D7538336781E9FFA225F8DC5E1D","GBP","+443300539660","","","","","","","","","","",""
"N","0","+443300539660","+441913xxxxxx","20/09/2017","09:28:26","40","","","UK LEICESTER","UKN","1","0.005000","","","","","NT03","Gamma","","","","","3194","","","+441162690770","","S402FFC7388111291B09A851E08BF9E04","GBP","+443300539660","","","","","","","","","","",""
"N","0","+443300538880","+447908xxxxxx","20/09/2017","09:28:49","66","","","UK STOKE-ON-TRENT","UKN","1","0.008000","","","","","NT03","Gamma","","","","","3194","","","+441782898004","","S8869585BD19F9EBE080CABDBC722B3E0","GBP","+443300538880","","","","","","","","","","",""
"N","0","+443300539660","+441913xxxxxx","20/09/2017","09:29:16","89","","","UK LEICESTER","UKN","1","0.011000","","","","","NT03","Gamma","","","","","3194","","","+441162690770","","SDFA94D44881CB9FD4DFA04BD00F4BBF7","GBP","+443300539660","","","","","","","","","","",""
"N","0","+443300538880","+441684xxxxxx","20/09/2017","09:35:45","217","","","UK STOKE-ON-TRENT","UKN","1","0.027000","","","","","NT03","Gamma","","","","","3194","","","+441782898004","","SE4BEA3F61007C0D56E02DFE8EF5D9231","GBP","+443300538880","","","","","","","","","","",""
"N","0","+443300538880","+447741xxxxxx","20/09/2017","09:38:00","57","","","UK STOKE-ON-TRENT","UKN","1","0.007000","","","","","NT03","Gamma","","","","","3194","","","+441782898004","","S95C1CC38346BA7661276165C2B2C0284","GBP","+443300538880","","","","","","","","","","",""
"N","0","+443300538880","+447970xxxxxx","20/09/2017","09:50:19","122","","","UK STOKE-ON-TRENT","UKN","1","0.015000","","","","","NT03","Gamma","","","","","3194","","","+441782898004","","S4c7db6573ea3e3f3c34a9cf2240e71c8","GBP","+443300538880","","","","","","","","","","",""
"N","0","+443300538880","+441387xxxxxx","20/09/2017","09:56:55","57","","","UK STOKE-ON-TRENT","UKN","1","0.007000","","","","","NT03","Gamma","","","","","3194","","","+441782898004","","S664988E21A02C72A2210F629F51BF9B5","GBP","+443300538880","","","","","","","","","","",""
"N","0","+443300539660","+441914xxxxxx","20/09/2017","09:58:39","46","","","UK LEICESTER","UKN","1","0.006000","","","","","NT03","Gamma","","","","","3194","","","+441162690770","","S66BB0F24F3F5120867E009D63E4D0F8F","GBP","+443300539660","","","","","","","","","","",""
"N","0","+443300539660","+447500xxxxxx","20/09/2017","10:06:33","167","","","UK LEICESTER","UKN","1","0.021000","","","","","NT03","Gamma","","","","","3194","","","+441162690770","","SDA495C8A8D4559043A318C1F60F0D19A","GBP","+443300539660","","","","","","","","","","",""
"N","0","+443300538880","+441270xxxxxx","20/09/2017","10:09:09","59","","","UK STOKE-ON-TRENT","UKN","1","0.008000","","","","","NT03","Gamma","","","","","3194","","","+441782898004","","S630798C5ADBBA8C04DD956702566BAC4","GBP","+443300538880","","","","","","","","","","",""
"N","0","+443300539660","+443332xxxxxx","20/09/2017","10:27:29","229","","","UK LEICESTER","UKN","1","0.028000","","","","","NT03","Gamma","","","","","3194","","","+441162690770","","S62A870A2A4CFC38D523FFB3B18599AF7","GBP","+443300539660","","","","","","","","","","",""
"N","0","+443300539660","+443332xxxxxx","20/09/2017","10:47:34","94","","","UK LEICESTER","UKN","1","0.012000","","","","","NT03","Gamma","","","","","3194","","","+441162690770","","SBB6433CE88A2983BEE55202EAB82F9D0","GBP","+443300539660","","","","","","","","","","",""
"N","0","+443300538880","+441825xxxxxx","20/09/2017","10:57:46","103","","","UK STOKE-ON-TRENT","UKN","1","0.013000","","","","","NT03","Gamma","","","","","3194","","","+441782898004","","S8F3D1E6E3CD5E8E70550F8E62EFCA09E","GBP","+443300538880","","","","","","","","","","",""
"N","0","+443300538880","+447955xxxxxx","20/09/2017","11:06:38","30","","","UK STOKE-ON-TRENT","UKN","1","0.004000","","","","","NT03","Gamma","","","","","3194","","","+441782898004","","S4DFD9D260F85000F6C43BA327DF21473","GBP","+443300538880","","","","","","","","","","",""
"N","0","+443300538880","+441353xxxxxx","20/09/2017","11:08:38","75","","","UK STOKE-ON-TRENT","UKN","1","0.009000","","","","","NT03","Gamma","","","","","3194","","","+441782898004","","S03031B8FEB76D6C3CB1792BDD77F35B1","GBP","+443300538880","","","","","","","","","","",""
"N","0","+443300538880","+447955xxxxxx","20/09/2017","11:09:07","91","","","UK STOKE-ON-TRENT","UKN","1","0.011000","","","","","NT03","Gamma","","","","","3194","","","+441782898004","","S2CB498DB11D658B8B96B80A62D4FACE8","GBP","+443300538880","","","","","","","","","","",""
"N","0","+443300538880","+441530xxxxxx","20/09/2017","11:21:49","66","","","UK STOKE-ON-TRENT","UKN","1","0.008000","","","","","NT03","Gamma","","","","","3194","","","+441782898004","","S89AD356FE84C5C73358E0FC3EE03470C","GBP","+443300538880","","","","","","","","","","",""
"N","0","+443300538880","+447837xxxxxx","20/09/2017","11:30:01","208","","","UK STOKE-ON-TRENT","UKN","1","0.025000","","","","","NT03","Gamma","","","","","3194","","","+441782898004","","SB7580EB01FB60B4C14DAECE71416A370","GBP","+443300538880","","","","","","","","","","",""
"N","0","+443300538880","+447837xxxxxx","20/09/2017","11:50:37","8","","","UK STOKE-ON-TRENT","UKN","1","0.001000","","","","","NT03","Gamma","","","","","3194","","","+441782898004","","S37EBFBB1968C2C37B1D7032AA83BA273","GBP","+443300538880","","","","","","","","","","",""
"N","0","+443300538880","+441530xxxxxx","20/09/2017","11:55:26","47","","","UK STOKE-ON-TRENT","UKN","1","0.006000","","","","","NT03","Gamma","","","","","3194","","","+441782898004","","S92D90F7A3A1A1D43A615203324E51372","GBP","+443300538880","","","","","","","","","","",""
"N","0","+443300538880","+447741xxxxxx","20/09/2017","11:57:27","190","","","UK STOKE-ON-TRENT","UKN","1","0.023000","","","","","NT03","Gamma","","","","","3194","","","+441782898004","","SE9A8C9166BE7C79DC346384D51A84659","GBP","+443300538880","","","","","","","","","","",""
"N","0","+443300538880","+447741xxxxxx","20/09/2017","12:00:53","53","","","UK STOKE-ON-TRENT","UKN","1","0.007000","","","","","NT03","Gamma","","","","","3194","","","+441782898004","","SBECEC0CF279238A38EAE4D2F799E5520","GBP","+443300538880","","","","","","","","","","",""
"N","0","+443300538880","+441491xxxxxx","20/09/2017","12:01:42","92","","","UK STOKE-ON-TRENT","UKN","1","0.012000","","","","","NT03","Gamma","","","","","3194","","","+441782898004","","S2C67E9518BB73325271E8C28C58C38D3","GBP","+443300538880","","","","","","","","","","",""
"N","0","+443300538880","+447487xxxxxx","20/09/2017","12:08:09","7","","","UK STOKE-ON-TRENT","UKN","1","0.001000","","","","","NT03","Gamma","","","","","3194","","","+441782898004","","SD0954E05B826412D8AFEB8A5D9197099","GBP","+443300538880","","","","","","","","","","",""
"N","0","+443300538880","+447487xxxxxx","20/09/2017","12:08:20","1","","","UK STOKE-ON-TRENT","UKN","1","0.001000","","","","","NT03","Gamma","","","","","3194","","","+441782898004","","SE6006572572B856D7F42067D7C7DCB71","GBP","+443300538880","","","","","","","","","","",""
"N","0","+443300538880","+447910xxxxxx","20/09/2017","12:11:10","149","","","UK STOKE-ON-TRENT","UKN","1","0.018000","","","","","NT03","Gamma","","","","","3194","","","+441782898004","","S30E93D4923B8BFF052F9AC06F804F932","GBP","+443300538880","","","","","","","","","","",""
"N","0","+443300538880","+441938xxxxxx","20/09/2017","12:15:47","359","","","UK STOKE-ON-TRENT","UKN","1","0.044000","","","","","NT03","Gamma","","","","","3194","","","+441782898004","","SE7F35BFCCC0362941A2A2A05E8B51C6B","GBP","+443300538880","","","","","","","","","","",""
"N","0","+443300538880","+447741xxxxxx","20/09/2017","12:21:42","133","","","UK STOKE-ON-TRENT","UKN","1","0.016000","","","","","NT03","Gamma","","","","","3194","","","+441782898004","","S75CFC07747307030D836DDC3A36E85E6","GBP","+443300538880","","","","","","","","","","",""
"N","0","+443300538880","+447495xxxxxx","20/09/2017","12:25:21","164","","","UK STOKE-ON-TRENT","UKN","1","0.020000","","","","","NT03","Gamma","","","","","3194","","","+441782898004","","S980436282CC94B9F9D4721E458F49E01","GBP","+443300538880","","","","","","","","","","",""
"N","0","+443300538880","+442085xxxxxx","20/09/2017","12:42:39","331","","","UK STOKE-ON-TRENT","UKN","1","0.040000","","","","","NT03","Gamma","","","","","3194","","","+441782898004","","S153A44234F68B0290F31311D440FDBCE","GBP","+443300538880","","","","","","","","","","",""
"N","0","+443300538880","+441458xxxxxx","20/09/2017","12:59:08","89","","","UK STOKE-ON-TRENT","UKN","1","0.011000","","","","","NT03","Gamma","","","","","3194","","","+441782898004","","S4b410fda00e2ed197a2ccd4e1b55cc06","GBP","+443300538880","","","","","","","","","","",""
"N","0","+443300538880","+441553xxxxxx","20/09/2017","13:55:27","183","","","UK STOKE-ON-TRENT","UKN","1","0.022000","","","","","NT03","Gamma","","","","","3194","","","+441782898004","","S22D67717C29EAABD3F2724BAF34237F6","GBP","+443300538880","","","","","","","","","","",""
"N","0","+443300538880","+441553xxxxxx","20/09/2017","14:05:14","60","","","UK STOKE-ON-TRENT","UKN","1","0.008000","","","","","NT03","Gamma","","","","","3194","","","+441782898004","","SE434BD1790AFED87485E8D389D1B0B95","GBP","+443300538880","","","","","","","","","","",""
"N","0","+443300539660","+447739xxxxxx","20/09/2017","14:12:29","24","","","UK LEICESTER","UKN","1","0.003000","","","","","NT03","Gamma","","","","","3194","","","+441162690770","","SED6B4A1251AC389007D3F271068301D5","GBP","+443300539660","","","","","","","","","","",""
"N","0","+443300539660","+447739xxxxxx","20/09/2017","14:14:22","199","","","UK LEICESTER","UKN","1","0.024000","","","","","NT03","Gamma","","","","","3194","","","+441162690770","","S2942E0AF29AB2688CDC55904A6ECAE70","GBP","+443300539660","","","","","","","","","","",""
"N","0","+443300539660","+442476xxxxxx","20/09/2017","14:31:34","3","","","UK LEICESTER","UKN","1","0.001000","","","","","NT03","Gamma","","","","","3194","","","+441162690770","","SBA9AC80A0D1F65B0979DDD99759AA525","GBP","+443300539660","","","","","","","","","","",""
"N","0","+443300539660","+442476xxxxxx","20/09/2017","14:31:41","51","","","UK LEICESTER","UKN","1","0.007000","","","","","NT03","Gamma","","","","","3194","","","+441162690770","","S1249C38A89B4B94098E8D1E894680393","GBP","+443300539660","","","","","","","","","","",""
"N","0","+443300539660","+442476xxxxxx","20/09/2017","14:32:39","156","","","UK LEICESTER","UKN","1","0.019000","","","","","NT03","Gamma","","","","","3194","","","+441162690770","","S6EA011F05A963B47D9B7E76259C4733E","GBP","+443300539660","","","","","","","","","","",""
"N","0","+443300538880","+447741xxxxxx","20/09/2017","14:37:07","58","","","UK STOKE-ON-TRENT","UKN","1","0.007000","","","","","NT03","Gamma","","","","","3194","","","+441782898004","","SE495379259E23670DDAF169961BD9E62","GBP","+443300538880","","","","","","","","","","",""
"N","0","+443300538880","+441386xxxxxx","20/09/2017","14:59:39","173","","","UK STOKE-ON-TRENT","UKN","1","0.021000","","","","","NT03","Gamma","","","","","3194","","","+441782898004","","SF4D871D68CF4F79550301B5A8270E3DB","GBP","+443300538880","","","","","","","","","","",""
"N","0","+443300539660","+447973xxxxxx","20/09/2017","15:04:11","437","","","UK LEICESTER","UKN","1","0.053000","","","","","NT03","Gamma","","","","","3194","","","+441162690770","","S944C7534D24589397A2E4B8709E01024","GBP","+443300539660","","","","","","","","","","",""
"N","0","+443300538880","+441984xxxxxx","20/09/2017","15:04:24","99","","","UK STOKE-ON-TRENT","UKN","1","0.012000","","","","","NT03","Gamma","","","","","3194","","","+441782898004","","SEC06551C191177493D4FECD1CADB1F3E","GBP","+443300538880","","","","","","","","","","",""
"N","0","+443300538880","+441984xxxxxx","20/09/2017","15:07:53","125","","","UK STOKE-ON-TRENT","UKN","1","0.015000","","","","","NT03","Gamma","","","","","3194","","","+441782898004","","S04efadde79b175e97a915f1204d031e0","GBP","+443300538880","","","","","","","","","","",""
"N","0","+443300539660","+441268xxxxxx","20/09/2017","15:40:38","118","","","UK LEICESTER","UKN","1","0.015000","","","","","NT03","Gamma","","","","","3194","","","+441162690770","","S39E590279A81D89B5BF108F34054BC06","GBP","+443300539660","","","","","","","","","","",""
"N","0","+443300538880","+447557xxxxxx","20/09/2017","15:53:28","68","","","UK STOKE-ON-TRENT","UKN","1","0.009000","","","","","NT03","Gamma","","","","","3194","","","+441782898004","","SB2626D369205FF7BCA7DC3E33410EE15","GBP","+443300538880","","","","","","","","","","",""
"N","0","+443300538880","+447971xxxxxx","20/09/2017","15:57:54","91","","","UK STOKE-ON-TRENT","UKN","1","0.011000","","","","","NT03","Gamma","","","","","3194","","","+441782898004","","SA65B36F10CCCF2F33CF5C50C6A8667F9","GBP","+443300538880","","","","","","","","","","",""
"N","0","+443300538880","+447487xxxxxx","20/09/2017","16:22:26","284","","","UK STOKE-ON-TRENT","UKN","1","0.035000","","","","","NT03","Gamma","","","","","3194","","","+441782898004","","SA73994D51A8EACD2A80D7B96F4C92ED3","GBP","+443300538880","","","","","","","","","","",""
"N","0","+443300538880","+441480xxxxxx","04/09/2017","09:23:25","88","","","UK STOKE-ON-TRENT","UKN","1","0.011000","","","","","NT03","Gamma","","","","","3194","","","+441782898004","","S4B963FBD9F1D15A1932B5D85D77DE7B2","GBP","+443300538880","","","","","","","","","","",""
"N","0","+443300538880","+441480xxxxxx","02/09/2017","07:01:11","16","","","UK STOKE-ON-TRENT","UKN","3","0.002000","","","","","NT03","Gamma","","","","","3194","","","+441782898004","","S73D43C297CE30D569511CC8F19435261","GBP","+443300538880","","","","","","","","","","",""
