"Call Type","Call Cause Definition Required","Customer Identifier","Non-Charged Party","Call Date","Call Time","Duration","Bytes Transmitted","Bytes Received","Description","Chargecode","Time Band","Salesprice","Salesprice (Pre-Bundle)","Extension","DDI","Grouping ID","Call Class (Feature)","Carrier","Recording","VAT","Country of Origin","Network","Retail Tariff Code","Remote Network","APN","Diverted Number","Ring time","Record ID","Currency","Caller Line Identity","Network Access Reference","NGCS Access Charge","NGCS Service Charge","Total Bytes Transferred","User ID","Onward Billing Reference","Contract Name","Bundle Name","Bundle Allowance","Discount Reference","Routing Code"
"V","0","DC2N17GKP43397_A1","+447487695173","05/07/2017","08:16:30","10","","","UK Mobile Orange","UKNFM4","1","0.000000","","","","","SIPD","Gamma","","","","","3194","","","","","C4E7F373FB230095B74219533C1ADD50A","GBP","+443300538880","DC2N17GKP43397_A1","","","","","","AddonDC2N17GKP43397_A1","SIP to Mobile AYCE","72000000","",""
"V","0","DC2N17GKP43397_A1","+447487695173","05/07/2017","08:18:23","7","","","UK Mobile Orange","UKNFM4","1","0.000000","","","","","SIPD","Gamma","","","","","3194","","","","","CBA477C1FF7E5C50BA8D272E5AFF3CDF9","GBP","+443300538880","DC2N17GKP43397_A1","","","","","","AddonDC2N17GKP43397_A1","SIP to Mobile AYCE","72000000","",""
"V","0","DC2N17GKP43397_A1","+447487695173","05/07/2017","08:20:16","5","","","UK Mobile Orange","UKNFM4","1","0.000000","","","","","SIPD","Gamma","","","","","3194","","","","","C173DD09DE52A1AC12B30721B35761F28","GBP","+443300538880","DC2N17GKP43397_A1","","","","","","AddonDC2N17GKP43397_A1","SIP to Mobile AYCE","72000000","",""
"V","0","DC2N17GKP43397_A1","+447487695173","05/07/2017","08:32:53","10","","","UK Mobile Orange","UKNFM4","1","0.000000","","","","","SIPD","Gamma","","","","","3194","","","","","C7F7B93BA3E447E1CF21E95C671A050A1","GBP","+443300538880","DC2N17GKP43397_A1","","","","","","AddonDC2N17GKP43397_A1","SIP to Mobile AYCE","72000000","",""
"V","0","DC2N17GKP43397_A1","+447557339201","05/07/2017","08:41:55","11","","","UK Mobile Vodafone","UKNFM5","1","0.000000","","","","","SIPD","Gamma","","","","","3194","","","","","C970AAFE8219C334A5D5E8863892DA157","GBP","+443300538880","DC2N17GKP43397_A1","","","","","","AddonDC2N17GKP43397_A1","SIP to Mobile AYCE","72000000","",""
"V","0","DC2N17GKP43397_A1","+447487695173","05/07/2017","08:43:58","10","","","UK Mobile Orange","UKNFM4","1","0.000000","","","","","SIPD","Gamma","","","","","3194","","","","","CF34050890F6DF3F9F03966602606547B","GBP","+443300538880","DC2N17GKP43397_A1","","","","","","AddonDC2N17GKP43397_A1","SIP to Mobile AYCE","72000000","",""
"G","0","DC2N17COP40785_A1","+443300538880","05/07/2017","08:53:59","72","","","UK National Non Geographic","UKNNNG","1","0.000000","","","+443332026365","","SIPD","Gamma","","","","","3194","","","","","C63848D106442318A7007FD5DB165EA19","GBP","+443332026365","DC2N17COP40785_A1","","","","","","","","","",""
"V","0","DC2N17GKP43397_A1","+447557339201","05/07/2017","08:55:15","49","","","UK Mobile Vodafone","UKNFM5","1","0.000000","","","","","SIPD","Gamma","","","","","3194","","","","","C74B64A87DF778F7C5AA5283F1CA81F77","GBP","+443300538880","DC2N17GKP43397_A1","","","","","","AddonDC2N17GKP43397_A1","SIP to Mobile AYCE","72000000","",""
"V","0","DC2N17GKP43397_A1","+447487695173","05/07/2017","08:56:43","3","","","UK Mobile Orange","UKNFM4","1","0.000000","","","","","SIPD","Gamma","","","","","3194","","","","","C8A98C96E5AA085E2E896C7854707BDAE","GBP","+443300538880","DC2N17GKP43397_A1","","","","","","AddonDC2N17GKP43397_A1","SIP to Mobile AYCE","72000000","",""
"V","0","DC2N17GKP43397_A1","+447741267127","05/07/2017","08:57:12","103","","","UK Mobile Vodafone","UKNFM5","1","0.000000","","","","","SIPD","Gamma","","","","","3194","","","","","C4A6D0AC97BAD5D62FDF0648CEAB3FF76","GBP","+443300538880","DC2N17GKP43397_A1","","","","","","AddonDC2N17GKP43397_A1","SIP to Mobile AYCE","72000000","",""
"G","0","DC2N17GKP43397_A1","+441753588556","05/07/2017","09:02:59","51","","","UK SLOUGH","UKN","1","0.000000","","","","","SIPD","Gamma","","","","","3194","","","","","CED57DDBADE14910277A0E9AC6138839A","GBP","+443300538880","DC2N17GKP43397_A1","","","","","","","","","",""
"V","0","DC2N17GKP43397_A1","+447557339201","05/07/2017","09:06:36","58","","","UK Mobile Vodafone","UKNFM5","1","0.000000","","","","","SIPD","Gamma","","","","","3194","","","","","C408B2E7D14FF0208C0BC615C7DF059E0","GBP","+443300538880","DC2N17GKP43397_A1","","","","","","AddonDC2N17GKP43397_A1","SIP to Mobile AYCE","72000000","",""
"V","0","DC2N17GKP43397_A1","+447943066328","05/07/2017","09:20:00","21","","","UK Mobile T Mobile","UKNFM3","1","0.000000","","","","","SIPD","Gamma","","","","","3194","","","","","CB134E4510EF8B9C92C7405CBCFB7596F","GBP","+443300538880","DC2N17GKP43397_A1","","","","","","AddonDC2N17GKP43397_A1","SIP to Mobile AYCE","72000000","",""
"G","0","DC2N17COP40785_A1","+441664823877","05/07/2017","09:25:17","74","","","UK MELTON MOWBRAY","UKN","1","0.000000","","","","","SIPD","Gamma","","","","","3194","","","","","C1A03CF9447E76DF847814C7FABB8CB7F","GBP","+443332026365","DC2N17COP40785_A1","","","","","","","","","",""
"G","0","DC2N17COP40785_A1","+441664823877","05/07/2017","09:30:52","788","","","UK MELTON MOWBRAY","UKN","1","0.000000","","","","","SIPD","Gamma","","","","","3194","","","","","C1E9B7A76F05425631104C121087A2024","GBP","+443332026365","DC2N17COP40785_A1","","","","","","","","","",""
"G","0","DC2N17COP40785_A1","+441664823877","05/07/2017","09:53:34","459","","","UK MELTON MOWBRAY","UKN","1","0.000000","","","","","SIPD","Gamma","","","","","3194","","","","","C1B0C3F7148359765C6993DB26CE2DC94","GBP","+443332026365","DC2N17COP40785_A1","","","","","","","","","",""
"G","0","DC2N17GKP43397_A1","+441283523021","05/07/2017","09:53:43","92","","","UK BURTON ON TRENT","UKN","1","0.000000","","","","","SIPD","Gamma","","","","","3194","","","","","C8ADF5F46E7A4C1D14AD71DC80C3A9372","GBP","+443300538880","DC2N17GKP43397_A1","","","","","","","","","",""
"V","0","DC2N17GKP43397_A1","+447741267127","05/07/2017","10:02:09","5","","","UK Mobile Vodafone","UKNFM5","1","0.000000","","","","","SIPD","Gamma","","","","","3194","","","","","C8A012198F5367FD574D6E02D76C07BCD","GBP","+443300538880","DC2N17GKP43397_A1","","","","","","AddonDC2N17GKP43397_A1","SIP to Mobile AYCE","72000000","",""
"G","0","DC2N17COP40785_A1","+441256788333","05/07/2017","10:23:23","285","","","UK BASINGSTOKE","UKN","1","0.000000","","","","","SIPD","Gamma","","","","","3194","","","","","C05C8FDEA25BA0D9E70E1EB641FD897FA","GBP","+443332026365","DC2N17COP40785_A1","","","","","","","","","",""
"G","0","DC2N17COP40785_A1","+441256864274","05/07/2017","10:28:34","440","","","UK BASINGSTOKE","UKN","1","0.000000","","","","","SIPD","Gamma","","","","","3194","","","","","CFBD9086D6AC095F2F8ED851E38D854BE","GBP","+443332026365","DC2N17COP40785_A1","","","","","","","","","",""
"G","0","DC2N17GKP43397_A1","+441743461452","05/07/2017","10:28:57","35","","","UK SHREWSBURY","UKN","1","0.000000","","","","","SIPD","Gamma","","","","","3194","","","","","CEA7D3E9FE7AC33F665B7A4D68007DB8A","GBP","+443300538880","DC2N17GKP43397_A1","","","","","","","","","",""
"V","0","DC2N17GKP43397_A1","+447741267127","05/07/2017","10:33:22","72","","","UK Mobile Vodafone","UKNFM5","1","0.000000","","","","","SIPD","Gamma","","","","","3194","","","","","C99BC9B74CD33938FFC95FD93FDB9044A","GBP","+443300538880","DC2N17GKP43397_A1","","","","","","AddonDC2N17GKP43397_A1","SIP to Mobile AYCE","72000000","",""
"G","0","DC2N17COP40785_A1","+443719733000","05/07/2017","10:39:08","362","","","UK National Non Geographic","UKNNNG","1","0.000000","","","","","SIPD","Gamma","","","","","3194","","","","","CB4A4573D168CCAC1B194A3F62C93D5AA","GBP","+443332026365","DC2N17COP40785_A1","","","","","","","","","",""
"G","0","DC2N17GKP43397_A1","+441531660258","05/07/2017","10:49:39","105","","","UK LEDBURY","UKN","1","0.000000","","","","","SIPD","Gamma","","","","","3194","","","","","C0F6BC388A53B738C66B6F6755017483C","GBP","+443300538880","DC2N17GKP43397_A1","","","","","","","","","",""
"G","0","DC2N17COP40785_A1","+441162776363","05/07/2017","10:50:59","88","","","UK LEICESTER","UKN","1","0.000000","","","","","SIPD","Gamma","","","","","3194","","","","","C526D18BDC07853E271C5A87E62078722","GBP","+443332026365","DC2N17COP40785_A1","","","","","","","","","",""
"G","0","DC2N17GKP43397_A1","+441889272198","05/07/2017","11:09:37","109","","","UK RUGELY","UKN","1","0.000000","","","","","SIPD","Gamma","","","","","3194","","","","","CEA24D45F64A8C85A3D55696258D483C8","GBP","+443300538880","DC2N17GKP43397_A1","","","","","","","","","",""
"V","0","DC2N17GKP43397_A1","+447487695173","05/07/2017","11:23:14","7","","","UK Mobile Orange","UKNFM4","1","0.000000","","","","","SIPD","Gamma","","","","","3194","","","","","C5A1A5FE65F5ABEAEA1927191937A0C42","GBP","+443300538880","DC2N17GKP43397_A1","","","","","","AddonDC2N17GKP43397_A1","SIP to Mobile AYCE","72000000","",""
"V","0","DC2N17GKP43397_A1","+447557339201","05/07/2017","11:23:31","27","","","UK Mobile Vodafone","UKNFM5","1","0.000000","","","","","SIPD","Gamma","","","","","3194","","","","","CE69E49F35FAB01D70A9F5907AB86B3A8","GBP","+443300538880","DC2N17GKP43397_A1","","","","","","AddonDC2N17GKP43397_A1","SIP to Mobile AYCE","72000000","",""
"V","0","DC2N17GKP43397_A1","+447741267127","05/07/2017","11:24:09","11","","","UK Mobile Vodafone","UKNFM5","1","0.000000","","","","","SIPD","Gamma","","","","","3194","","","","","CE44104C766292B78A313AE7CBB10DDD2","GBP","+443300538880","DC2N17GKP43397_A1","","","","","","AddonDC2N17GKP43397_A1","SIP to Mobile AYCE","72000000","",""
"G","0","DC2N17COP40785_A1","+441664823877","05/07/2017","11:25:55","199","","","UK MELTON MOWBRAY","UKN","1","0.000000","","","","","SIPD","Gamma","","","","","3194","","","","","C9FBD5D380BA9B76AF370C5513431C454","GBP","+443332026365","DC2N17COP40785_A1","","","","","","","","","",""
"V","0","DC2N17GKP43397_A1","+447557339201","05/07/2017","11:43:31","2","","","UK Mobile Vodafone","UKNFM5","1","0.000000","","","","","SIPD","Gamma","","","","","3194","","","","","C6766F548C61F1DC2C906CA7F1DD31412","GBP","+443300538880","DC2N17GKP43397_A1","","","","","","AddonDC2N17GKP43397_A1","SIP to Mobile AYCE","72000000","",""
"V","0","DC2N17GKP43397_A1","+447741267127","05/07/2017","11:59:54","125","","","UK Mobile Vodafone","UKNFM5","1","0.000000","","","","","SIPD","Gamma","","","","","3194","","","","","CC0FB6CAA4FC124F3D34648DA8C06CCFF","GBP","+443300538880","DC2N17GKP43397_A1","","","","","","AddonDC2N17GKP43397_A1","SIP to Mobile AYCE","72000000","",""
"G","0","DC2N17GKP43397_A1","+442085736276","05/07/2017","12:10:32","197","","","UK LONDON","UKN","1","0.000000","","","","","SIPD","Gamma","","","","","3194","","","","","C77AA5258B607BAE047CB3D6FD7FDB119","GBP","+443300538880","DC2N17GKP43397_A1","","","","","","","","","",""
"G","0","DC2N17GKP43397_A1","+442085736276","05/07/2017","12:14:23","297","","","UK LONDON","UKN","1","0.000000","","","","","SIPD","Gamma","","","","","3194","","","","","C0C7B98EF4B0362901DA604F3EDF56D85","GBP","+443300538880","DC2N17GKP43397_A1","","","","","","","","","",""
"V","0","DC2N17GKP43397_A1","+447495722011","05/07/2017","12:20:51","142","","","UK Mobile T Mobile","UKNFM3","1","0.000000","","","","","SIPD","Gamma","","","","","3194","","","","","C9E48283C25B84B31C5E796CF4CE741D6","GBP","+443300538880","DC2N17GKP43397_A1","","","","","","AddonDC2N17GKP43397_A1","SIP to Mobile AYCE","72000000","",""
"G","0","DC2N17GKP43397_A1","+442089850409","05/07/2017","12:27:28","77","","","UK LONDON","UKN","1","0.000000","","","","","SIPD","Gamma","","","","","3194","","","","","C9CAB57FE1D5D846FD4D89D0E5B155C72","GBP","+443300538880","DC2N17GKP43397_A1","","","","","","","","","",""
"V","0","DC2N17GKP43397_A1","+448708502755","05/07/2017","12:31:34","31","","","UK NGCS SC002 (1ppm)","UKNSC002","1","0.012000","","","","","SIPD","Gamma","","","","","3194","","","","","CD66FE8DC4AABCBC0650065BB4CCE7EA1","GBP","+443300538880","DC2N17GKP43397_A1","0.007000","0.005000","","","","","","","",""
"V","0","DC2N17GKP43397_A1","+447487695173","05/07/2017","13:24:48","13","","","UK Mobile Orange","UKNFM4","1","0.000000","","","","","SIPD","Gamma","","","","","3194","","","","","CB576753C7BC43AC48E1AE421189AB144","GBP","+443300538880","DC2N17GKP43397_A1","","","","","","AddonDC2N17GKP43397_A1","SIP to Mobile AYCE","72000000","",""
"G","0","DC2N17GKP43397_A1","+441189301300","05/07/2017","13:50:33","82","","","UK READING","UKN","1","0.000000","","","","","SIPD","Gamma","","","","","3194","","","","","CA7C0D81E8ABF66E9FF0502B8E7A828B3","GBP","+443300538880","DC2N17GKP43397_A1","","","","","","","","","",""
"V","0","DC2N17GKP43397_A1","+447557339201","05/07/2017","13:53:54","3","","","UK Mobile Vodafone","UKNFM5","1","0.000000","","","","","SIPD","Gamma","","","","","3194","","","","","C0F9488318148DF6819B1C4552D696F03","GBP","+443300538880","DC2N17GKP43397_A1","","","","","","AddonDC2N17GKP43397_A1","SIP to Mobile AYCE","72000000","",""
"V","0","DC2N17GKP43397_A1","+447557339201","05/07/2017","13:56:40","2","","","UK Mobile Vodafone","UKNFM5","1","0.000000","","","","","SIPD","Gamma","","","","","3194","","","","","CC7E11E800E701091F05A58D1BAE8EFF4","GBP","+443300538880","DC2N17GKP43397_A1","","","","","","AddonDC2N17GKP43397_A1","SIP to Mobile AYCE","72000000","",""
"V","0","DC2N17GKP43397_A1","+447557339201","05/07/2017","14:01:02","2","","","UK Mobile Vodafone","UKNFM5","1","0.000000","","","","","SIPD","Gamma","","","","","3194","","","","","C17CEE8EFB9615AFA1CDDD5AB2D50C4F1","GBP","+443300538880","DC2N17GKP43397_A1","","","","","","AddonDC2N17GKP43397_A1","SIP to Mobile AYCE","72000000","",""
"V","0","DC2N17GKP43397_A1","+447557339201","05/07/2017","14:05:06","5","","","UK Mobile Vodafone","UKNFM5","1","0.000000","","","","","SIPD","Gamma","","","","","3194","","","","","CC3262319DD623C3BCD882E78E2962C47","GBP","+443300538880","DC2N17GKP43397_A1","","","","","","AddonDC2N17GKP43397_A1","SIP to Mobile AYCE","72000000","",""
"V","0","DC2N17GKP43397_A1","+447557339201","05/07/2017","14:15:30","2","","","UK Mobile Vodafone","UKNFM5","1","0.000000","","","","","SIPD","Gamma","","","","","3194","","","","","CF79A84DBC6AB441255BD2F428B6E46A4","GBP","+443300538880","DC2N17GKP43397_A1","","","","","","AddonDC2N17GKP43397_A1","SIP to Mobile AYCE","72000000","",""
"V","0","DC2N17GKP43397_A1","+447741267127","05/07/2017","14:17:10","4","","","UK Mobile Vodafone","UKNFM5","1","0.000000","","","","","SIPD","Gamma","","","","","3194","","","","","C5F3A1FF412519843AA2EB64DF770F350","GBP","+443300538880","DC2N17GKP43397_A1","","","","","","AddonDC2N17GKP43397_A1","SIP to Mobile AYCE","72000000","",""
"V","0","DC2N17GKP43397_A1","+447557339201","05/07/2017","14:27:11","91","","","UK Mobile Vodafone","UKNFM5","1","0.000000","","","","","SIPD","Gamma","","","","","3194","","","","","C72F4F89CE1C0C2BCC45D201ABFBECB2C","GBP","+443300538880","DC2N17GKP43397_A1","","","","","","AddonDC2N17GKP43397_A1","SIP to Mobile AYCE","72000000","",""
"V","0","DC2N17GKP43397_A1","+447557339201","05/07/2017","15:37:55","150","","","UK Mobile Vodafone","UKNFM5","1","0.000000","","","","","SIPD","Gamma","","","","","3194","","","","","C7F18A1ADD9D9EAAD58FBBF41B5C79BEF","GBP","+443300538880","DC2N17GKP43397_A1","","","","","","AddonDC2N17GKP43397_A1","SIP to Mobile AYCE","72000000","",""
"V","0","DC2N17GKP43397_A1","+447557339201","05/07/2017","15:44:33","224","","","UK Mobile Vodafone","UKNFM5","1","0.000000","","","","","SIPD","Gamma","","","","","3194","","","","","C35F41A322B26F1803941881E00CD5368","GBP","+443300538880","DC2N17GKP43397_A1","","","","","","AddonDC2N17GKP43397_A1","SIP to Mobile AYCE","72000000","",""
"V","0","DC2N17GKP43397_A1","+447557339201","05/07/2017","16:09:32","30","","","UK Mobile Vodafone","UKNFM5","1","0.000000","","","","","SIPD","Gamma","","","","","3194","","","","","C3F37EBFF43BE203F4E0CDE915A6CFCB2","GBP","+443300538880","DC2N17GKP43397_A1","","","","","","AddonDC2N17GKP43397_A1","SIP to Mobile AYCE","72000000","",""
"G","0","DC2N17COP40785_A1","+441189461032","05/07/2017","16:29:25","31","","","UK READING","UKN","1","0.000000","","","","","SIPD","Gamma","","","","","3194","","","","","CB37B1F4C4FA18E742E8A404798B5791E","GBP","+443332026365","DC2N17COP40785_A1","","","","","","","","","",""
"G","0","DC2N17COP40785_A1","+441664823877","05/07/2017","16:30:29","172","","","UK MELTON MOWBRAY","UKN","1","0.000000","","","","","SIPD","Gamma","","","","","3194","","","","","CA1E3339642382FF7636C01D27B402CF5","GBP","+443332026365","DC2N17COP40785_A1","","","","","","","","","",""
"G","0","DC2N17COP40785_A1","+441664823877","05/07/2017","16:42:48","196","","","UK MELTON MOWBRAY","UKN","1","0.000000","","","","","SIPD","Gamma","","","","","3194","","","","","C9AD1E84FDD2D947818FCDF691F532C70","GBP","+443332026365","DC2N17COP40785_A1","","","","","","","","","",""
"G","0","DC2N17COP40785_A1","+441664823877","05/07/2017","17:50:54","95","","","UK MELTON MOWBRAY","UKN","1","0.000000","","","","","SIPD","Gamma","","","","","3194","","","","","C72BEE9044DBAC0C0371CDFDC18A2245E","GBP","+443332026365","DC2N17COP40785_A1","","","","","","","","","",""
