"Call Type","Call Cause Definition Required","Customer Identifier","Non-Charged Party","Call Date","Call Time","Duration","Bytes Transmitted","Bytes Received","Description","Chargecode","Time Band","Salesprice","Salesprice (Pre-Bundle)","Extension","DDI","Grouping ID","Call Class (Feature)","Carrier","Recording","VAT","Country of Origin","Network","Retail Tariff Code","Remote Network","APN","Diverted Number","Ring time","Record ID","Currency","Caller Line Identity","Network Access Reference","NGCS Access Charge","NGCS Service Charge","Total Bytes Transferred","User ID","Onward Billing Reference","Contract Name","Bundle Name","Bundle Allowance","Discount Reference","Routing Code"
"V","0","DC2N17GKP43397_A1","+447557339201","18/07/2017","08:07:20","4","","","UK Mobile Vodafone","UKNFM5","1","0.000000","","","","","SIPD","Gamma","","","","","3194","","","","","CC2EF4DF609D86929DFB64D600F38228F","GBP","+443300538880","DC2N17GKP43397_A1","","","","","","AddonDC2N17GKP43397_A1","SIP to Mobile AYCE","72000000","",""
"V","0","DC2N17GKP43397_A1","+447557339201","18/07/2017","08:14:32","2","","","UK Mobile Vodafone","UKNFM5","1","0.000000","","","","","SIPD","Gamma","","","","","3194","","","","","CBD88BF45B95B39AA1A5A692267042B16","GBP","+443300538880","DC2N17GKP43397_A1","","","","","","AddonDC2N17GKP43397_A1","SIP to Mobile AYCE","72000000","",""
"V","0","DC2N17GKP43397_A1","+447487695173","18/07/2017","08:57:11","285","","","UK Mobile Orange","UKNFM4","1","0.000000","","","","","SIPD","Gamma","","","","","3194","","","","","CE8889B3E86B66E06DE8219D965E1E20D","GBP","+443300538880","DC2N17GKP43397_A1","","","","","","AddonDC2N17GKP43397_A1","SIP to Mobile AYCE","72000000","",""
"V","0","DC2N17GKP43397_A1","+447970699086","18/07/2017","09:02:45","8","","","UK Mobile T Mobile","UKNFM3","1","0.000000","","","","","SIPD","Gamma","","","","","3194","","","","","CFD65414CEDDCFFAB8F4AF6C3388A8E2B","GBP","+443300538880","DC2N17GKP43397_A1","","","","","","AddonDC2N17GKP43397_A1","SIP to Mobile AYCE","72000000","",""
"V","0","DC2N17GKP43397_A1","+447481522415","18/07/2017","09:06:53","11","","","UK Mobile Hutchison 3G","UKNFM6","1","0.000000","","","","","SIPD","Gamma","","","","","3194","","","","","CD38B5A253F9011EFC9BCB5AD31EE4472","GBP","+443300538880","DC2N17GKP43397_A1","","","","","","AddonDC2N17GKP43397_A1","SIP to Mobile AYCE","72000000","",""
"V","0","DC2N17GKP43397_A1","+447970699086","18/07/2017","09:07:51","71","","","UK Mobile T Mobile","UKNFM3","1","0.000000","","","","","SIPD","Gamma","","","","","3194","","","","","C97BBCE7C108CF307C4482615F7DAF01D","GBP","+443300538880","DC2N17GKP43397_A1","","","","","","AddonDC2N17GKP43397_A1","SIP to Mobile AYCE","72000000","",""
"G","0","DC2N17GKP43397_A1","+441580715596","18/07/2017","09:08:05","54","","","UK CRANBROOK","UKN","1","0.000000","","","","","SIPD","Gamma","","","","","3194","","","","","C349562DB3A5C1779AF7B8DF3BD20DA3A","GBP","+443300538880","DC2N17GKP43397_A1","","","","","","","","","",""
"G","0","DC2N17GKP43397_A1","+44138641411","18/07/2017","09:10:36","203","","","UK EVESHAM","UKN","1","0.000000","","","","","SIPD","Gamma","","","","","3194","","","","","C9C696352A20C782A7DDC7289CDDBD8EF","GBP","+443300538880","DC2N17GKP43397_A1","","","","","","","","","",""
"G","0","DC2N17GKP43397_A1","+441270626162","18/07/2017","09:13:01","39","","","UK CREWE","UKN","1","0.000000","","","","","SIPD","Gamma","","","","","3194","","","","","C9DD95B06BB54F094F671D244508EF0DA","GBP","+443300538880","DC2N17GKP43397_A1","","","","","","","","","",""
"G","0","DC2N17GKP43397_A1","+44138641411","18/07/2017","09:37:35","48","","","UK EVESHAM","UKN","1","0.000000","","","","","SIPD","Gamma","","","","","3194","","","","","CF2F3DB38FD7A66E4B4C23B6F86436329","GBP","+443300538880","DC2N17GKP43397_A1","","","","","","","","","",""
"G","0","DC2N17GKP43397_A1","+441614069967","18/07/2017","09:43:12","134","","","UK MANCHESTER","UKN","1","0.000000","","","","","SIPD","Gamma","","","","","3194","","","","","CB87B3088B3CD0E33A4FDFDDE5853305C","GBP","+443300538880","DC2N17GKP43397_A1","","","","","","","","","",""
"G","0","DC2N17GKP43397_A1","+442920886500","18/07/2017","09:59:25","117","","","UK CARDIFF","UKN","1","0.000000","","","","","SIPD","Gamma","","","","","3194","","","","","C23E19A37C84B577A12E6E342423587ED","GBP","+443300538880","DC2N17GKP43397_A1","","","","","","","","","",""
"G","0","DC2N17COP40785_A1","+441162257900","18/07/2017","10:21:00","85","","","UK LEICESTER","UKN","1","0.000000","","","","","SIPD","Gamma","","","","","3194","","","","","C2861D3ED94E57F0E80F862CF13248653","GBP","+443332026365","DC2N17COP40785_A1","","","","","","","","","",""
"G","0","DC2N17GKP43397_A1","+44138641411","18/07/2017","10:32:13","96","","","UK EVESHAM","UKN","1","0.000000","","","","","SIPD","Gamma","","","","","3194","","","","","C5BBE1CAB001A7CD5FDDB911D0615A4A9","GBP","+443300538880","DC2N17GKP43397_A1","","","","","","","","","",""
"V","0","DC2N17GKP43397_A1","+447557339201","18/07/2017","10:48:11","37","","","UK Mobile Vodafone","UKNFM5","1","0.000000","","","","","SIPD","Gamma","","","","","3194","","","","","C09384233EFF47B3B6A0451C4F907EA21","GBP","+443300538880","DC2N17GKP43397_A1","","","","","","AddonDC2N17GKP43397_A1","SIP to Mobile AYCE","72000000","",""
"V","0","DC2N17GKP43397_A1","+447557339201","18/07/2017","11:13:37","80","","","UK Mobile Vodafone","UKNFM5","1","0.000000","","","","","SIPD","Gamma","","","","","3194","","","","","C3D7D3CF788BF7EEE775A60F00C1C41E5","GBP","+443300538880","DC2N17GKP43397_A1","","","","","","AddonDC2N17GKP43397_A1","SIP to Mobile AYCE","72000000","",""
"G","0","DC2N17GKP43397_A1","+441785218208","18/07/2017","11:33:30","34","","","UK STAFFORD","UKN","1","0.000000","","","","","SIPD","Gamma","","","","","3194","","","","","CBC8089608534D6F9360F3FE68C579BAE","GBP","+443300538880","DC2N17GKP43397_A1","","","","","","","","","",""
"V","0","DC2N17GKP43397_A1","+447884585312","18/07/2017","11:57:16","22","","","UK Mobile Vodafone","UKNFM5","1","0.000000","","","","","SIPD","Gamma","","","","","3194","","","","","C7AEEE94E01D388DBFE1ECD2B2B5070C8","GBP","+443300538880","DC2N17GKP43397_A1","","","","","","AddonDC2N17GKP43397_A1","SIP to Mobile AYCE","72000000","",""
"V","0","DC2N17GKP43397_A1","+447881822646","18/07/2017","13:43:24","315","","","UK Mobile Vodafone","UKNFM5","1","0.000000","","","","","SIPD","Gamma","","","","","3194","","","","","CC6B9FF074A2DD949DFAC0DDD687FD6DC","GBP","+443300538880","DC2N17GKP43397_A1","","","","","","AddonDC2N17GKP43397_A1","SIP to Mobile AYCE","72000000","",""
"G","0","DC2N17GKP43397_A1","+441782415513","18/07/2017","13:51:29","37","","","UK STOKE-ON-TRENT","UKN","1","0.000000","","","","","SIPD","Gamma","","","","","3194","","","","","CD8E984A65266696875C52454042B9465","GBP","+443300538880","DC2N17GKP43397_A1","","","","","","","","","",""
"V","0","DC2N17GKP43397_A1","+447741267127","18/07/2017","14:03:38","19","","","UK Mobile Vodafone","UKNFM5","1","0.000000","","","","","SIPD","Gamma","","","","","3194","","","","","C0C2ACD07BD66292A86F6D701EF7F13F8","GBP","+443300538880","DC2N17GKP43397_A1","","","","","","AddonDC2N17GKP43397_A1","SIP to Mobile AYCE","72000000","",""
"V","0","DC2N17GKP43397_A1","+447487695173","18/07/2017","14:39:15","293","","","UK Mobile Orange","UKNFM4","1","0.000000","","","","","SIPD","Gamma","","","","","3194","","","","","C5EE8DCD28EB1CDD71D8AF04AF447BBB8","GBP","+443300538880","DC2N17GKP43397_A1","","","","","","AddonDC2N17GKP43397_A1","SIP to Mobile AYCE","72000000","",""
"V","0","DC2N17GKP43397_A1","+447557339201","18/07/2017","15:20:37","4","","","UK Mobile Vodafone","UKNFM5","1","0.000000","","","","","SIPD","Gamma","","","","","3194","","","","","C519D10206838E9544079285140F39B03","GBP","+443300538880","DC2N17GKP43397_A1","","","","","","AddonDC2N17GKP43397_A1","SIP to Mobile AYCE","72000000","",""
"V","0","DC2N17GKP43397_A1","+448448797240","18/07/2017","15:23:32","88","","","UK NGCS SC008 (7ppm)","UKNSC008","1","0.105000","","","","","SIPD","Gamma","","","","","3194","","","","","C0334A6CE4966E94464367A5A39BE8492","GBP","+443300538880","DC2N17GKP43397_A1","0.019000","0.086000","","","","","","","",""
"V","0","DC2N17GKP43397_A1","+447971451933","18/07/2017","15:37:36","131","","","UK Mobile T Mobile","UKNFM3","1","0.000000","","","","","SIPD","Gamma","","","","","3194","","","","","CFBB59A0081CAE647BE838DAA5A509447","GBP","+443300538880","DC2N17GKP43397_A1","","","","","","AddonDC2N17GKP43397_A1","SIP to Mobile AYCE","72000000","",""
"G","0","DC2N17GKP43397_A1","+441785218208","18/07/2017","15:40:10","54","","","UK STAFFORD","UKN","1","0.000000","","","","","SIPD","Gamma","","","","","3194","","","","","C3199CCCFFA2A3B1436DFBBCACDB689E6","GBP","+443300538880","DC2N17GKP43397_A1","","","","","","","","","",""
"G","0","DC2N17GKP43397_A1","+441584891402","18/07/2017","15:52:09","92","","","UK LUDLOW","UKN","1","0.000000","","","","","SIPD","Gamma","","","","","3194","","","","","C827EDA4A492BB4EC71AECCA6550A1123","GBP","+443300538880","DC2N17GKP43397_A1","","","","","","","","","",""
"V","0","DC2N17GKP43397_A1","+447971451933","18/07/2017","15:53:58","87","","","UK Mobile T Mobile","UKNFM3","1","0.000000","","","","","SIPD","Gamma","","","","","3194","","","","","C6930FAD05F8BE8E68D4F05977F2B4B40","GBP","+443300538880","DC2N17GKP43397_A1","","","","","","AddonDC2N17GKP43397_A1","SIP to Mobile AYCE","72000000","",""
"G","0","DC2N17GKP43397_A1","+441584891402","18/07/2017","15:56:21","75","","","UK LUDLOW","UKN","1","0.000000","","","","","SIPD","Gamma","","","","","3194","","","","","CFC699DD97F926EE7BA0E096286AE6815","GBP","+443300538880","DC2N17GKP43397_A1","","","","","","","","","",""
"V","0","DC2N17GKP43397_A1","+447557339201","18/07/2017","15:59:51","5","","","UK Mobile Vodafone","UKNFM5","1","0.000000","","","","","SIPD","Gamma","","","","","3194","","","","","C715A45B7DC64B6CB68123C850E496F30","GBP","+443300538880","DC2N17GKP43397_A1","","","","","","AddonDC2N17GKP43397_A1","SIP to Mobile AYCE","72000000","",""
