"Call Type","Call Cause Definition Required","Customer Identifier","Non-Charged Party","Call Date","Call Time","Duration","Bytes Transmitted","Bytes Received","Description","Chargecode","Time Band","Salesprice","Salesprice (Pre-Bundle)","Extension","DDI","Grouping ID","Call Class (Feature)","Carrier","Recording","VAT","Country of Origin","Network","Retail Tariff Code","Remote Network","APN","Diverted Number","Ring time","Record ID","Currency","Caller Line Identity","Network Access Reference","NGCS Access Charge","NGCS Service Charge","Total Bytes Transferred","User ID","Onward Billing Reference","Contract Name","Bundle Name","Bundle Allowance","Discount Reference","Routing Code"
"G","0","DC2N17GKP43397_A1","+44138641411","04/09/2017","08:54:57","57","","","UK EVESHAM","UKN","1","0.000000","","","","","SIPD","Gamma","","","","","3194","","","","","C5F9A8297137DC3857601F488A33BBFB2","GBP","+443300538880","DC2N17GKP43397_A1","","","","","","","","","",""
"V","0","DC2N17GKP43397_A1","+447943066328","04/09/2017","09:04:20","69","","","UK Mobile T Mobile","UKNFM3","1","0.000000","","","","","SIPD","Gamma","","","","","3194","","","","","C1BEEF09C1B606B7166BE7113E693B878","GBP","+443300538880","DC2N17GKP43397_A1","","","","","","AddonDC2N17GKP43397_A1","SIP to Mobile AYCE","72000000","",""
"V","0","DC2N17GKP43397_A1","+447557339201","04/09/2017","09:25:14","3","","","UK Mobile Vodafone","UKNFM5","1","0.000000","","","","","SIPD","Gamma","","","","","3194","","","","","C2D9DF3FB9FF180195A2A2557C39E9523","GBP","+443300538880","DC2N17GKP43397_A1","","","","","","AddonDC2N17GKP43397_A1","SIP to Mobile AYCE","72000000","",""
"G","0","DC2N17GKP43397_A1","+441282661661","04/09/2017","09:29:11","164","","","UK BURNLEY","UKN","1","0.000000","","","","","SIPD","Gamma","","","","","3194","","","","","C30CEA2003694A28AF147C0C0AF72E6DC","GBP","+443300538880","DC2N17GKP43397_A1","","","","","","","","","",""
"G","0","DC2N17GKP43397_A1","+441282661661","04/09/2017","09:32:02","376","","","UK BURNLEY","UKN","1","0.000000","","","","","SIPD","Gamma","","","","","3194","","","","","C26A45B0BAD5D2A93E45CDD7AF2FA939F","GBP","+443300538880","DC2N17GKP43397_A1","","","","","","","","","",""
"V","0","DC2N17GKP43397_A1","+447557339201","04/09/2017","09:38:25","78","","","UK Mobile Vodafone","UKNFM5","1","0.000000","","","","","SIPD","Gamma","","","","","3194","","","","","C3257E190C5C8C8EF11565C936F0063C1","GBP","+443300538880","DC2N17GKP43397_A1","","","","","","AddonDC2N17GKP43397_A1","SIP to Mobile AYCE","72000000","",""
"G","0","DC2N17GKP43397_A1","+441625422173","04/09/2017","10:11:19","94","","","UK MACCLESFIELD","UKN","1","0.000000","","","","","SIPD","Gamma","","","","","3194","","","","","CB0EAE327944784CA2196665897BA81AD","GBP","+443300538880","DC2N17GKP43397_A1","","","","","","","","","",""
"G","0","DC2N17GKP43397_A1","+441353669000","04/09/2017","10:14:18","98","","","UK ELY","UKN","1","0.000000","","","","","SIPD","Gamma","","","","","3194","","","","","C75C4086FFA4B2FBF95005C5ADC56B315","GBP","+443300538880","DC2N17GKP43397_A1","","","","","","","","","",""
"V","0","DC2N17COP40785_A1","+447974398429","04/09/2017","11:07:32","19","","","UK Mobile T Mobile","UKNFM3","1","0.000000","","","","","SIPD","Gamma","","","","","3194","","","","","C354DD5AA6A9DF561A52B70E5C19ACE25","GBP","+443332026365","DC2N17COP40785_A1","","","","","","AddonDC2N17COP40785_A1","SIP to Mobile AYCE","72000000","",""
"G","0","DC2N17GKP43397_A1","+44138641411","04/09/2017","11:12:10","42","","","UK EVESHAM","UKN","1","0.000000","","","","","SIPD","Gamma","","","","","3194","","","","","C2A02E97089732D4CBD37BFC7D8BA9851","GBP","+443300538880","DC2N17GKP43397_A1","","","","","","","","","",""
"V","0","DC2N17GKP43397_A1","+447967138280","04/09/2017","11:20:23","87","","","UK Mobile T Mobile","UKNFM3","1","0.000000","","","","","SIPD","Gamma","","","","","3194","","","","","C5192A97DB4C13D951CBF5E1DA7BF1C48","GBP","+443300538880","DC2N17GKP43397_A1","","","","","","AddonDC2N17GKP43397_A1","SIP to Mobile AYCE","72000000","",""
"G","0","DC2N17GKP43397_A1","+441506444255","04/09/2017","11:38:15","57","","","UK BATHGATE","UKN","1","0.000000","","","","","SIPD","Gamma","","","","","3194","","","","","C82241CADAC8C807C3CB4C10CA4E29CD1","GBP","+443300538880","DC2N17GKP43397_A1","","","","","","","","","",""
"V","0","DC2N17GKP43397_A1","+447557339201","04/09/2017","11:40:36","3","","","UK Mobile Vodafone","UKNFM5","1","0.000000","","","","","SIPD","Gamma","","","","","3194","","","","","C138A268F0A29353BF58ADB8EEE344CAF","GBP","+443300538880","DC2N17GKP43397_A1","","","","","","AddonDC2N17GKP43397_A1","SIP to Mobile AYCE","72000000","",""
"G","0","DC2N17GKP43397_A1","+441531660258","04/09/2017","11:42:16","154","","","UK LEDBURY","UKN","1","0.000000","","","","","SIPD","Gamma","","","","","3194","","","","","C37B6A99C3318AACBB4875A2AAC93AC07","GBP","+443300538880","DC2N17GKP43397_A1","","","","","","","","","",""
"G","0","DC2N17GKP43397_A1","+441617620233","04/09/2017","11:58:57","88","","","UK MANCHESTER","UKN","1","0.000000","","","","","SIPD","Gamma","","","","","3194","","","","","C7B9BAD0B46DDE08DB0A933CE66F648D3","GBP","+443300538880","DC2N17GKP43397_A1","","","","","","","","","",""
"G","0","DC2N17GKP43397_A1","+441582568212","04/09/2017","12:08:01","96","","","UK LUTON","UKN","1","0.000000","","","","","SIPD","Gamma","","","","","3194","","","","","C81F29E23EB8FC4FF3E89269F18B0364C","GBP","+443300538880","DC2N17GKP43397_A1","","","","","","","","","",""
"V","0","DC2N17GKP43397_A1","+447487695173","04/09/2017","13:07:47","176","","","UK Mobile Orange","UKNFM4","1","0.000000","","","","","SIPD","Gamma","","","","","3194","","","","","CC34316348641C96E1EB963CB21CC3AAE","GBP","+443300538880","DC2N17GKP43397_A1","","","","","","AddonDC2N17GKP43397_A1","SIP to Mobile AYCE","72000000","",""
"G","0","DC2N17GKP43397_A1","+441283523000","04/09/2017","13:12:29","124","","","UK BURTON ON TRENT","UKN","1","0.000000","","","","","SIPD","Gamma","","","","","3194","","","","","C59E9B93A855C495018F043F9AFD833C1","GBP","+443300538880","DC2N17GKP43397_A1","","","","","","","","","",""
"V","0","DC2N17GKP43397_A1","+447487695173","04/09/2017","13:14:45","34","","","UK Mobile Orange","UKNFM4","1","0.000000","","","","","SIPD","Gamma","","","","","3194","","","","","C4115FCA0BC134AAE6413CF1D10C7159D","GBP","+443300538880","DC2N17GKP43397_A1","","","","","","AddonDC2N17GKP43397_A1","SIP to Mobile AYCE","72000000","",""
"V","0","DC2N17GKP43397_A1","+447557339201","04/09/2017","13:15:54","2","","","UK Mobile Vodafone","UKNFM5","1","0.000000","","","","","SIPD","Gamma","","","","","3194","","","","","CA9FC0AFD7BA549C18018E04C4CA33B64","GBP","+443300538880","DC2N17GKP43397_A1","","","","","","AddonDC2N17GKP43397_A1","SIP to Mobile AYCE","72000000","",""
"G","0","DC2N17GKP43397_A1","+441623655000","04/09/2017","13:26:50","44","","","UK MANSFIELD","UKN","1","0.000000","","","","","SIPD","Gamma","","","","","3194","","","","","CFFE96303D0BE6F5B6CFF68688791B651","GBP","+443300538880","DC2N17GKP43397_A1","","","","","","","","","",""
"V","0","DC2N17GKP43397_A1","+447943066328","04/09/2017","13:27:44","3","","","UK Mobile T Mobile","UKNFM3","1","0.000000","","","","","SIPD","Gamma","","","","","3194","","","","","C7155EEDB74184040C3D802CF8A02308F","GBP","+443300538880","DC2N17GKP43397_A1","","","","","","AddonDC2N17GKP43397_A1","SIP to Mobile AYCE","72000000","",""
"V","0","DC2N17GKP43397_A1","+447932517355","04/09/2017","13:37:56","178","","","UK Mobile T Mobile","UKNFM3","1","0.000000","","","","","SIPD","Gamma","","","","","3194","","","","","CD60EDE9AEA0E9D610FDBBE20EB3BAF69","GBP","+443300538880","DC2N17GKP43397_A1","","","","","","AddonDC2N17GKP43397_A1","SIP to Mobile AYCE","72000000","",""
"V","0","DC2N17GKP43397_A1","+447943066328","04/09/2017","13:41:22","47","","","UK Mobile T Mobile","UKNFM3","1","0.000000","","","","","SIPD","Gamma","","","","","3194","","","","","C9F861B72C3968A24C359C40027A8FE4B","GBP","+443300538880","DC2N17GKP43397_A1","","","","","","AddonDC2N17GKP43397_A1","SIP to Mobile AYCE","72000000","",""
"V","0","DC2N17GKP43397_A1","+447572826729","04/09/2017","13:42:23","40","","","UK Mobile T Mobile","UKNFM3","1","0.000000","","","","","SIPD","Gamma","","","","","3194","","","","","C06986AE807344FCFAB18EC386301707F","GBP","+443300538880","DC2N17GKP43397_A1","","","","","","AddonDC2N17GKP43397_A1","SIP to Mobile AYCE","72000000","",""
"G","0","DC2N17GKP43397_A1","+441205461594","04/09/2017","13:42:24","52","","","UK BOSTON","UKN","1","0.000000","","","","","SIPD","Gamma","","","","","3194","","","","","C84599996F23281F0F2986F6E2C846EAC","GBP","+443300538880","DC2N17GKP43397_A1","","","","","","","","","",""
"G","0","DC2N17GKP43397_A1","+441480407074","04/09/2017","13:49:11","83","","","UK HUNTINGDON","UKN","1","0.000000","","","","","SIPD","Gamma","","","","","3194","","","","","CD1939D329101AA8FDF53ACC3846B7275","GBP","+443300538880","DC2N17GKP43397_A1","","","","","","","","","",""
"G","0","DC2N17GKP43397_A1","+442077041901","04/09/2017","15:28:10","102","","","UK LONDON","UKN","1","0.000000","","","","","SIPD","Gamma","","","","","3194","","","","","C3FC50299BB76DAC44AFF41B92E370F7E","GBP","+443300538880","DC2N17GKP43397_A1","","","","","","","","","",""
"V","0","DC2N17GKP43397_A1","+447557339201","04/09/2017","16:15:57","17","","","UK Mobile Vodafone","UKNFM5","1","0.000000","","","","","SIPD","Gamma","","","","","3194","","","","","CE65B15CBF3DB24625C965C852F99622C","GBP","+443300538880","DC2N17GKP43397_A1","","","","","","AddonDC2N17GKP43397_A1","SIP to Mobile AYCE","72000000","",""
