"Call Type","Call Cause Definition Required","Customer Identifier","Non-Charged Party","Call Date","Call Time","Duration","Bytes Transmitted","Bytes Received","Description","Chargecode","Time Band","Salesprice","Salesprice (Pre-Bundle)","Extension","DDI","Grouping ID","Call Class (Feature)","Carrier","Recording","VAT","Country of Origin","Network","Retail Tariff Code","Remote Network","APN","Diverted Number","Ring time","Record ID","Currency","Caller Line Identity","Network Access Reference","NGCS Access Charge","NGCS Service Charge","Total Bytes Transferred","User ID","Onward Billing Reference","Contract Name","Bundle Name","Bundle Allowance","Discount Reference","Routing Code"
"V","0","DC2N17GKP43397_A1","+447557339201","31/08/2017","08:59:07","2","","","UK Mobile Vodafone","UKNFM5","1","0.000000","","","","","SIPD","Gamma","","","","","3194","","","","","CA9DED1BD94669E0AB05DE1D23D3B01B1","GBP","+443300538880","DC2N17GKP43397_A1","","","","","","AddonDC2N17GKP43397_A1","SIP to Mobile AYCE","72000000","",""
"G","0","DC2N17GKP43397_A1","+441480402012","31/08/2017","09:48:09","89","","","UK HUNTINGDON","UKN","1","0.000000","","","","","SIPD","Gamma","","","","","3194","","","","","C30A3078EB0B789053D6D19C9144AEACC","GBP","+443300538880","DC2N17GKP43397_A1","","","","","","","","","",""
"G","0","DC2N17GKP43397_A1","+443335777166","31/08/2017","09:56:35","38","","","UK National Non Geographic","UKNNNG","1","0.000000","","","","","SIPD","Gamma","","","","","3194","","","","","CA9FC839CEFB9822618613CDA548F1D65","GBP","+443300538880","DC2N17GKP43397_A1","","","","","","","","","",""
"G","0","DC2N17GKP43397_A1","+441654791235","31/08/2017","10:00:32","136","","","UK MACHYNLLETH","UKN","1","0.000000","","","","","SIPD","Gamma","","","","","3194","","","","","C04B6A45A0CEAA7C28E2AC3338E1ADFEB","GBP","+443300538880","DC2N17GKP43397_A1","","","","","","","","","",""
"G","0","DC2N17GKP43397_A1","+441782272991","31/08/2017","10:00:37","408","","","UK STOKE-ON-TRENT","UKN","1","0.000000","","","","","SIPD","Gamma","","","","","3194","","","","","CCDA846545BEA6A5928FA6B31A7D5908A","GBP","+443300538880","DC2N17GKP43397_A1","","","","","","","","","",""
"V","0","DC2N17GKP43397_A1","+447487695173","31/08/2017","10:03:07","3","","","UK Mobile Orange","UKNFM4","1","0.000000","","","","","SIPD","Gamma","","","","","3194","","","","","C0322A6D5A6289849B73136FA4E4D9AB4","GBP","+443300538880","DC2N17GKP43397_A1","","","","","","AddonDC2N17GKP43397_A1","SIP to Mobile AYCE","72000000","",""
"V","0","DC2N17GKP43397_A1","+447487695173","31/08/2017","10:15:40","19","","","UK Mobile Orange","UKNFM4","1","0.000000","","","","","SIPD","Gamma","","","","","3194","","","","","C0A899CFED0A8CA1EC1438A4522C7363E","GBP","+443300538880","DC2N17GKP43397_A1","","","","","","AddonDC2N17GKP43397_A1","SIP to Mobile AYCE","72000000","",""
"V","0","DC2N17GKP43397_A1","+447920721224","31/08/2017","10:24:39","22","","","UK Mobile Vodafone","UKNFM5","1","0.000000","","","","","SIPD","Gamma","","","","","3194","","","","","CE626E270E3D5FD2DD9BDFDF2F6B77C9E","GBP","+443300538880","DC2N17GKP43397_A1","","","","","","AddonDC2N17GKP43397_A1","SIP to Mobile AYCE","72000000","",""
"G","0","DC2N17COP40785_A1","+442085023609","31/08/2017","11:31:42","7","","","UK LONDON","UKN","1","0.000000","","","","","SIPD","Gamma","","","","","3194","","","","","C2151422B782F022A28C9202D3AD28A2A","GBP","+443332026365","DC2N17COP40785_A1","","","","","","","","","",""
"G","0","DC2N17COP40785_A1","+442085040000","31/08/2017","11:32:25","134","","","UK LONDON","UKN","1","0.000000","","","","","SIPD","Gamma","","","","","3194","","","","","C9F488FAAF8D7B34630EB2893DFF9A82C","GBP","+443332026365","DC2N17COP40785_A1","","","","","","","","","",""
"G","0","DC2N17GKP43397_A1","+441480407074","31/08/2017","11:53:57","178","","","UK HUNTINGDON","UKN","1","0.000000","","","","","SIPD","Gamma","","","","","3194","","","","","C9A1D30BB418EEFB7C6AB75D5FF1C882C","GBP","+443300538880","DC2N17GKP43397_A1","","","","","","","","","",""
"V","0","DC2N17GKP43397_A1","+447487695173","31/08/2017","11:59:27","168","","","UK Mobile Orange","UKNFM4","1","0.000000","","","","","SIPD","Gamma","","","","","3194","","","","","C148AF8F92EE218F9881DF824FC83C155","GBP","+443300538880","DC2N17GKP43397_A1","","","","","","AddonDC2N17GKP43397_A1","SIP to Mobile AYCE","72000000","",""
"V","0","DC2N17GKP43397_A1","+447741267127","31/08/2017","12:03:38","177","","","UK Mobile Vodafone","UKNFM5","1","0.000000","","","","","SIPD","Gamma","","","","","3194","","","","","C4DE2C9D944D11324F63378954FF03726","GBP","+443300538880","DC2N17GKP43397_A1","","","","","","AddonDC2N17GKP43397_A1","SIP to Mobile AYCE","72000000","",""
"V","0","DC2N17GKP43397_A1","+447741267127","31/08/2017","12:10:02","48","","","UK Mobile Vodafone","UKNFM5","1","0.000000","","","","","SIPD","Gamma","","","","","3194","","","","","CD137F7E3BCBDE518AA0EF38F742D2358","GBP","+443300538880","DC2N17GKP43397_A1","","","","","","AddonDC2N17GKP43397_A1","SIP to Mobile AYCE","72000000","",""
"V","0","DC2N17GKP43397_A1","+447557339201","31/08/2017","12:27:34","147","","","UK Mobile Vodafone","UKNFM5","1","0.000000","","","","","SIPD","Gamma","","","","","3194","","","","","C207F92694B08D5D2BB54DF2069C625D5","GBP","+443300538880","DC2N17GKP43397_A1","","","","","","AddonDC2N17GKP43397_A1","SIP to Mobile AYCE","72000000","",""
"G","0","DC2N17GKP43397_A1","+441283523000","31/08/2017","12:51:28","182","","","UK BURTON ON TRENT","UKN","1","0.000000","","","","","SIPD","Gamma","","","","","3194","","","","","C47701C86F63295408F29EDB38797F013","GBP","+443300538880","DC2N17GKP43397_A1","","","","","","","","","",""
"G","0","DC2N17COP40785_A1","+442085040000","31/08/2017","13:01:53","41","","","UK LONDON","UKN","1","0.000000","","","","","SIPD","Gamma","","","","","3194","","","","","C32E5081E0E45266C44B5BC3E1E364D6A","GBP","+443332026365","DC2N17COP40785_A1","","","","","","","","","",""
"G","0","DC2N17GKP43397_A1","+441283523000","31/08/2017","13:49:14","317","","","UK BURTON ON TRENT","UKN","1","0.000000","","","","","SIPD","Gamma","","","","","3194","","","","","C6B4B8DCD61C1A94EFE08CD2C4654E43B","GBP","+443300538880","DC2N17GKP43397_A1","","","","","","","","","",""
"V","0","DC2N17GKP43397_A1","+447487695173","31/08/2017","14:10:24","97","","","UK Mobile Orange","UKNFM4","1","0.000000","","","","","SIPD","Gamma","","","","","3194","","","","","C78AD067FC96446FF930474371A4868F4","GBP","+443300538880","DC2N17GKP43397_A1","","","","","","AddonDC2N17GKP43397_A1","SIP to Mobile AYCE","72000000","",""
"G","0","DC2N17GKP43397_A1","+442073985700","31/08/2017","14:17:22","56","","","UK LONDON","UKN","1","0.000000","","","+443300538880","","SIPD","Gamma","","","","","3194","","","","","C70073D524C8403BB2DA9911845A56BCF","GBP","+443300538880","DC2N17GKP43397_A1","","","","","","","","","",""
"G","0","DC2N17COP40785_A1","+443300538880","31/08/2017","14:20:23","122","","","UK National Non Geographic","UKNNNG","1","0.000000","","","+443332026365","","SIPD","Gamma","","","","","3194","","","","","C73C8BBAA1CCFCCA899CE195D4132DE9C","GBP","+443332026365","DC2N17COP40785_A1","","","","","","","","","",""
"G","0","DC2N17GKP43397_A1","+441630658138","31/08/2017","14:36:36","143","","","UK MARKET DRAYTON","UKN","1","0.000000","","","","","SIPD","Gamma","","","","","3194","","","","","C5AE6ABACFA7A690E6409BBB9AA0D0144","GBP","+443300538880","DC2N17GKP43397_A1","","","","","","","","","",""
"V","0","DC2N17GKP43397_A1","+447943066328","31/08/2017","14:50:14","75","","","UK Mobile T Mobile","UKNFM3","1","0.000000","","","","","SIPD","Gamma","","","","","3194","","","","","C9C09BA091F0A4FC2D97E1CDD73DFF0DC","GBP","+443300538880","DC2N17GKP43397_A1","","","","","","AddonDC2N17GKP43397_A1","SIP to Mobile AYCE","72000000","",""
"G","0","DC2N17GKP43397_A1","+441630318130","31/08/2017","14:51:51","82","","","UK MARKET DRAYTON","UKN","1","0.000000","","","","","SIPD","Gamma","","","","","3194","","","","","C282B02F5361787AB84C5811D4E803994","GBP","+443300538880","DC2N17GKP43397_A1","","","","","","","","","",""
"V","0","DC2N17GKP43397_A1","+447487695173","31/08/2017","15:08:48","105","","","UK Mobile Orange","UKNFM4","1","0.000000","","","","","SIPD","Gamma","","","","","3194","","","","","C225DF80199594551BA03A8B36E81FAFA","GBP","+443300538880","DC2N17GKP43397_A1","","","","","","AddonDC2N17GKP43397_A1","SIP to Mobile AYCE","72000000","",""
"G","0","DC2N17COP40785_A1","+443300538880","31/08/2017","15:50:38","177","","","UK National Non Geographic","UKNNNG","1","0.000000","","","+443332026365","","SIPD","Gamma","","","","","3194","","","","","C3FB6C451CF00B8E4566F9A7F175AC2CE","GBP","+443332026365","DC2N17COP40785_A1","","","","","","","","","",""
"G","0","DC2N17GKP43397_A1","+443332026365","31/08/2017","16:00:07","73","","","UK National Non Geographic","UKNNNG","1","0.000000","","","","","SIPD","Gamma","","","","","3194","","","","","CAB56B2A4151A356B5B25E29775A92964","GBP","+443300538880","DC2N17GKP43397_A1","","","","","","","","","",""
"G","0","DC2N17COP40785_A1","+443300538880","31/08/2017","16:06:14","60","","","UK National Non Geographic","UKNNNG","1","0.000000","","","+443332026365","","SIPD","Gamma","","","","","3194","","","","","C7166BBA72C9D57345DCEF2EF4047BFBB","GBP","+443332026365","DC2N17COP40785_A1","","","","","","","","","",""
"G","0","DC2N17COP40785_A1","+443300538880","31/08/2017","16:07:24","70","","","UK National Non Geographic","UKNNNG","1","0.000000","","","+443332026365","","SIPD","Gamma","","","","","3194","","","","","CE0B32E9F73E8991DE14DEA28B1F3C0B2","GBP","+443332026365","DC2N17COP40785_A1","","","","","","","","","",""
