"Call Type","Call Cause Definition Required","Customer Identifier","Non-Charged Party","Call Date","Call Time","Duration","Bytes Transmitted","Bytes Received","Description","Chargecode","Time Band","Salesprice","Salesprice (Pre-Bundle)","Extension","DDI","Grouping ID","Call Class (Feature)","Carrier","Recording","VAT","Country of Origin","Network","Retail Tariff Code","Remote Network","APN","Diverted Number","Ring time","Record ID","Currency","Caller Line Identity","Network Access Reference","NGCS Access Charge","NGCS Service Charge","Total Bytes Transferred","User ID","Onward Billing Reference","Contract Name","Bundle Name","Bundle Allowance","Discount Reference","Routing Code"
"N","0","+443300538880","+447710xxxxxx","04/10/2017","09:04:56","252","","","UK STOKE-ON-TRENT","UKN","1","0.031000","","","","","NT03","Gamma","","","","","3194","","","+441782898004","","S7D765A20482F4811CF79836E41A5CC16","GBP","+443300538880","","","","","","","","","","",""
"N","0","+443300538880","+447495xxxxxx","04/10/2017","09:28:14","246","","","UK STOKE-ON-TRENT","UKN","1","0.030000","","","","","NT03","Gamma","","","","","3194","","","+441782898004","","SD4861AE0EAC92BBA423A0712F5E53966","GBP","+443300538880","","","","","","","","","","",""
"N","0","+443300538880","+441480xxxxxx","04/10/2017","09:39:03","115","","","UK STOKE-ON-TRENT","UKN","1","0.014000","","","","","NT03","Gamma","","","","","3194","","","+441782898004","","SECCA4072CB537CE14F7E03455392A2FB","GBP","+443300538880","","","","","","","","","","",""
"N","0","+443300539660","+447850xxxxxx","04/10/2017","09:43:13","47","","","UK LEICESTER","UKN","1","0.006000","","","","","NT03","Gamma","","","","","3194","","","+441162690770","","S28B5D36FE0C34229B9A37425AD4FA8D1","GBP","+443300539660","","","","","","","","","","",""
"N","0","+443300539660","+441204xxxxxx","04/10/2017","09:51:36","125","","","UK LEICESTER","UKN","1","0.015000","","","","","NT03","Gamma","","","","","3194","","","+441162690770","","S618D74BD08A5C2239EBF1F7F96440C75","GBP","+443300539660","","","","","","","","","","",""
"N","0","+443300538880","+441261xxxxxx","04/10/2017","10:05:53","206","","","UK STOKE-ON-TRENT","UKN","1","0.025000","","","","","NT03","Gamma","","","","","3194","","","+441782898004","","S8147F22E6EA40FB588BB2DB6AF12DD9A","GBP","+443300538880","","","","","","","","","","",""
"N","0","+443300538880","+447785xxxxxx","04/10/2017","10:20:36","142","","","UK STOKE-ON-TRENT","UKN","1","0.018000","","","","","NT03","Gamma","","","","","3194","","","+441782898004","","S8E1C7816E301427473CE60C172E83A22","GBP","+443300538880","","","","","","","","","","",""
"N","0","+443300538880","+442071xxxxxx","04/10/2017","10:32:12","86","","","UK STOKE-ON-TRENT","UKN","1","0.011000","","","","","NT03","Gamma","","","","","3194","","","+441782898004","","S48147843C398889181D74F44D0E8B525","GBP","+443300538880","","","","","","","","","","",""
"N","0","+443300538880","+447872xxxxxx","04/10/2017","10:33:24","240","","","UK STOKE-ON-TRENT","UKN","1","0.029000","","","","","NT03","Gamma","","","","","3194","","","+441782898004","","S959baf44f9fb7d2c9fe07d2dfecfb288","GBP","+443300538880","","","","","","","","","","",""
"N","0","+443300538880","+447785xxxxxx","04/10/2017","10:33:37","3","","","UK STOKE-ON-TRENT","UKN","1","0.001000","","","","","NT03","Gamma","","","","","3194","","","+441782898004","","S7982F50E29FA59F992BC1AAB8AE8F4B4","GBP","+443300538880","","","","","","","","","","",""
"N","0","+443300538880","+463212xxxxxx","04/10/2017","10:48:20","25","","","UK STOKE-ON-TRENT","UKN","1","0.003000","","","","","NT03","Gamma","","","","","3194","","","+441782898004","","SD2C4900D41F47480B15B22E2F61A5ED4","GBP","+443300538880","","","","","","","","","","",""
"N","0","+443300538880","+447740xxxxxx","04/10/2017","10:49:00","84","","","UK STOKE-ON-TRENT","UKN","1","0.011000","","","","","NT03","Gamma","","","","","3194","","","+441782898004","","S4c03126b41bc1cff5ee62e0efe1a16e9","GBP","+443300538880","","","","","","","","","","",""
"N","0","+443300538880","+463212xxxxxx","04/10/2017","10:49:08","294","","","UK STOKE-ON-TRENT","UKN","1","0.036000","","","","","NT03","Gamma","","","","","3194","","","+441782898004","","S6D84A594E08711B8EA4C1C3380EF7261","GBP","+443300538880","","","","","","","","","","",""
"N","0","+443300538880","+447538xxxxxx","04/10/2017","10:52:01","90","","","UK STOKE-ON-TRENT","UKN","1","0.011000","","","","","NT03","Gamma","","","","","3194","","","+441782898004","","S2F4573EA4DE5C0152536143F8BF7F9E7","GBP","+443300538880","","","","","","","","","","",""
"N","0","+443300538880","+447487xxxxxx","04/10/2017","11:07:01","381","","","UK STOKE-ON-TRENT","UKN","1","0.046000","","","","","NT03","Gamma","","","","","3194","","","+441782898004","","SA8A553CDCDC443992D7E4E44310F8F9E","GBP","+443300538880","","","","","","","","","","",""
"N","0","+443300538880","+447495xxxxxx","04/10/2017","11:24:17","73","","","UK STOKE-ON-TRENT","UKN","1","0.009000","","","","","NT03","Gamma","","","","","3194","","","+441782898004","","SC13CBC89822418F3E42757CB3549147F","GBP","+443300538880","","","","","","","","","","",""
"N","0","+443300538880","+441314xxxxxx","04/10/2017","11:34:52","196","","","UK STOKE-ON-TRENT","UKN","1","0.024000","","","","","NT03","Gamma","","","","","3194","","","+441782898004","","S91865eada34e1b16cf3e845f34af4851","GBP","+443300538880","","","","","","","","","","",""
"N","0","+443300538880","+442887xxxxxx","04/10/2017","11:36:43","35","","","UK STOKE-ON-TRENT","UKN","1","0.005000","","","","","NT03","Gamma","","","","","3194","","","+441782898004","","SB26B15A571C4D7443AA8A7C005BBA661","GBP","+443300538880","","","","","","","","","","",""
"N","0","+443300538880","+442887xxxxxx","04/10/2017","11:38:16","19","","","UK STOKE-ON-TRENT","UKN","1","0.003000","","","","","NT03","Gamma","","","","","3194","","","+441782898004","","S5C5202451B5B55D4F25DC9EC227872B9","GBP","+443300538880","","","","","","","","","","",""
"N","0","+443300538880","+441516xxxxxx","04/10/2017","11:39:04","51","","","UK STOKE-ON-TRENT","UKN","1","0.007000","","","","","NT03","Gamma","","","","","3194","","","+441782898004","","S47CB50A409158E26744136EB4C90224E","GBP","+443300538880","","","","","","","","","","",""
"N","0","+443300538880","+442887xxxxxx","04/10/2017","11:40:03","270","","","UK STOKE-ON-TRENT","UKN","1","0.033000","","","","","NT03","Gamma","","","","","3194","","","+441782898004","","S2EF1EE83BCFF86D00CDC6164CD9F3A67","GBP","+443300538880","","","","","","","","","","",""
"N","0","+443300538880","+447710xxxxxx","04/10/2017","12:32:22","53","","","UK STOKE-ON-TRENT","UKN","1","0.007000","","","","","NT03","Gamma","","","","","3194","","","+441782898004","","S891BB4D78C249B4972882166B6BBA31C","GBP","+443300538880","","","","","","","","","","",""
"N","0","+443300538880","+447710xxxxxx","04/10/2017","12:33:38","12","","","UK STOKE-ON-TRENT","UKN","1","0.002000","","","","","NT03","Gamma","","","","","3194","","","+441782898004","","S78D3E3EAF8CB350D56A349F4A7F21609","GBP","+443300538880","","","","","","","","","","",""
"N","0","+443300538880","+447710xxxxxx","04/10/2017","12:34:11","119","","","UK STOKE-ON-TRENT","UKN","1","0.015000","","","","","NT03","Gamma","","","","","3194","","","+441782898004","","S3253FBF7EF0826289207F77ACBDEB1A0","GBP","+443300538880","","","","","","","","","","",""
"N","0","+443300538880","+447841xxxxxx","04/10/2017","12:45:49","141","","","UK STOKE-ON-TRENT","UKN","1","0.017000","","","","","NT03","Gamma","","","","","3194","","","+441782898004","","Sfc83e5896d49c86230521097563692c6","GBP","+443300538880","","","","","","","","","","",""
"N","0","+443300538880","+441630xxxxxx","04/10/2017","13:24:21","201","","","UK STOKE-ON-TRENT","UKN","1","0.025000","","","","","NT03","Gamma","","","","","3194","","","+441782898004","","S0806E84A663475F3AF9AB3DB436B9BE1","GBP","+443300538880","","","","","","","","","","",""
"N","0","+443300539660","+441376xxxxxx","04/10/2017","13:35:22","34","","","UK LEICESTER","UKN","1","0.005000","","","","","NT03","Gamma","","","","","3194","","","+441162690770","","S30d58c2fed2a1066e18d3d93e3fb15f7","GBP","+443300539660","","","","","","","","","","",""
"N","0","+443300538880","+441926xxxxxx","04/10/2017","13:40:36","122","","","UK STOKE-ON-TRENT","UKN","1","0.015000","","","","","NT03","Gamma","","","","","3194","","","+441782898004","","S9A54DAD8C3412C8EDFFB56204A081FD9","GBP","+443300538880","","","","","","","","","","",""
"N","0","+443300538880","+441984xxxxxx","04/10/2017","14:45:36","193","","","UK STOKE-ON-TRENT","UKN","1","0.024000","","","","","NT03","Gamma","","","","","3194","","","+441782898004","","S45E995F57EB5740FDB4FBA35D1221926","GBP","+443300538880","","","","","","","","","","",""
"N","0","+443300539660","+447890xxxxxx","04/10/2017","14:57:51","35","","","UK LEICESTER","UKN","1","0.005000","","","","","NT03","Gamma","","","","","3194","","","+441162690770","","S8C109F6E7992422D2D6C532029192443","GBP","+443300539660","","","","","","","","","","",""
"N","0","+443300538880","+441292xxxxxx","04/10/2017","15:38:26","158","","","UK STOKE-ON-TRENT","UKN","1","0.019000","","","","","NT03","Gamma","","","","","3194","","","+441782898004","","S54cdaf8939f3c9d371aa3a0506861e02","GBP","+443300538880","","","","","","","","","","",""
"N","0","+443300538880","+447753xxxxxx","04/10/2017","16:44:05","109","","","UK STOKE-ON-TRENT","UKN","1","0.014000","","","","","NT03","Gamma","","","","","3194","","","+441782898004","","S8190CE4C6CDD0C2BB507AA55F4BF3C06","GBP","+443300538880","","","","","","","","","","",""
"N","0","+443300538880","+447748xxxxxx","04/10/2017","19:12:18","1","","","UK STOKE-ON-TRENT","UKN","2","0.001000","","","","","NT03","Gamma","","","","","3194","","","+441782898004","","SC7519898059F9867C6366CFCF303B4A9","GBP","+443300538880","","","","","","","","","","",""
