"Call Type","Call Cause Definition Required","Customer Identifier","Non-Charged Party","Call Date","Call Time","Duration","Bytes Transmitted","Bytes Received","Description","Chargecode","Time Band","Salesprice","Salesprice (Pre-Bundle)","Extension","DDI","Grouping ID","Call Class (Feature)","Carrier","Recording","VAT","Country of Origin","Network","Retail Tariff Code","Remote Network","APN","Diverted Number","Ring time","Record ID","Currency","Caller Line Identity","Network Access Reference","NGCS Access Charge","NGCS Service Charge","Total Bytes Transferred","User ID","Onward Billing Reference","Contract Name","Bundle Name","Bundle Allowance","Discount Reference","Routing Code"
"G","0","DC2N17GKP43397_A1","+441283523000","06/06/2017","09:13:09","128","","","UK BURTON ON TRENT","UKN","1","0.000000","","","","","SIPD","Gamma","","","","","3194","","","","","CF4932B731856962A1D2E80EC257388A2","GBP","+443300538880","DC2N17GKP43397_A1","","","","","","","","","",""
"V","0","DC2N17GKP43397_A1","+447557339201","06/06/2017","09:20:02","34","","","UK Mobile Vodafone","UKNFM5","1","0.000000","","","","","SIPD","Gamma","","","","","3194","","","","","C7593FB011447A305572823D6EFE9B1D7","GBP","+443300538880","DC2N17GKP43397_A1","","","","","","AddonDC2N17GKP43397_A1","SIP to Mobile AYCE","72000000","",""
"G","0","DC2N17GKP43397_A1","+443332026365","06/06/2017","09:22:01","110","","","UK National Non Geographic","UKNNNG","1","0.000000","","","","","SIPD","Gamma","","","","","3194","","","","","C51B855737181A35041746E29B6C754C3","GBP","+443300538880","DC2N17GKP43397_A1","","","","","","","","","",""
"V","0","DC2N17GKP43397_A1","+447557339201","06/06/2017","09:30:46","39","","","UK Mobile Vodafone","UKNFM5","1","0.000000","","","","","SIPD","Gamma","","","","","3194","","","","","CADEEA8CC52B215E03B579CFBBD723831","GBP","+443300538880","DC2N17GKP43397_A1","","","","","","AddonDC2N17GKP43397_A1","SIP to Mobile AYCE","72000000","",""
"G","0","DC2N17COP40785_A1","+441162776363","06/06/2017","09:40:25","223","","","UK LEICESTER","UKN","1","0.000000","","","","","SIPD","Gamma","","","","","3194","","","","","C10E15311590F17677068504591CE9BCB","GBP","+443332026365","DC2N17COP40785_A1","","","","","","","","","",""
"V","0","DC2N17GKP43397_A1","+447741267127","06/06/2017","09:40:45","4","","","UK Mobile Vodafone","UKNFM5","1","0.000000","","","","","SIPD","Gamma","","","","","3194","","","","","CA9C131BBB64ACBDFDC8005BD14184609","GBP","+443300538880","DC2N17GKP43397_A1","","","","","","AddonDC2N17GKP43397_A1","SIP to Mobile AYCE","72000000","",""
"V","0","DC2N17GKP43397_A1","+447951077468","06/06/2017","09:46:26","30","","","UK Mobile T Mobile","UKNFM3","1","0.000000","","","","","SIPD","Gamma","","","","","3194","","","","","CE9A93FCF7CF6D4731BD7E2495EBC0C80","GBP","+443300538880","DC2N17GKP43397_A1","","","","","","AddonDC2N17GKP43397_A1","SIP to Mobile AYCE","72000000","",""
"G","0","DC2N17GKP43397_A1","+44160676600","06/06/2017","10:35:12","75","","","UK NORTHWICH","UKN","1","0.000000","","","","","SIPD","Gamma","","","","","3194","","","","","C5BBBE86BFB802B45EA19FA14E94F2473","GBP","+443300538880","DC2N17GKP43397_A1","","","","","","","","","",""
"G","0","DC2N17GKP43397_A1","+441205461594","06/06/2017","10:40:43","23","","","UK BOSTON","UKN","1","0.000000","","","","","SIPD","Gamma","","","","","3194","","","","","CDA7B21F30317DFE46E8B62648B48766F","GBP","+443300538880","DC2N17GKP43397_A1","","","","","","","","","",""
"G","0","DC2N17COP40785_A1","+441256788333","06/06/2017","10:44:04","631","","","UK BASINGSTOKE","UKN","1","0.000000","","","","","SIPD","Gamma","","","","","3194","","","","","CE9D6D28ACC5D0ADFF0269AA83CD13C67","GBP","+443332026365","DC2N17COP40785_A1","","","","","","","","","",""
"G","0","DC2N17GKP43397_A1","+441506444255","06/06/2017","10:49:05","62","","","UK BATHGATE","UKN","1","0.000000","","","","","SIPD","Gamma","","","","","3194","","","","","C6C4BF5D4D0B17EE8604C42CFBCAA4125","GBP","+443300538880","DC2N17GKP43397_A1","","","","","","","","","",""
"G","0","DC2N17GKP43397_A1","+441617777422","06/06/2017","10:49:12","180","","","UK MANCHESTER","UKN","1","0.000000","","","","","SIPD","Gamma","","","","","3194","","","","","CB777C7251E270CF4151513043E5D7182","GBP","+443300538880","DC2N17GKP43397_A1","","","","","","","","","",""
"V","0","DC2N17GKP43397_A1","+447789886748","06/06/2017","10:51:54","188","","","UK Mobile Vodafone","UKNFM5","1","0.000000","","","","","SIPD","Gamma","","","","","3194","","","","","C4838C0ACCB957F290B2EF930C77BAFAD","GBP","+443300538880","DC2N17GKP43397_A1","","","","","","AddonDC2N17GKP43397_A1","SIP to Mobile AYCE","72000000","",""
"G","0","DC2N17COP40785_A1","+441162515558","06/06/2017","11:02:56","305","","","UK LEICESTER","UKN","1","0.000000","","","","","SIPD","Gamma","","","","","3194","","","","","CF878ECD35E8558AC13DFF7B815D491E2","GBP","+443332026365","DC2N17COP40785_A1","","","","","","","","","",""
"G","0","DC2N17GKP43397_A1","+44138641411","06/06/2017","11:06:34","126","","","UK EVESHAM","UKN","1","0.000000","","","","","SIPD","Gamma","","","","","3194","","","","","CBEABAFD8D317965341909C22083679DE","GBP","+443300538880","DC2N17GKP43397_A1","","","","","","","","","",""
"V","0","DC2N17GKP43397_A1","+447903525815","06/06/2017","11:07:04","6","","","UK Mobile T Mobile","UKNFM3","1","0.000000","","","","","SIPD","Gamma","","","","","3194","","","","","CCF2CB2368539CD4FFA1C9EA8A2BA2FBD","GBP","+443300538880","DC2N17GKP43397_A1","","","","","","AddonDC2N17GKP43397_A1","SIP to Mobile AYCE","72000000","",""
"V","0","DC2N17GKP43397_A1","+447903525815","06/06/2017","11:08:52","29","","","UK Mobile T Mobile","UKNFM3","1","0.000000","","","","","SIPD","Gamma","","","","","3194","","","","","C68608D10DDFAA84818E1AF6001A6B838","GBP","+443300538880","DC2N17GKP43397_A1","","","","","","AddonDC2N17GKP43397_A1","SIP to Mobile AYCE","72000000","",""
"G","0","DC2N17GKP43397_A1","+441757633916","06/06/2017","11:13:30","34","","","UK SELBY","UKN","1","0.000000","","","","","SIPD","Gamma","","","","","3194","","","","","CB580E10F1F5A16F5D202D40B71429050","GBP","+443300538880","DC2N17GKP43397_A1","","","","","","","","","",""
"G","0","DC2N17COP40785_A1","+441772336944","06/06/2017","11:33:41","4","","","UK PRESTON","UKN","1","0.000000","","","","","SIPD","Gamma","","","","","3194","","","","","C3AB0BEB3DBB0146149214126CCBC93C9","GBP","+443332026365","DC2N17COP40785_A1","","","","","","","","","",""
"G","0","DC2N17COP40785_A1","+441772336944","06/06/2017","11:35:26","1502","","","UK PRESTON","UKN","1","0.000000","","","","","SIPD","Gamma","","","","","3194","","","","","C36DD4550315E855ACD36F38747F64A39","GBP","+443332026365","DC2N17COP40785_A1","","","","","","","","","",""
"G","0","DC2N17COP40785_A1","+441162776363","06/06/2017","12:00:45","95","","","UK LEICESTER","UKN","1","0.000000","","","","","SIPD","Gamma","","","","","3194","","","","","C4CCB651CDE5FF69450AFBF385061CB70","GBP","+443332026365","DC2N17COP40785_A1","","","","","","","","","",""
"G","0","DC2N17GKP43397_A1","+442477671646","06/06/2017","12:32:34","102","","","UK COVENTRY","UKN","1","0.000000","","","","","SIPD","Gamma","","","","","3194","","","","","CB5FEE428843AC36CF1947823E8406396","GBP","+443300538880","DC2N17GKP43397_A1","","","","","","","","","",""
"G","0","DC2N17COP40785_A1","+442380558923","06/06/2017","12:34:18","121","","","UK SOUTHAMPTON","UKN","1","0.000000","","","","","SIPD","Gamma","","","","","3194","","","","","C2304B8AD1DB67D0526430CD6EE9F7311","GBP","+443332026365","DC2N17COP40785_A1","","","","","","","","","",""
"G","0","DC2N17COP40785_A1","+441162776363","06/06/2017","13:12:26","47","","","UK LEICESTER","UKN","1","0.000000","","","","","SIPD","Gamma","","","","","3194","","","","","C9F26343A7F90DA7466888498C25B1779","GBP","+443332026365","DC2N17COP40785_A1","","","","","","","","","",""
"G","0","DC2N17GKP43397_A1","+441270626162","06/06/2017","13:13:49","214","","","UK CREWE","UKN","1","0.000000","","","","","SIPD","Gamma","","","","","3194","","","","","C97CFCEBB0E88AB06666251BD8012C6F3","GBP","+443300538880","DC2N17GKP43397_A1","","","","","","","","","",""
"G","0","DC2N17GKP43397_A1","+441217429123","06/06/2017","14:32:36","31","","","UK BIRMINGHAM","UKN","1","0.000000","","","","","SIPD","Gamma","","","","","3194","","","","","C4B19C21DAB00128CF5852FAA6AA97195","GBP","+443300538880","DC2N17GKP43397_A1","","","","","","","","","",""
"G","0","DC2N17GKP43397_A1","+441752710575","06/06/2017","14:37:14","95","","","UK PLYMOUTH","UKN","1","0.000000","","","","","SIPD","Gamma","","","","","3194","","","","","C21F20BE7F17D4A475FCC6788FBE81102","GBP","+443300538880","DC2N17GKP43397_A1","","","","","","","","","",""
"G","0","DC2N17GKP43397_A1","+441618862903","06/06/2017","14:41:47","114","","","UK MANCHESTER","UKN","1","0.000000","","","","","SIPD","Gamma","","","","","3194","","","","","CBEA16BD4394D8B15915759C01FFC8083","GBP","+443300538880","DC2N17GKP43397_A1","","","","","","","","","",""
"G","0","DC2N17GKP43397_A1","+441943813345","06/06/2017","14:44:07","173","","","UK GUISELEY","UKN","1","0.000000","","","","","SIPD","Gamma","","","","","3194","","","","","C616B95FE710B992085E07689CD5A5E7F","GBP","+443300538880","DC2N17GKP43397_A1","","","","","","","","","",""
"G","0","DC2N17COP40785_A1","+441162776363","06/06/2017","15:10:19","801","","","UK LEICESTER","UKN","1","0.000000","","","","","SIPD","Gamma","","","","","3194","","","","","C8D8FE3FE0481E9859F467B4790906ECA","GBP","+443332026365","DC2N17COP40785_A1","","","","","","","","","",""
"G","0","DC2N17GKP43397_A1","+442920886500","06/06/2017","15:52:18","352","","","UK CARDIFF","UKN","1","0.000000","","","","","SIPD","Gamma","","","","","3194","","","","","C6A4DE97155383BE2C775E04A7021AEA5","GBP","+443300538880","DC2N17GKP43397_A1","","","","","","","","","",""
"V","0","DC2N17GKP43397_A1","+447495722011","06/06/2017","15:58:25","210","","","UK Mobile T Mobile","UKNFM3","1","0.000000","","","","","SIPD","Gamma","","","","","3194","","","","","CD0A02969A8529078489B6B05BF99CD32","GBP","+443300538880","DC2N17GKP43397_A1","","","","","","AddonDC2N17GKP43397_A1","SIP to Mobile AYCE","72000000","",""
"V","0","DC2N17GKP43397_A1","+447557339201","06/06/2017","16:26:37","8","","","UK Mobile Vodafone","UKNFM5","1","0.000000","","","","","SIPD","Gamma","","","","","3194","","","","","C2A911919154F9E6A4AD110D3469C446A","GBP","+443300538880","DC2N17GKP43397_A1","","","","","","AddonDC2N17GKP43397_A1","SIP to Mobile AYCE","72000000","",""
"G","0","DC2N17COP40785_A1","+441162044920","06/06/2017","16:43:26","105","","","UK LEICESTER","UKN","1","0.000000","","","","","SIPD","Gamma","","","","","3194","","","","","C57A8BCE93B6EC4713BBA93BC0B0F126A","GBP","+443332026365","DC2N17COP40785_A1","","","","","","","","","",""
"G","0","DC2N17COP40785_A1","+441256788333","06/06/2017","16:56:39","97","","","UK BASINGSTOKE","UKN","1","0.000000","","","","","SIPD","Gamma","","","","","3194","","","","","CAA171B7F9FE0E079BBDD85CC51A9762F","GBP","+443332026365","DC2N17COP40785_A1","","","","","","","","","",""
