"Call Type","Call Cause Definition Required","Customer Identifier","Non-Charged Party","Call Date","Call Time","Duration","Bytes Transmitted","Bytes Received","Description","Chargecode","Time Band","Salesprice","Salesprice (Pre-Bundle)","Extension","DDI","Grouping ID","Call Class (Feature)","Carrier","Recording","VAT","Country of Origin","Network","Retail Tariff Code","Remote Network","APN","Diverted Number","Ring time","Record ID","Currency","Caller Line Identity","Network Access Reference","NGCS Access Charge","NGCS Service Charge","Total Bytes Transferred","User ID","Onward Billing Reference","Contract Name","Bundle Name","Bundle Allowance","Discount Reference","Routing Code"
"G","0","DC2N17GKP43397_A1","+441270625310","22/09/2017","09:11:04","48","","","UK CREWE","UKN","1","0.000000","","","","","SIPD","Gamma","","","","","3194","","","","","CFB7F0D6B7C9C4F0DA485A2B24C321BB2","GBP","+443300538880","DC2N17GKP43397_A1","","","","","","","","","",""
"V","0","DC2N17GKP43397_A1","+447487695173","22/09/2017","09:36:23","14","","","UK Mobile Orange","UKNFM4","1","0.000000","","","","","SIPD","Gamma","","","","","3194","","","","","C27F3F7535354F77825A5B61B62558ADC","GBP","+443300538880","DC2N17GKP43397_A1","","","","","","AddonDC2N17GKP43397_A1","SIP to Mobile AYCE","72000000","",""
"V","0","DC2N17GKP43397_A1","+447741267127","22/09/2017","09:38:52","67","","","UK Mobile Vodafone","UKNFM5","1","0.000000","","","","","SIPD","Gamma","","","","","3194","","","","","CBD346CB54C42675AE11C55589CDC85C3","GBP","+443300538880","DC2N17GKP43397_A1","","","","","","AddonDC2N17GKP43397_A1","SIP to Mobile AYCE","72000000","",""
"V","0","DC2N17GKP43397_A1","+447738354279","22/09/2017","09:40:51","402","","","UK Mobile O2","UKNFM1","1","0.000000","","","","","SIPD","Gamma","","","","","3194","","","","","C322FD3EAB1AE60C937BB9F08B578E2B5","GBP","+443300538880","DC2N17GKP43397_A1","","","","","","AddonDC2N17GKP43397_A1","SIP to Mobile AYCE","72000000","",""
"G","0","DC2N17GKP43397_A1","+441293851459","22/09/2017","09:41:24","88","","","UK CRAWLEY","UKN","1","0.000000","","","","","SIPD","Gamma","","","","","3194","","","","","CE3D6012D92C6D28E1266A749EEE09C5A","GBP","+443300538880","DC2N17GKP43397_A1","","","","","","","","","",""
"V","0","DC2N17GKP43397_A1","+447812039917","22/09/2017","09:49:37","15","","","UK Mobile T Mobile","UKNFM3","1","0.000000","","","","","SIPD","Gamma","","","","","3194","","","","","C2E48C389DA83ABEB4CE1ADD3C334A5CA","GBP","+443300538880","DC2N17GKP43397_A1","","","","","","AddonDC2N17GKP43397_A1","SIP to Mobile AYCE","72000000","",""
"G","0","DC2N17GKP43397_A1","+441782381340","22/09/2017","10:00:12","104","","","UK STOKE-ON-TRENT","UKN","1","0.000000","","","","","SIPD","Gamma","","","","","3194","","","","","C54D10EE436861CD8AE2B2157A2A248CF","GBP","+443300538880","DC2N17GKP43397_A1","","","","","","","","","",""
"V","0","DC2N17GKP43397_A1","+447741267127","22/09/2017","10:09:55","71","","","UK Mobile Vodafone","UKNFM5","1","0.000000","","","","","SIPD","Gamma","","","","","3194","","","","","CA1E68985D12F627823D81CE74DEE2508","GBP","+443300538880","DC2N17GKP43397_A1","","","","","","AddonDC2N17GKP43397_A1","SIP to Mobile AYCE","72000000","",""
"G","0","DC2N17GKP43397_A1","+441753588556","22/09/2017","10:25:26","39","","","UK SLOUGH","UKN","1","0.000000","","","","","SIPD","Gamma","","","","","3194","","","","","C4B8CB7FA118A0FE93887F4441660B586","GBP","+443300538880","DC2N17GKP43397_A1","","","","","","","","","",""
"G","0","DC2N17COP40785_A1","+441159442829","22/09/2017","10:28:46","92","","","UK NOTTINGHAM","UKN","1","0.000000","","","","","SIPD","Gamma","","","","","3194","","","","","C79871FE560FF9AB4B3EDE03163AF1F53","GBP","+443332026365","DC2N17COP40785_A1","","","","","","","","","",""
"V","0","DC2N17GKP43397_A1","+447741267127","22/09/2017","10:32:11","97","","","UK Mobile Vodafone","UKNFM5","1","0.000000","","","","","SIPD","Gamma","","","","","3194","","","","","C3213EC7F9FD37BE6E4217210F6CDD215","GBP","+443300538880","DC2N17GKP43397_A1","","","","","","AddonDC2N17GKP43397_A1","SIP to Mobile AYCE","72000000","",""
"G","0","DC2N17GKP43397_A1","+441446775012","22/09/2017","10:36:16","162","","","UK BARRY","UKN","1","0.000000","","","","","SIPD","Gamma","","","","","3194","","","","","C6BDD3D2A852829D38AC3DFF9990E35EB","GBP","+443300538880","DC2N17GKP43397_A1","","","","","","","","","",""
"V","0","DC2N17GKP43397_A1","+447487695173","22/09/2017","10:46:29","73","","","UK Mobile Orange","UKNFM4","1","0.000000","","","","","SIPD","Gamma","","","","","3194","","","","","CAD8F0D28827FA695F5DFF1B8D505866C","GBP","+443300538880","DC2N17GKP43397_A1","","","","","","AddonDC2N17GKP43397_A1","SIP to Mobile AYCE","72000000","",""
"V","0","DC2N17COP40785_A1","+448081891443","22/09/2017","10:54:23","12","","","UK Freephone","UKNFPH","1","0.000000","","","","","SIPD","Gamma","","","","","3194","","","","","C8475CFFB8044EC49090F4FCC42CEC59D","GBP","+443332026365","DC2N17COP40785_A1","","","","","","","","","",""
"G","0","DC2N17COP40785_A1","+441159442829","22/09/2017","10:56:29","114","","","UK NOTTINGHAM","UKN","1","0.000000","","","","","SIPD","Gamma","","","","","3194","","","","","C3D3989F14A43C0A3BDDE97F10736BCC9","GBP","+443332026365","DC2N17COP40785_A1","","","","","","","","","",""
"V","0","DC2N17GKP43397_A1","+447889247908","22/09/2017","11:06:23","56","","","UK Mobile O2","UKNFM1","1","0.000000","","","","","SIPD","Gamma","","","","","3194","","","","","C136E4793DABC00B3BC8271E359D0533A","GBP","+443300538880","DC2N17GKP43397_A1","","","","","","AddonDC2N17GKP43397_A1","SIP to Mobile AYCE","72000000","",""
"G","0","DC2N17COP40785_A1","+441159442829","22/09/2017","11:20:28","213","","","UK NOTTINGHAM","UKN","1","0.000000","","","","","SIPD","Gamma","","","","","3194","","","","","C1108AA1FAC5611DD11DA53116BDA1024","GBP","+443332026365","DC2N17COP40785_A1","","","","","","","","","",""
"G","0","DC2N17GKP43397_A1","+441782381340","22/09/2017","11:20:33","142","","","UK STOKE-ON-TRENT","UKN","1","0.000000","","","","","SIPD","Gamma","","","","","3194","","","","","C2608F1C82C2CC6E5541A0C1320EF5C55","GBP","+443300538880","DC2N17GKP43397_A1","","","","","","","","","",""
"G","0","DC2N17GKP43397_A1","+441516019982","22/09/2017","11:27:44","89","","","UK LIVERPOOL","UKN","1","0.000000","","","","","SIPD","Gamma","","","","","3194","","","","","CD670D5B3CEF7ED01BFC096502242E49A","GBP","+443300538880","DC2N17GKP43397_A1","","","","","","","","","",""
"G","0","DC2N17GKP43397_A1","+441782381340","22/09/2017","11:29:24","30","","","UK STOKE-ON-TRENT","UKN","1","0.000000","","","","","SIPD","Gamma","","","","","3194","","","","","CA18A7B680410CF846240BA9C9C7CFDB1","GBP","+443300538880","DC2N17GKP43397_A1","","","","","","","","","",""
"G","0","DC2N17GKP43397_A1","+441234227788","22/09/2017","11:40:51","131","","","UK BEDFORD","UKN","1","0.000000","","","","","SIPD","Gamma","","","","","3194","","","","","C031BC0613D0F8A0CC4F04010AEAE0516","GBP","+443300538880","DC2N17GKP43397_A1","","","","","","","","","",""
"G","0","DC2N17GKP43397_A1","+441284765453","22/09/2017","11:47:25","39","","","UK BURY ST EDMUNDS","UKN","1","0.000000","","","","","SIPD","Gamma","","","","","3194","","","","","CE65E4A793E19B1B46FE9AD5364C6C1C2","GBP","+443300538880","DC2N17GKP43397_A1","","","","","","","","","",""
"G","0","DC2N17COP40785_A1","+441159442829","22/09/2017","11:48:39","48","","","UK NOTTINGHAM","UKN","1","0.000000","","","","","SIPD","Gamma","","","","","3194","","","","","C76F74760F1D7B7CB1E8224EA917CEBFC","GBP","+443332026365","DC2N17COP40785_A1","","","","","","","","","",""
"G","0","DC2N17COP40785_A1","+441159442829","22/09/2017","13:14:22","95","","","UK NOTTINGHAM","UKN","1","0.000000","","","","","SIPD","Gamma","","","","","3194","","","","","C74CBD61B798B93972F77038D20A4EFB0","GBP","+443332026365","DC2N17COP40785_A1","","","","","","","","","",""
"G","0","DC2N17GKP43397_A1","+441782381340","22/09/2017","13:29:43","179","","","UK STOKE-ON-TRENT","UKN","1","0.000000","","","","","SIPD","Gamma","","","","","3194","","","","","CE4C7EB86C943CCC3A5EB2B259DC092BE","GBP","+443300538880","DC2N17GKP43397_A1","","","","","","","","","",""
"V","0","DC2N17COP40785_A1","+448701423062","22/09/2017","13:31:50","121","","","UK NGCS SC003 (2ppm)","UKNSC003","1","0.060000","","","","","SIPD","Gamma","","","","","3194","","","","","CCF2ED9EF3A117FEFB2A984117CEAD805","GBP","+443332026365","DC2N17COP40785_A1","0.026000","0.034000","","","","","","","",""
"V","0","DC2N17GKP43397_A1","+447970675692","22/09/2017","13:32:55","10","","","UK Mobile T Mobile","UKNFM3","1","0.000000","","","","","SIPD","Gamma","","","","","3194","","","","","CE7120EF61E9E1541E34C67C871A7186B","GBP","+443300538880","DC2N17GKP43397_A1","","","","","","AddonDC2N17GKP43397_A1","SIP to Mobile AYCE","72000000","",""
"V","0","DC2N17GKP43397_A1","+447971451933","22/09/2017","15:45:08","33","","","UK Mobile T Mobile","UKNFM3","1","0.000000","","","","","SIPD","Gamma","","","","","3194","","","","","C4E26A1FD3CC3B63489F3FE673D62FA2E","GBP","+443300538880","DC2N17GKP43397_A1","","","","","","AddonDC2N17GKP43397_A1","SIP to Mobile AYCE","72000000","",""
"V","0","DC2N17GKP43397_A1","+447971451933","22/09/2017","15:47:45","59","","","UK Mobile T Mobile","UKNFM3","1","0.000000","","","","","SIPD","Gamma","","","","","3194","","","","","CAB9D27269B32B6CE65738BBD7F54D5B4","GBP","+443300538880","DC2N17GKP43397_A1","","","","","","AddonDC2N17GKP43397_A1","SIP to Mobile AYCE","72000000","",""
"V","0","DC2N17GKP43397_A1","+447495722011","22/09/2017","16:15:43","27","","","UK Mobile T Mobile","UKNFM3","1","0.000000","","","","","SIPD","Gamma","","","","","3194","","","","","CC30900C4F3C1B125CDA11F67EB4C02DB","GBP","+443300538880","DC2N17GKP43397_A1","","","","","","AddonDC2N17GKP43397_A1","SIP to Mobile AYCE","72000000","",""
"V","0","DC2N17GKP43397_A1","+447943586163","22/09/2017","16:16:52","52","","","UK Mobile T Mobile","UKNFM3","1","0.000000","","","","","SIPD","Gamma","","","","","3194","","","","","C4527C36DA017E1992A08A27883B86FE9","GBP","+443300538880","DC2N17GKP43397_A1","","","","","","AddonDC2N17GKP43397_A1","SIP to Mobile AYCE","72000000","",""
"V","0","DC2N17GKP43397_A1","+447971451933","22/09/2017","16:26:58","54","","","UK Mobile T Mobile","UKNFM3","1","0.000000","","","","","SIPD","Gamma","","","","","3194","","","","","C4933AC7DEA43A8648083DD57ADA12A39","GBP","+443300538880","DC2N17GKP43397_A1","","","","","","AddonDC2N17GKP43397_A1","SIP to Mobile AYCE","72000000","",""
"V","0","DC2N17GKP43397_A1","+447557339201","22/09/2017","16:56:42","111","","","UK Mobile Vodafone","UKNFM5","1","0.000000","","","","","SIPD","Gamma","","","","","3194","","","","","CE932E958BEA4A8E27CE64328165BCDCD","GBP","+443300538880","DC2N17GKP43397_A1","","","","","","AddonDC2N17GKP43397_A1","SIP to Mobile AYCE","72000000","",""
