"Call Type","Call Cause Definition Required","Customer Identifier","Non-Charged Party","Call Date","Call Time","Duration","Bytes Transmitted","Bytes Received","Description","Chargecode","Time Band","Salesprice","Salesprice (Pre-Bundle)","Extension","DDI","Grouping ID","Call Class (Feature)","Carrier","Recording","VAT","Country of Origin","Network","Retail Tariff Code","Remote Network","APN","Diverted Number","Ring time","Record ID","Currency","Caller Line Identity","Network Access Reference","NGCS Access Charge","NGCS Service Charge","Total Bytes Transferred","User ID","Onward Billing Reference","Contract Name","Bundle Name","Bundle Allowance","Discount Reference","Routing Code"
"G","0","DC2N17GKP43397_A1","+441785218208","20/07/2017","08:56:58","108","","","UK STAFFORD","UKN","1","0.000000","","","","","SIPD","Gamma","","","","","3194","","","","","C85E64302056DFF24B52165C20640950B","GBP","+443300538880","DC2N17GKP43397_A1","","","","","","","","","",""
"G","0","DC2N17GKP43397_A1","+4412835230000","20/07/2017","09:30:20","97","","","UK BURTON ON TRENT","UKN","1","0.000000","","","","","SIPD","Gamma","","","","","3194","","","","","C5FACFD3CC59E961BD826925B6F31C9F5","GBP","+443300538880","DC2N17GKP43397_A1","","","","","","","","","",""
"V","0","DC2N17GKP43397_A1","+447487695173","20/07/2017","09:33:39","20","","","UK Mobile Orange","UKNFM4","1","0.000000","","","","","SIPD","Gamma","","","","","3194","","","","","C1770830F063C39CF80C4F39F37856544","GBP","+443300538880","DC2N17GKP43397_A1","","","","","","AddonDC2N17GKP43397_A1","SIP to Mobile AYCE","72000000","",""
"G","0","DC2N17GKP43397_A1","+441283523000","20/07/2017","09:34:10","131","","","UK BURTON ON TRENT","UKN","1","0.000000","","","","","SIPD","Gamma","","","","","3194","","","","","CD332234DDD336C10173627EC6A945AC5","GBP","+443300538880","DC2N17GKP43397_A1","","","","","","","","","",""
"V","0","DC2N17GKP43397_A1","+447557339201","20/07/2017","09:53:01","37","","","UK Mobile Vodafone","UKNFM5","1","0.000000","","","","","SIPD","Gamma","","","","","3194","","","","","CACCBCA0D8B7026099B5E78797E215006","GBP","+443300538880","DC2N17GKP43397_A1","","","","","","AddonDC2N17GKP43397_A1","SIP to Mobile AYCE","72000000","",""
"V","0","DC2N17GKP43397_A1","+447741267127","20/07/2017","09:54:42","126","","","UK Mobile Vodafone","UKNFM5","1","0.000000","","","","","SIPD","Gamma","","","","","3194","","","","","C2041467FFFDA99189DFA5B3E8B2DE700","GBP","+443300538880","DC2N17GKP43397_A1","","","","","","AddonDC2N17GKP43397_A1","SIP to Mobile AYCE","72000000","",""
"V","0","DC2N17GKP43397_A1","+447741267127","20/07/2017","09:58:19","76","","","UK Mobile Vodafone","UKNFM5","1","0.000000","","","","","SIPD","Gamma","","","","","3194","","","","","C4993BB2F083EDAD71219D142AE3C2AC7","GBP","+443300538880","DC2N17GKP43397_A1","","","","","","AddonDC2N17GKP43397_A1","SIP to Mobile AYCE","72000000","",""
"G","0","DC2N17GKP43397_A1","+441709578578","20/07/2017","11:26:52","36","","","UK ROTHERHAM","UKN","1","0.000000","","","","","SIPD","Gamma","","","","","3194","","","","","C97EB303783BBC5D7FF15DE265319AF10","GBP","+443300538880","DC2N17GKP43397_A1","","","","","","","","","",""
"G","0","DC2N17GKP43397_A1","+441614069967","20/07/2017","12:19:00","43","","","UK MANCHESTER","UKN","1","0.000000","","","","","SIPD","Gamma","","","","","3194","","","","","C7830541EB96B524CF25A23A10FB3AF87","GBP","+443300538880","DC2N17GKP43397_A1","","","","","","","","","",""
"G","0","DC2N17GKP43397_A1","+441600463008","20/07/2017","12:29:38","103","","","UK MONMOUTH","UKN","1","0.000000","","","","","SIPD","Gamma","","","","","3194","","","","","CE19B995CE8E8932A25D23F1FB98DE033","GBP","+443300538880","DC2N17GKP43397_A1","","","","","","","","","",""
"G","0","DC2N17GKP43397_A1","+441600463008","20/07/2017","12:32:37","107","","","UK MONMOUTH","UKN","1","0.000000","","","","","SIPD","Gamma","","","","","3194","","","","","C1A43ED4F7C705E7433550A1B23D0F2F9","GBP","+443300538880","DC2N17GKP43397_A1","","","","","","","","","",""
"G","0","DC2N17GKP43397_A1","+441785218208","20/07/2017","12:37:28","49","","","UK STAFFORD","UKN","1","0.000000","","","","","SIPD","Gamma","","","","","3194","","","","","CB14FF44F437A10CA7F2B706EB51A3F4F","GBP","+443300538880","DC2N17GKP43397_A1","","","","","","","","","",""
"V","0","DC2N17GKP43397_A1","+447980653118","20/07/2017","12:44:47","303","","","UK Mobile T Mobile","UKNFM3","1","0.000000","","","","","SIPD","Gamma","","","","","3194","","","","","CC6AB6FD02CD8CF0F2EFC7E75D8745091","GBP","+443300538880","DC2N17GKP43397_A1","","","","","","AddonDC2N17GKP43397_A1","SIP to Mobile AYCE","72000000","",""
"G","0","DC2N17GKP43397_A1","+441249812850","20/07/2017","13:19:17","119","","","UK CHIPPENHAM","UKN","1","0.000000","","","","","SIPD","Gamma","","","","","3194","","","","","C83835FA54BAE6CEC87EAA6A063BC1B1E","GBP","+443300538880","DC2N17GKP43397_A1","","","","","","","","","",""
"G","0","DC2N17GKP43397_A1","+441270626162","20/07/2017","13:21:27","182","","","UK CREWE","UKN","1","0.000000","","","","","SIPD","Gamma","","","","","3194","","","","","CBD13605AC05F72FF7E2747A27543EAC1","GBP","+443300538880","DC2N17GKP43397_A1","","","","","","","","","",""
"V","0","DC2N17GKP43397_A1","+447557339201","20/07/2017","13:24:00","121","","","UK Mobile Vodafone","UKNFM5","1","0.000000","","","","","SIPD","Gamma","","","","","3194","","","","","CE2DB0A4FD49F432B0BCBFC3A48DFD746","GBP","+443300538880","DC2N17GKP43397_A1","","","","","","AddonDC2N17GKP43397_A1","SIP to Mobile AYCE","72000000","",""
"V","0","DC2N17GKP43397_A1","+447831400870","20/07/2017","13:29:08","21","","","UK Mobile Vodafone","UKNFM5","1","0.000000","","","","","SIPD","Gamma","","","","","3194","","","","","CB01BA3A8FDBED7CFB02BC9695C0B2119","GBP","+443300538880","DC2N17GKP43397_A1","","","","","","AddonDC2N17GKP43397_A1","SIP to Mobile AYCE","72000000","",""
"G","0","DC2N17GKP43397_A1","+441630658138","20/07/2017","14:24:03","239","","","UK MARKET DRAYTON","UKN","1","0.000000","","","","","SIPD","Gamma","","","","","3194","","","","","C50189EFFDA5F23931A049177582320D5","GBP","+443300538880","DC2N17GKP43397_A1","","","","","","","","","",""
"G","0","DC2N17GKP43397_A1","+441480407074","20/07/2017","14:27:49","57","","","UK HUNTINGDON","UKN","1","0.000000","","","","","SIPD","Gamma","","","","","3194","","","","","C017E20928B637396F6FBD4CDC4260037","GBP","+443300538880","DC2N17GKP43397_A1","","","","","","","","","",""
"G","0","DC2N17GKP43397_A1","+441749340490","20/07/2017","14:42:55","26","","","UK SHEPTON MALLET","UKN","1","0.000000","","","","","SIPD","Gamma","","","","","3194","","","","","C9C59C8660C8A3984A89685F47DBFC5B0","GBP","+443300538880","DC2N17GKP43397_A1","","","","","","","","","",""
"V","0","DC2N17GKP43397_A1","+447809505499","20/07/2017","14:43:35","41","","","UK Mobile O2","UKNFM1","1","0.000000","","","","","SIPD","Gamma","","","","","3194","","","","","C52835F6776CBDBB69FC5E3CA6A3A612E","GBP","+443300538880","DC2N17GKP43397_A1","","","","","","AddonDC2N17GKP43397_A1","SIP to Mobile AYCE","72000000","",""
"G","0","DC2N17GKP43397_A1","+443452696650","20/07/2017","14:45:06","114","","","UK National Non Geographic","UKNNNG","1","0.000000","","","","","SIPD","Gamma","","","","","3194","","","","","CFD9CA00D9302CE10DDE3A788FB3B0197","GBP","+443300538880","DC2N17GKP43397_A1","","","","","","","","","",""
"G","0","DC2N17COP40785_A1","+441162515558","20/07/2017","14:57:50","245","","","UK LEICESTER","UKN","1","0.000000","","","","","SIPD","Gamma","","","","","3194","","","","","C5FDBDCEF3FC253725285F862F2630152","GBP","+443332026365","DC2N17COP40785_A1","","","","","","","","","",""
"V","0","DC2N17GKP43397_A1","+447971451933","20/07/2017","15:18:38","61","","","UK Mobile T Mobile","UKNFM3","1","0.000000","","","","","SIPD","Gamma","","","","","3194","","","","","CBFCD84DA74A26C90DAF778F977394DEC","GBP","+443300538880","DC2N17GKP43397_A1","","","","","","AddonDC2N17GKP43397_A1","SIP to Mobile AYCE","72000000","",""
"G","0","DC2N17GKP43397_A1","+441213277771","20/07/2017","15:20:56","37","","","UK BIRMINGHAM","UKN","1","0.000000","","","","","SIPD","Gamma","","","","","3194","","","","","C3B3DB59EADCAA5E728421567B5FEF623","GBP","+443300538880","DC2N17GKP43397_A1","","","","","","","","","",""
"V","0","DC2N17GKP43397_A1","+447971451933","20/07/2017","15:25:05","23","","","UK Mobile T Mobile","UKNFM3","1","0.000000","","","","","SIPD","Gamma","","","","","3194","","","","","C6E2CBB0697902857E9795E7496324555","GBP","+443300538880","DC2N17GKP43397_A1","","","","","","AddonDC2N17GKP43397_A1","SIP to Mobile AYCE","72000000","",""
"G","0","DC2N17GKP43397_A1","+441623655000","20/07/2017","15:27:14","42","","","UK MANSFIELD","UKN","1","0.000000","","","","","SIPD","Gamma","","","","","3194","","","","","C4A62945E58E66318A157269E3EAF2155","GBP","+443300538880","DC2N17GKP43397_A1","","","","","","","","","",""
"V","0","DC2N17GKP43397_A1","+447741267127","20/07/2017","15:29:20","84","","","UK Mobile Vodafone","UKNFM5","1","0.000000","","","","","SIPD","Gamma","","","","","3194","","","","","C2B30E66A37F511D08F86E27E9C6488FE","GBP","+443300538880","DC2N17GKP43397_A1","","","","","","AddonDC2N17GKP43397_A1","SIP to Mobile AYCE","72000000","",""
"V","0","DC2N17GKP43397_A1","+447487695173","20/07/2017","15:31:17","108","","","UK Mobile Orange","UKNFM4","1","0.000000","","","","","SIPD","Gamma","","","","","3194","","","","","C643E0D5A8AEF77EECEFF0763A74F7071","GBP","+443300538880","DC2N17GKP43397_A1","","","","","","AddonDC2N17GKP43397_A1","SIP to Mobile AYCE","72000000","",""
"V","0","DC2N17GKP43397_A1","+447741267127","20/07/2017","15:38:23","178","","","UK Mobile Vodafone","UKNFM5","1","0.000000","","","","","SIPD","Gamma","","","","","3194","","","","","CD7BE7DA02C0DB27EA5209393DC643BD3","GBP","+443300538880","DC2N17GKP43397_A1","","","","","","AddonDC2N17GKP43397_A1","SIP to Mobile AYCE","72000000","",""
"V","0","DC2N17GKP43397_A1","+447884585312","20/07/2017","15:50:48","181","","","UK Mobile Vodafone","UKNFM5","1","0.000000","","","","","SIPD","Gamma","","","","","3194","","","","","C6ACE06AFB8A91139B64C6AB04601459F","GBP","+443300538880","DC2N17GKP43397_A1","","","","","","AddonDC2N17GKP43397_A1","SIP to Mobile AYCE","72000000","",""
"V","0","DC2N17GKP43397_A1","+447557339201","20/07/2017","16:03:27","157","","","UK Mobile Vodafone","UKNFM5","1","0.000000","","","","","SIPD","Gamma","","","","","3194","","","","","C7630AC366589FCA3085D5D260CF568A3","GBP","+443300538880","DC2N17GKP43397_A1","","","","","","AddonDC2N17GKP43397_A1","SIP to Mobile AYCE","72000000","",""
"V","0","DC2N17GKP43397_A1","+447741267127","20/07/2017","16:31:08","165","","","UK Mobile Vodafone","UKNFM5","1","0.000000","","","","","SIPD","Gamma","","","","","3194","","","","","C9153A806B661A05F1D813CC4356E34F5","GBP","+443300538880","DC2N17GKP43397_A1","","","","","","AddonDC2N17GKP43397_A1","SIP to Mobile AYCE","72000000","",""
"V","0","DC2N17GKP43397_A1","+447557339201","20/07/2017","16:36:28","2","","","UK Mobile Vodafone","UKNFM5","1","0.000000","","","","","SIPD","Gamma","","","","","3194","","","","","C81CD0E7C439FCCF4A45689D9F818C1EE","GBP","+443300538880","DC2N17GKP43397_A1","","","","","","AddonDC2N17GKP43397_A1","SIP to Mobile AYCE","72000000","",""
"V","0","DC2N17GKP43397_A1","+447741267127","20/07/2017","16:37:49","4","","","UK Mobile Vodafone","UKNFM5","1","0.000000","","","","","SIPD","Gamma","","","","","3194","","","","","C032F69233014FBD4ECF151972918C584","GBP","+443300538880","DC2N17GKP43397_A1","","","","","","AddonDC2N17GKP43397_A1","SIP to Mobile AYCE","72000000","",""
