"Call Type","Call Cause Definition Required","Customer Identifier","Non-Charged Party","Call Date","Call Time","Duration","Bytes Transmitted","Bytes Received","Description","Chargecode","Time Band","Salesprice","Salesprice (Pre-Bundle)","Extension","DDI","Grouping ID","Call Class (Feature)","Carrier","Recording","VAT","Country of Origin","Network","Retail Tariff Code","Remote Network","APN","Diverted Number","Ring time","Record ID","Currency","Caller Line Identity","Network Access Reference","NGCS Access Charge","NGCS Service Charge","Total Bytes Transferred","User ID","Onward Billing Reference","Contract Name","Bundle Name","Bundle Allowance","Discount Reference","Routing Code"
"G","0","DC2N17GKP43397_A1","+441989762633","07/06/2017","09:03:33","107","","","UK ROSS-ON-WYE","UKN","1","0.000000","","","","","SIPD","Gamma","","","","","3194","","","","","CF0F50C86BAAC197DB5304C62B4B2E825","GBP","+443300538880","DC2N17GKP43397_A1","","","","","","","","","",""
"V","0","DC2N17GKP43397_A1","+447557339201","07/06/2017","09:13:22","17","","","UK Mobile Vodafone","UKNFM5","1","0.000000","","","","","SIPD","Gamma","","","","","3194","","","","","C9A8F644E96F26C67E364B8C671933D47","GBP","+443300538880","DC2N17GKP43397_A1","","","","","","AddonDC2N17GKP43397_A1","SIP to Mobile AYCE","72000000","",""
"G","0","DC2N17GKP43397_A1","+441743461452","07/06/2017","09:29:24","6","","","UK SHREWSBURY","UKN","1","0.000000","","","","","SIPD","Gamma","","","","","3194","","","","","C31CC9FEDDCF847AB30B549D422BEFFAD","GBP","+443300538880","DC2N17GKP43397_A1","","","","","","","","","",""
"V","0","DC2N17GKP43397_A1","+447495722011","07/06/2017","09:51:11","101","","","UK Mobile T Mobile","UKNFM3","1","0.000000","","","","","SIPD","Gamma","","","","","3194","","","","","C26865DA3F2E1D278C17B4F86823581DD","GBP","+443300538880","DC2N17GKP43397_A1","","","","","","AddonDC2N17GKP43397_A1","SIP to Mobile AYCE","72000000","",""
"G","0","DC2N17GKP43397_A1","+441743461452","07/06/2017","10:05:28","38","","","UK SHREWSBURY","UKN","1","0.000000","","","","","SIPD","Gamma","","","","","3194","","","","","CE605BDB794F6540465386C2B93FDD031","GBP","+443300538880","DC2N17GKP43397_A1","","","","","","","","","",""
"G","0","DC2N17GKP43397_A1","+441427838020","07/06/2017","10:07:56","50","","","UK GAINSBOROUGH","UKN","1","0.000000","","","","","SIPD","Gamma","","","","","3194","","","","","C32004D96EEF57947D5EA81FFA0657827","GBP","+443300538880","DC2N17GKP43397_A1","","","","","","","","","",""
"G","0","DC2N17GKP43397_A1","+441273204466","07/06/2017","10:16:23","30","","","UK BRIGHTON","UKN","1","0.000000","","","","","SIPD","Gamma","","","","","3194","","","","","C27A963580FF5F8332367638B403D74EC","GBP","+443300538880","DC2N17GKP43397_A1","","","","","","","","","",""
"G","0","DC2N17GKP43397_A1","+441217429123","07/06/2017","10:20:05","24","","","UK BIRMINGHAM","UKN","1","0.000000","","","","","SIPD","Gamma","","","","","3194","","","","","C3829F1905197AB08AB2C6D03056FB5A2","GBP","+443300538880","DC2N17GKP43397_A1","","","","","","","","","",""
"V","0","DC2N17GKP43397_A1","+447825123916","07/06/2017","10:20:12","15","","","UK Mobile Vodafone","UKNFM5","1","0.000000","","","","","SIPD","Gamma","","","","","3194","","","","","C9D577C5231B818BA70DB140B05FF9F11","GBP","+443300538880","DC2N17GKP43397_A1","","","","","","AddonDC2N17GKP43397_A1","SIP to Mobile AYCE","72000000","",""
"G","0","DC2N17GKP43397_A1","+441743718003","07/06/2017","10:25:49","69","","","UK SHREWSBURY","UKN","1","0.000000","","","","","SIPD","Gamma","","","","","3194","","","","","CA63D6FC34DEB65C5D23F8E04A3263582","GBP","+443300538880","DC2N17GKP43397_A1","","","","","","","","","",""
"G","0","DC2N17GKP43397_A1","+441743461452","07/06/2017","10:39:07","112","","","UK SHREWSBURY","UKN","1","0.000000","","","","","SIPD","Gamma","","","","","3194","","","","","C9801B5FEA3094E8E2B844F4DD572FB6A","GBP","+443300538880","DC2N17GKP43397_A1","","","","","","","","","",""
"G","0","DC2N17GKP43397_A1","+441889272180","07/06/2017","10:41:21","189","","","UK RUGELY","UKN","1","0.000000","","","","","SIPD","Gamma","","","","","3194","","","","","C3DC57B737B47938C3177CC1442957146","GBP","+443300538880","DC2N17GKP43397_A1","","","","","","","","","",""
"G","0","DC2N17GKP43397_A1","+441963363123","07/06/2017","10:47:13","224","","","UK WINCANTON","UKN","1","0.000000","","","","","SIPD","Gamma","","","","","3194","","","","","C46AF90030F4A81EF2E3772BA83387D90","GBP","+443300538880","DC2N17GKP43397_A1","","","","","","","","","",""
"G","0","DC2N17GKP43397_A1","+441889272180","07/06/2017","10:55:40","56","","","UK RUGELY","UKN","1","0.000000","","","","","SIPD","Gamma","","","","","3194","","","","","CAEADC4DAE8DF0984D5803AD4C5E2B6EA","GBP","+443300538880","DC2N17GKP43397_A1","","","","","","","","","",""
"G","0","DC2N17GKP43397_A1","+441963363123","07/06/2017","11:00:37","75","","","UK WINCANTON","UKN","1","0.000000","","","","","SIPD","Gamma","","","","","3194","","","","","C00234FFAB37E05C8F3FA08AD0617F7B5","GBP","+443300538880","DC2N17GKP43397_A1","","","","","","","","","",""
"G","0","DC2N17GKP43397_A1","+441617777423","07/06/2017","11:11:19","159","","","UK MANCHESTER","UKN","1","0.000000","","","","","SIPD","Gamma","","","","","3194","","","","","C764BFF90784B77930E8F3CC6E4DE6462","GBP","+443300538880","DC2N17GKP43397_A1","","","","","","","","","",""
"G","0","DC2N17GKP43397_A1","+442477671646","07/06/2017","11:16:24","156","","","UK COVENTRY","UKN","1","0.000000","","","","","SIPD","Gamma","","","","","3194","","","","","C131B02D240C2828C4918C9E9C455F9D2","GBP","+443300538880","DC2N17GKP43397_A1","","","","","","","","","",""
"V","0","DC2N17GKP43397_A1","+447825123916","07/06/2017","11:22:42","17","","","UK Mobile Vodafone","UKNFM5","1","0.000000","","","","","SIPD","Gamma","","","","","3194","","","","","CD4021F4EE8C373A0A430B4F25B4967BA","GBP","+443300538880","DC2N17GKP43397_A1","","","","","","AddonDC2N17GKP43397_A1","SIP to Mobile AYCE","72000000","",""
"V","0","DC2N17GKP43397_A1","+447973754941","07/06/2017","11:24:13","139","","","UK Mobile T Mobile","UKNFM3","1","0.000000","","","","","SIPD","Gamma","","","","","3194","","","","","CDEBA15A983F385B671D2AB674F87845A","GBP","+443300538880","DC2N17GKP43397_A1","","","","","","AddonDC2N17GKP43397_A1","SIP to Mobile AYCE","72000000","",""
"G","0","DC2N17GKP43397_A1","+441244289527","07/06/2017","11:29:38","124","","","UK CHESTER","UKN","1","0.000000","","","","","SIPD","Gamma","","","","","3194","","","","","CCF6250AD1BB4C6599CAE9E50670A2D90","GBP","+443300538880","DC2N17GKP43397_A1","","","","","","","","","",""
"G","0","DC2N17GKP43397_A1","+441889272185","07/06/2017","11:34:26","14","","","UK RUGELY","UKN","1","0.000000","","","","","SIPD","Gamma","","","","","3194","","","","","CCB9AAA92C83B7054131BC9EF725F796E","GBP","+443300538880","DC2N17GKP43397_A1","","","","","","","","","",""
"G","0","DC2N17GKP43397_A1","+441782410410","07/06/2017","11:50:24","84","","","UK STOKE-ON-TRENT","UKN","1","0.000000","","","","","SIPD","Gamma","","","","","3194","","","","","C2FC4DA8C6E7BDD39954B2FCFF375601C","GBP","+443300538880","DC2N17GKP43397_A1","","","","","","","","","",""
"V","0","DC2N17GKP43397_A1","+447825123916","07/06/2017","12:31:26","99","","","UK Mobile Vodafone","UKNFM5","1","0.000000","","","","","SIPD","Gamma","","","","","3194","","","","","C518C82ACA31C5C7B5FB14CEB8893D942","GBP","+443300538880","DC2N17GKP43397_A1","","","","","","AddonDC2N17GKP43397_A1","SIP to Mobile AYCE","72000000","",""
"V","0","DC2N17GKP43397_A1","+448442810101","07/06/2017","13:32:33","16","","","UK NGCS SC004 (3ppm)","UKNSC004","1","0.011000","","","","","SIPD","Gamma","","","","","3194","","","","","C90906AB4AC4083C75183216C1B95CA84","GBP","+443300538880","DC2N17GKP43397_A1","0.004000","0.007000","","","","","","","",""
"G","0","DC2N17GKP43397_A1","+443442810101","07/06/2017","13:33:01","401","","","UK National Non Geographic","UKNNNG","1","0.000000","","","","","SIPD","Gamma","","","","","3194","","","","","C1DEF7244B2814BA1C3436E0596351132","GBP","+443300538880","DC2N17GKP43397_A1","","","","","","","","","",""
"G","0","DC2N17GKP43397_A1","+441743718003","07/06/2017","13:45:26","40","","","UK SHREWSBURY","UKN","1","0.000000","","","","","SIPD","Gamma","","","","","3194","","","","","CA6F78C3ED9E902CF1A1F53780122B9BE","GBP","+443300538880","DC2N17GKP43397_A1","","","","","","","","","",""
"G","0","DC2N17GKP43397_A1","+441743718003","07/06/2017","13:48:40","55","","","UK SHREWSBURY","UKN","1","0.000000","","","","","SIPD","Gamma","","","","","3194","","","","","C5D3D469F8EA42A34A7CFBC6D17F85D4E","GBP","+443300538880","DC2N17GKP43397_A1","","","","","","","","","",""
"G","0","DC2N17GKP43397_A1","+441743718003","07/06/2017","14:04:54","63","","","UK SHREWSBURY","UKN","1","0.000000","","","","","SIPD","Gamma","","","","","3194","","","","","C2824029CB00695319E7386FAA521E236","GBP","+443300538880","DC2N17GKP43397_A1","","","","","","","","","",""
"G","0","DC2N17GKP43397_A1","+441217429123","07/06/2017","14:09:13","18","","","UK BIRMINGHAM","UKN","1","0.000000","","","","","SIPD","Gamma","","","","","3194","","","","","CF1A83FA3C663F8EA9E739D3B777D25A1","GBP","+443300538880","DC2N17GKP43397_A1","","","","","","","","","",""
"G","0","DC2N17GKP43397_A1","+441463870057","07/06/2017","14:21:49","651","","","UK INVERNESS","UKN","1","0.000000","","","","","SIPD","Gamma","","","","","3194","","","","","C0F4563EBFBEFF955E6ACCE6B56C7E0F4","GBP","+443300538880","DC2N17GKP43397_A1","","","","","","","","","",""
"G","0","DC2N17GKP43397_A1","+441617777423","07/06/2017","14:30:18","44","","","UK MANCHESTER","UKN","1","0.000000","","","","","SIPD","Gamma","","","","","3194","","","","","C1EA4926A7072DDE8B3519B4DFA94CE7D","GBP","+443300538880","DC2N17GKP43397_A1","","","","","","","","","",""
"G","0","DC2N17GKP43397_A1","+441743718003","07/06/2017","14:33:10","50","","","UK SHREWSBURY","UKN","1","0.000000","","","","","SIPD","Gamma","","","","","3194","","","","","C29B115775F1D4FCF562F16869EC3FCA0","GBP","+443300538880","DC2N17GKP43397_A1","","","","","","","","","",""
"G","0","DC2N17GKP43397_A1","+441743461452","07/06/2017","15:24:08","5","","","UK SHREWSBURY","UKN","1","0.000000","","","","","SIPD","Gamma","","","","","3194","","","","","C4AF7660D2047C52F9810BDF3E8224575","GBP","+443300538880","DC2N17GKP43397_A1","","","","","","","","","",""
"G","0","DC2N17GKP43397_A1","+44138641411","07/06/2017","16:29:55","142","","","UK EVESHAM","UKN","1","0.000000","","","","","SIPD","Gamma","","","","","3194","","","","","CE8511207DFEA66C43CC72E589FA4FF3A","GBP","+443300538880","DC2N17GKP43397_A1","","","","","","","","","",""
"V","0","DC2N17GKP43397_A1","+447741267127","07/06/2017","16:53:48","33","","","UK Mobile Vodafone","UKNFM5","1","0.000000","","","","","SIPD","Gamma","","","","","3194","","","","","C6A40E3591BE960E1B5ADB1A6E5A073DE","GBP","+443300538880","DC2N17GKP43397_A1","","","","","","AddonDC2N17GKP43397_A1","SIP to Mobile AYCE","72000000","",""
"V","0","DC2N17GKP43397_A1","+447741267127","07/06/2017","16:56:26","162","","","UK Mobile Vodafone","UKNFM5","1","0.000000","","","","","SIPD","Gamma","","","","","3194","","","","","C9370017DF086A0FFEB419C7902B019BD","GBP","+443300538880","DC2N17GKP43397_A1","","","","","","AddonDC2N17GKP43397_A1","SIP to Mobile AYCE","72000000","",""
