"Call Type","Call Cause Definition Required","Customer Identifier","Non-Charged Party","Call Date","Call Time","Duration","Bytes Transmitted","Bytes Received","Description","Chargecode","Time Band","Salesprice","Salesprice (Pre-Bundle)","Extension","DDI","Grouping ID","Call Class (Feature)","Carrier","Recording","VAT","Country of Origin","Network","Retail Tariff Code","Remote Network","APN","Diverted Number","Ring time","Record ID","Currency","Caller Line Identity","Network Access Reference","NGCS Access Charge","NGCS Service Charge","Total Bytes Transferred","User ID","Onward Billing Reference","Contract Name","Bundle Name","Bundle Allowance","Discount Reference","Routing Code"
"V","0","DC2N17GKP43397_A1","+447487695173","30/06/2017","08:44:17","10","","","UK Mobile Orange","UKNFM4","1","0.000000","","","","","SIPD","Gamma","","","","","3194","","","","","CD215AE9BADE275F2CDCAC5A036361B69","GBP","+443300538880","DC2N17GKP43397_A1","","","","","","AddonDC2N17GKP43397_A1","SIP to Mobile AYCE","72000000","",""
"V","0","DC2N17GKP43397_A1","+447557339201","30/06/2017","08:51:14","93","","","UK Mobile Vodafone","UKNFM5","1","0.000000","","","","","SIPD","Gamma","","","","","3194","","","","","C28C39AB42EEB9D41C20C2315D580F1DA","GBP","+443300538880","DC2N17GKP43397_A1","","","","","","AddonDC2N17GKP43397_A1","SIP to Mobile AYCE","72000000","",""
"G","0","DC2N17GKP43397_A1","+441782381340","30/06/2017","09:10:33","73","","","UK STOKE-ON-TRENT","UKN","1","0.000000","","","","","SIPD","Gamma","","","","","3194","","","","","CC4BE290C135E99A7BD1BFE5469DC33B1","GBP","+443300538880","DC2N17GKP43397_A1","","","","","","","","","",""
"V","0","DC2N17COP40785_A1","+447900500640","30/06/2017","09:12:00","43","","","UK Mobile Vodafone","UKNFM5","1","0.000000","","","","","SIPD","Gamma","","","","","3194","","","","","C39C2F398DAC3BE3D3519A5F21CD9A455","GBP","+443332026365","DC2N17COP40785_A1","","","","","","AddonDC2N17COP40785_A1","SIP to Mobile AYCE","72000000","",""
"G","0","DC2N17GKP43397_A1","+441773534555","30/06/2017","09:14:01","103","","","UK RIPLEY","UKN","1","0.000000","","","","","SIPD","Gamma","","","","","3194","","","","","C00439F1C10B2BA7689FFA0B83EBC6230","GBP","+443300538880","DC2N17GKP43397_A1","","","","","","","","","",""
"V","0","DC2N17GKP43397_A1","+447487695173","30/06/2017","09:16:04","55","","","UK Mobile Orange","UKNFM4","1","0.000000","","","","","SIPD","Gamma","","","","","3194","","","","","C647B61856CDC9E5CF7892AB491963857","GBP","+443300538880","DC2N17GKP43397_A1","","","","","","AddonDC2N17GKP43397_A1","SIP to Mobile AYCE","72000000","",""
"G","0","DC2N17GKP43397_A1","+441617777422","30/06/2017","09:16:39","241","","","UK MANCHESTER","UKN","1","0.000000","","","","","SIPD","Gamma","","","","","3194","","","","","CDBE7C5316E98AEB0B309623FD08407E3","GBP","+443300538880","DC2N17GKP43397_A1","","","","","","","","","",""
"G","0","DC2N17GKP43397_A1","+441782381340","30/06/2017","09:26:05","65","","","UK STOKE-ON-TRENT","UKN","1","0.000000","","","","","SIPD","Gamma","","","","","3194","","","","","C4C55B87E80E487E9565D7C36FDAFC600","GBP","+443300538880","DC2N17GKP43397_A1","","","","","","","","","",""
"G","0","DC2N17GKP43397_A1","+441244289527","30/06/2017","09:46:38","35","","","UK CHESTER","UKN","1","0.000000","","","","","SIPD","Gamma","","","","","3194","","","","","CF24F28B29CBCB332FD8CB4DEC9C930BF","GBP","+443300538880","DC2N17GKP43397_A1","","","","","","","","","",""
"V","0","DC2N17GKP43397_A1","+447830406160","30/06/2017","09:48:02","43","","","UK Mobile Hutchison 3G","UKNFM6","1","0.000000","","","","","SIPD","Gamma","","","","","3194","","","","","C2EBFB23205DBB0C47C6C01823D1E76A3","GBP","+443300538880","DC2N17GKP43397_A1","","","","","","AddonDC2N17GKP43397_A1","SIP to Mobile AYCE","72000000","",""
"G","0","DC2N17GKP43397_A1","+44138641411","30/06/2017","09:58:05","149","","","UK EVESHAM","UKN","1","0.000000","","","","","SIPD","Gamma","","","","","3194","","","","","C24E83E2B6DAAD9AE7BD4011C2CACBB22","GBP","+443300538880","DC2N17GKP43397_A1","","","","","","","","","",""
"V","0","DC2N17GKP43397_A1","+447528173351","30/06/2017","10:00:48","50","","","UK Mobile T Mobile","UKNFM3","1","0.000000","","","","","SIPD","Gamma","","","","","3194","","","","","C5F96235D034830386EE1AA761648BE4F","GBP","+443300538880","DC2N17GKP43397_A1","","","","","","AddonDC2N17GKP43397_A1","SIP to Mobile AYCE","72000000","",""
"V","0","DC2N17COP40785_A1","+44800100600","30/06/2017","10:40:52","105","","","UK Freephone","UKNFPH","1","0.000000","","","","","SIPD","Gamma","","","","","3194","","","","","CC5C043344A0E38E567811AEE035381C9","GBP","+443332026365","DC2N17COP40785_A1","","","","","","","","","",""
"G","0","DC2N17COP40785_A1","+441162776363","30/06/2017","10:42:43","30","","","UK LEICESTER","UKN","1","0.000000","","","","","SIPD","Gamma","","","","","3194","","","","","CD667574AAD10CDBACB3A7B81CC8A9498","GBP","+443332026365","DC2N17COP40785_A1","","","","","","","","","",""
"G","0","DC2N17COP40785_A1","+443456070809","30/06/2017","10:42:49","1179","","","UK National Non Geographic","UKNNNG","1","0.000000","","","","","SIPD","Gamma","","","","","3194","","","","","C415091C6C6B399C6E04E5E0753050BEA","GBP","+443332026365","DC2N17COP40785_A1","","","","","","","","","",""
"V","0","DC2N17GKP43397_A1","+447487695173","30/06/2017","10:45:14","40","","","UK Mobile Orange","UKNFM4","1","0.000000","","","","","SIPD","Gamma","","","","","3194","","","","","CCB8027092ECE570C4F4D0E39DFF7EF07","GBP","+443300538880","DC2N17GKP43397_A1","","","","","","AddonDC2N17GKP43397_A1","SIP to Mobile AYCE","72000000","",""
"G","0","DC2N17GKP43397_A1","+441948663515","30/06/2017","11:03:52","281","","","UK WHITCHURCH","UKN","1","0.000000","","","","","SIPD","Gamma","","","","","3194","","","","","CA96855C2FCDE402476A71C90366CFE46","GBP","+443300538880","DC2N17GKP43397_A1","","","","","","","","","",""
"G","0","DC2N17GKP43397_A1","+441785218208","30/06/2017","11:06:15","163","","","UK STAFFORD","UKN","1","0.000000","","","","","SIPD","Gamma","","","","","3194","","","","","C9C3263892D50F8F9508BEAA53BF19A65","GBP","+443300538880","DC2N17GKP43397_A1","","","","","","","","","",""
"V","0","DC2N17GKP43397_A1","+447487695173","30/06/2017","11:41:06","9","","","UK Mobile Orange","UKNFM4","1","0.000000","","","","","SIPD","Gamma","","","","","3194","","","","","CE36193B17B05402109DB62A23ABB22F7","GBP","+443300538880","DC2N17GKP43397_A1","","","","","","AddonDC2N17GKP43397_A1","SIP to Mobile AYCE","72000000","",""
"G","0","DC2N17GKP43397_A1","+441782415513","30/06/2017","12:09:52","385","","","UK STOKE-ON-TRENT","UKN","1","0.000000","","","","","SIPD","Gamma","","","","","3194","","","","","C88A5F6E0C28A36A2C215614E32793ACC","GBP","+443300538880","DC2N17GKP43397_A1","","","","","","","","","",""
"G","0","DC2N17GKP43397_A1","+443448004466","30/06/2017","12:17:22","169","","","UK National Non Geographic","UKNNNG","1","0.000000","","","","","SIPD","Gamma","","","","","3194","","","","","CCEF72E558060E4ED899F5DE56E362275","GBP","+443300538880","DC2N17GKP43397_A1","","","","","","","","","",""
"G","0","DC2N17COP40785_A1","+441455233944","30/06/2017","12:32:37","247","","","UK HINCKLEY","UKN","1","0.000000","","","","","SIPD","Gamma","","","","","3194","","","","","C03995B4BFCFD894375785DE03858254A","GBP","+443332026365","DC2N17COP40785_A1","","","","","","","","","",""
"G","0","DC2N17GKP43397_A1","+441617777423","30/06/2017","12:58:18","27","","","UK MANCHESTER","UKN","1","0.000000","","","","","SIPD","Gamma","","","","","3194","","","","","C10F621495CF8F209D98841F10B14A390","GBP","+443300538880","DC2N17GKP43397_A1","","","","","","","","","",""
"V","0","DC2N17GKP43397_A1","+447830406160","30/06/2017","13:37:17","26","","","UK Mobile Hutchison 3G","UKNFM6","1","0.000000","","","","","SIPD","Gamma","","","","","3194","","","","","CD19CD7EE03D00E4C29E7844478BF9047","GBP","+443300538880","DC2N17GKP43397_A1","","","","","","AddonDC2N17GKP43397_A1","SIP to Mobile AYCE","72000000","",""
"V","0","DC2N17GKP43397_A1","+447830406160","30/06/2017","13:38:53","18","","","UK Mobile Hutchison 3G","UKNFM6","1","0.000000","","","","","SIPD","Gamma","","","","","3194","","","","","C74B4A23A4CD37FC4F3F7FDCCC2056BC5","GBP","+443300538880","DC2N17GKP43397_A1","","","","","","AddonDC2N17GKP43397_A1","SIP to Mobile AYCE","72000000","",""
"V","0","DC2N17GKP43397_A1","+447718661999","30/06/2017","14:10:34","20","","","UK Mobile O2","UKNFM1","1","0.000000","","","","","SIPD","Gamma","","","","","3194","","","","","C8E4577B2E2C0D1266F8F0E61DB3A9524","GBP","+443300538880","DC2N17GKP43397_A1","","","","","","AddonDC2N17GKP43397_A1","SIP to Mobile AYCE","72000000","",""
"V","0","DC2N17GKP43397_A1","+447557339201","30/06/2017","14:12:50","3","","","UK Mobile Vodafone","UKNFM5","1","0.000000","","","","","SIPD","Gamma","","","","","3194","","","","","C92C82684BBFFBA9DD76FD5A46FDD78BC","GBP","+443300538880","DC2N17GKP43397_A1","","","","","","AddonDC2N17GKP43397_A1","SIP to Mobile AYCE","72000000","",""
"V","0","DC2N17GKP43397_A1","+447741267127","30/06/2017","14:25:26","50","","","UK Mobile Vodafone","UKNFM5","1","0.000000","","","","","SIPD","Gamma","","","","","3194","","","","","CE82A4EBCDDFE2FC42FED3ACA6D9D3C10","GBP","+443300538880","DC2N17GKP43397_A1","","","","","","AddonDC2N17GKP43397_A1","SIP to Mobile AYCE","72000000","",""
"G","0","DC2N17GKP43397_A1","+441270627391","30/06/2017","15:01:24","83","","","UK CREWE","UKN","1","0.000000","","","","","SIPD","Gamma","","","","","3194","","","","","C9FF2A0622A81E0E0F7133CBFCB01FAEC","GBP","+443300538880","DC2N17GKP43397_A1","","","","","","","","","",""
"V","0","DC2N17GKP43397_A1","+447971451933","30/06/2017","15:06:34","67","","","UK Mobile T Mobile","UKNFM3","1","0.000000","","","","","SIPD","Gamma","","","","","3194","","","","","C16A53378D6E17884ABA6B885B9489A55","GBP","+443300538880","DC2N17GKP43397_A1","","","","","","AddonDC2N17GKP43397_A1","SIP to Mobile AYCE","72000000","",""
"G","0","DC2N17GKP43397_A1","+441293851459","30/06/2017","15:08:02","47","","","UK CRAWLEY","UKN","1","0.000000","","","","","SIPD","Gamma","","","","","3194","","","","","C05A1CBB011114B4EE8DEB196DC57E629","GBP","+443300538880","DC2N17GKP43397_A1","","","","","","","","","",""
