"Call Type","Call Cause Definition Required","Customer Identifier","Non-Charged Party","Call Date","Call Time","Duration","Bytes Transmitted","Bytes Received","Description","Chargecode","Time Band","Salesprice","Salesprice (Pre-Bundle)","Extension","DDI","Grouping ID","Call Class (Feature)","Carrier","Recording","VAT","Country of Origin","Network","Retail Tariff Code","Remote Network","APN","Diverted Number","Ring time","Record ID","Currency","Caller Line Identity","Network Access Reference","NGCS Access Charge","NGCS Service Charge","Total Bytes Transferred","User ID","Onward Billing Reference","Contract Name","Bundle Name","Bundle Allowance","Discount Reference","Routing Code"
"G","0","DC2N17GKP43397_A1","+441205461594","14/07/2017","08:54:14","54","","","UK BOSTON","UKN","1","0.000000","","","","","SIPD","Gamma","","","","","3194","","","","","C8F509E32A26E7D12D6CA1AFE665DA64D","GBP","+443300538880","DC2N17GKP43397_A1","","","","","","","","","",""
"G","0","DC2N17GKP43397_A1","+441254263555","14/07/2017","09:01:08","126","","","UK BLACKBURN","UKN","1","0.000000","","","","","SIPD","Gamma","","","","","3194","","","","","CD569E32A48B6A4FFA68BA8BFB8FF681B","GBP","+443300538880","DC2N17GKP43397_A1","","","","","","","","","",""
"V","0","DC2N17GKP43397_A1","+447710133100","14/07/2017","09:21:51","269","","","UK Mobile O2","UKNFM1","1","0.000000","","","","","SIPD","Gamma","","","","","3194","","","","","CEE25B533962C03C8E85736874BAF3F37","GBP","+443300538880","DC2N17GKP43397_A1","","","","","","AddonDC2N17GKP43397_A1","SIP to Mobile AYCE","72000000","",""
"G","0","DC2N17GKP43397_A1","+441480402012","14/07/2017","09:50:11","68","","","UK HUNTINGDON","UKN","1","0.000000","","","","","SIPD","Gamma","","","","","3194","","","","","C080F2B277F7726ECE083831AF463B200","GBP","+443300538880","DC2N17GKP43397_A1","","","","","","","","","",""
"G","0","DC2N17GKP43397_A1","+441753588556","14/07/2017","10:49:03","110","","","UK SLOUGH","UKN","1","0.000000","","","","","SIPD","Gamma","","","","","3194","","","","","CEED12C43F5E531DF0092F209AA5FD6DB","GBP","+443300538880","DC2N17GKP43397_A1","","","","","","","","","",""
"G","0","DC2N17GKP43397_A1","+441753588556","14/07/2017","11:00:15","81","","","UK SLOUGH","UKN","1","0.000000","","","","","SIPD","Gamma","","","","","3194","","","","","C08EF3C1A97AE46934BBFC90418C3548C","GBP","+443300538880","DC2N17GKP43397_A1","","","","","","","","","",""
"G","0","DC2N17GKP43397_A1","+441698503705","14/07/2017","11:00:16","170","","","UK MOTHERWELL","UKN","1","0.000000","","","","","SIPD","Gamma","","","","","3194","","","","","C8F3612BEF3C22A5A8D61E3E2D3B28724","GBP","+443300538880","DC2N17GKP43397_A1","","","","","","","","","",""
"V","0","DC2N17GKP43397_A1","+447487695173","14/07/2017","11:03:52","50","","","UK Mobile Orange","UKNFM4","1","0.000000","","","","","SIPD","Gamma","","","","","3194","","","","","C4E67E30CAF39C5B98FB7D83F07BB48B1","GBP","+443300538880","DC2N17GKP43397_A1","","","","","","AddonDC2N17GKP43397_A1","SIP to Mobile AYCE","72000000","",""
"G","0","DC2N17GKP43397_A1","+441753588556","14/07/2017","11:08:35","115","","","UK SLOUGH","UKN","1","0.000000","","","","","SIPD","Gamma","","","","","3194","","","","","CA2EC8219F750974412D1304387E942EC","GBP","+443300538880","DC2N17GKP43397_A1","","","","","","","","","",""
"V","0","DC2N17GKP43397_A1","+447910727701","14/07/2017","11:12:50","27","","","UK Mobile T Mobile","UKNFM3","1","0.000000","","","","","SIPD","Gamma","","","","","3194","","","","","CBA701B26456C63B348A6DB5C71769F47","GBP","+443300538880","DC2N17GKP43397_A1","","","","","","AddonDC2N17GKP43397_A1","SIP to Mobile AYCE","72000000","",""
"G","0","DC2N17COP40785_A1","+441159442829","14/07/2017","11:33:35","57","","","UK NOTTINGHAM","UKN","1","0.000000","","","","","SIPD","Gamma","","","","","3194","","","","","CF1068BF22CD0423FC7004BF93584A870","GBP","+443332026365","DC2N17COP40785_A1","","","","","","","","","",""
"G","0","DC2N17COP40785_A1","+441162556022","14/07/2017","11:48:13","49","","","UK LEICESTER","UKN","1","0.000000","","","","","SIPD","Gamma","","","","","3194","","","","","C61614FC8D3C8AF8CEA01252422872B93","GBP","+443332026365","DC2N17COP40785_A1","","","","","","","","","",""
"G","0","DC2N17COP40785_A1","+441162044925","14/07/2017","11:50:27","31","","","UK LEICESTER","UKN","1","0.000000","","","","","SIPD","Gamma","","","","","3194","","","","","C35F8414016F02E4AE345883621CAF218","GBP","+443332026365","DC2N17COP40785_A1","","","","","","","","","",""
"G","0","DC2N17GKP43397_A1","+441889272180","14/07/2017","11:55:16","253","","","UK RUGELY","UKN","1","0.000000","","","","","SIPD","Gamma","","","","","3194","","","","","C8E1977B868DCCF9FF676D8EC9FCE616A","GBP","+443300538880","DC2N17GKP43397_A1","","","","","","","","","",""
"G","0","DC2N17GKP43397_A1","+443448006205","14/07/2017","12:02:37","92","","","UK National Non Geographic","UKNNNG","1","0.000000","","","","","SIPD","Gamma","","","","","3194","","","","","CFC5D2830B3686DD60869DA98AAE237AE","GBP","+443300538880","DC2N17GKP43397_A1","","","","","","","","","",""
"G","0","DC2N17COP40785_A1","+441159442829","14/07/2017","12:04:15","144","","","UK NOTTINGHAM","UKN","1","0.000000","","","","","SIPD","Gamma","","","","","3194","","","","","C2D24FD862B9ECA3B9EF3B866827DAA1F","GBP","+443332026365","DC2N17COP40785_A1","","","","","","","","","",""
"G","0","DC2N17COP40785_A1","+441159442829","14/07/2017","12:06:58","3","","","UK NOTTINGHAM","UKN","1","0.000000","","","","","SIPD","Gamma","","","","","3194","","","","","C48E50FD862AD652AD15D1371145C1750","GBP","+443332026365","DC2N17COP40785_A1","","","","","","","","","",""
"G","0","DC2N17COP40785_A1","+441162743885","14/07/2017","12:12:47","34","","","UK LEICESTER","UKN","1","0.000000","","","","","SIPD","Gamma","","","","","3194","","","","","CA8E122213AB6522518674DF6E181FE46","GBP","+443332026365","DC2N17COP40785_A1","","","","","","","","","",""
"V","0","DC2N17GKP43397_A1","+447487695173","14/07/2017","12:19:33","19","","","UK Mobile Orange","UKNFM4","1","0.000000","","","","","SIPD","Gamma","","","","","3194","","","","","C87EE09D77C69BD0A0D4E28F9E6713614","GBP","+443300538880","DC2N17GKP43397_A1","","","","","","AddonDC2N17GKP43397_A1","SIP to Mobile AYCE","72000000","",""
"V","0","DC2N17GKP43397_A1","+447495722011","14/07/2017","12:22:47","4","","","UK Mobile T Mobile","UKNFM3","1","0.000000","","","","","SIPD","Gamma","","","","","3194","","","","","CF465D3DF72352416B24278F7A418B4A4","GBP","+443300538880","DC2N17GKP43397_A1","","","","","","AddonDC2N17GKP43397_A1","SIP to Mobile AYCE","72000000","",""
"V","0","DC2N17GKP43397_A1","+447891097957","14/07/2017","12:30:14","22","","","UK Mobile T Mobile","UKNFM3","1","0.000000","","","","","SIPD","Gamma","","","","","3194","","","","","C939E141174BB654BE0D1DD08B1F6C4B0","GBP","+443300538880","DC2N17GKP43397_A1","","","","","","AddonDC2N17GKP43397_A1","SIP to Mobile AYCE","72000000","",""
"V","0","DC2N17GKP43397_A1","+447891097957","14/07/2017","12:32:59","2","","","UK Mobile T Mobile","UKNFM3","1","0.000000","","","","","SIPD","Gamma","","","","","3194","","","","","C39DDEC5D6AC0F35AEED76539C5B3C1A7","GBP","+443300538880","DC2N17GKP43397_A1","","","","","","AddonDC2N17GKP43397_A1","SIP to Mobile AYCE","72000000","",""
"V","0","DC2N17GKP43397_A1","+447812153554","14/07/2017","12:36:08","127","","","UK Mobile T Mobile","UKNFM3","1","0.000000","","","","","SIPD","Gamma","","","","","3194","","","","","C9EC92E11DA2849DE3EFF0A154F5AECBF","GBP","+443300538880","DC2N17GKP43397_A1","","","","","","AddonDC2N17GKP43397_A1","SIP to Mobile AYCE","72000000","",""
"V","0","DC2N17GKP43397_A1","+447710133100","14/07/2017","13:02:15","550","","","UK Mobile O2","UKNFM1","1","0.000000","","","","","SIPD","Gamma","","","","","3194","","","","","C80D4B0311D42A833334DACEAF3E31E7A","GBP","+443300538880","DC2N17GKP43397_A1","","","","","","AddonDC2N17GKP43397_A1","SIP to Mobile AYCE","72000000","",""
"V","0","DC2N17GKP43397_A1","+448000517537","14/07/2017","13:21:54","75","","","UK Freephone","UKNFPH","1","0.000000","","","","","SIPD","Gamma","","","","","3194","","","","","CB3AD93AB83BB6B73613E974211E0C3EA","GBP","+443300538880","DC2N17GKP43397_A1","","","","","","","","","",""
"G","0","DC2N17GKP43397_A1","+441617777422","14/07/2017","13:29:55","19","","","UK MANCHESTER","UKN","1","0.000000","","","","","SIPD","Gamma","","","","","3194","","","","","CA5DF67CCB8776864A97CC1D79272EA3F","GBP","+443300538880","DC2N17GKP43397_A1","","","","","","","","","",""
"G","0","DC2N17COP40785_A1","+441162044925","14/07/2017","13:58:12","79","","","UK LEICESTER","UKN","1","0.000000","","","","","SIPD","Gamma","","","","","3194","","","","","C071B43E25A1E0E516C28082D3653ED0B","GBP","+443332026365","DC2N17COP40785_A1","","","","","","","","","",""
"V","0","DC2N17GKP43397_A1","+447741267127","14/07/2017","14:30:08","4","","","UK Mobile Vodafone","UKNFM5","1","0.000000","","","","","SIPD","Gamma","","","","","3194","","","","","C52D365952E62415F493C6405913B36DA","GBP","+443300538880","DC2N17GKP43397_A1","","","","","","AddonDC2N17GKP43397_A1","SIP to Mobile AYCE","72000000","",""
