"Call Type","Call Cause Definition Required","Customer Identifier","Non-Charged Party","Call Date","Call Time","Duration","Bytes Transmitted","Bytes Received","Description","Chargecode","Time Band","Salesprice","Salesprice (Pre-Bundle)","Extension","DDI","Grouping ID","Call Class (Feature)","Carrier","Recording","VAT","Country of Origin","Network","Retail Tariff Code","Remote Network","APN","Diverted Number","Ring time","Record ID","Currency","Caller Line Identity","Network Access Reference","NGCS Access Charge","NGCS Service Charge","Total Bytes Transferred","User ID","Onward Billing Reference","Contract Name","Bundle Name","Bundle Allowance","Discount Reference","Routing Code"
"G","0","DC2N17GKP43397_A1","+44138641411","13/07/2017","07:59:11","95","","","UK EVESHAM","UKN","2","0.000000","","","","","SIPD","Gamma","","","","","3194","","","","","CFAF68944138BBDE5E8DCC29B5DE0B72A","GBP","+443300538880","DC2N17GKP43397_A1","","","","","","","","","",""
"V","0","DC2N17GKP43397_A1","+447557339201","13/07/2017","08:07:57","4","","","UK Mobile Vodafone","UKNFM5","1","0.000000","","","","","SIPD","Gamma","","","","","3194","","","","","C9FDE845780043479FB9B873088322969","GBP","+443300538880","DC2N17GKP43397_A1","","","","","","AddonDC2N17GKP43397_A1","SIP to Mobile AYCE","72000000","",""
"V","0","DC2N17GKP43397_A1","+447557339201","13/07/2017","08:09:46","124","","","UK Mobile Vodafone","UKNFM5","1","0.000000","","","","","SIPD","Gamma","","","","","3194","","","","","CD13CDE7BCFE1853CA5771E10192D175B","GBP","+443300538880","DC2N17GKP43397_A1","","","","","","AddonDC2N17GKP43397_A1","SIP to Mobile AYCE","72000000","",""
"V","0","DC2N17GKP43397_A1","+447557339201","13/07/2017","09:05:31","49","","","UK Mobile Vodafone","UKNFM5","1","0.000000","","","","","SIPD","Gamma","","","","","3194","","","","","C41A48767581C777D8726521B7064FE3D","GBP","+443300538880","DC2N17GKP43397_A1","","","","","","AddonDC2N17GKP43397_A1","SIP to Mobile AYCE","72000000","",""
"G","0","DC2N17GKP43397_A1","+441516308011","13/07/2017","09:27:43","22","","","UK LIVERPOOL","UKN","1","0.000000","","","","","SIPD","Gamma","","","","","3194","","","","","C91D63BAE3C690A74D63F3D0617001507","GBP","+443300538880","DC2N17GKP43397_A1","","","","","","","","","",""
"G","0","DC2N17GKP43397_A1","+441516308011","13/07/2017","09:28:46","9","","","UK LIVERPOOL","UKN","1","0.000000","","","","","SIPD","Gamma","","","","","3194","","","","","C356FEB101BEE15B3F1274D002FF88F8D","GBP","+443300538880","DC2N17GKP43397_A1","","","","","","","","","",""
"G","0","DC2N17GKP43397_A1","+441270626162","13/07/2017","09:31:11","122","","","UK CREWE","UKN","1","0.000000","","","","","SIPD","Gamma","","","","","3194","","","","","CB64DF3BA5B90D2E266F676E57DE14698","GBP","+443300538880","DC2N17GKP43397_A1","","","","","","","","","",""
"G","0","DC2N17GKP43397_A1","+441516308011","13/07/2017","09:33:34","404","","","UK LIVERPOOL","UKN","1","0.000000","","","","","SIPD","Gamma","","","","","3194","","","","","C1C2B12B6E22F8DC3A10A1B6CDB3AA614","GBP","+443300538880","DC2N17GKP43397_A1","","","","","","","","","",""
"V","0","DC2N17GKP43397_A1","+447741267127","13/07/2017","09:37:18","4","","","UK Mobile Vodafone","UKNFM5","1","0.000000","","","","","SIPD","Gamma","","","","","3194","","","","","CF89DDB1D7907D5299CF7BB57BE1BBA5E","GBP","+443300538880","DC2N17GKP43397_A1","","","","","","AddonDC2N17GKP43397_A1","SIP to Mobile AYCE","72000000","",""
"V","0","DC2N17GKP43397_A1","+447495722011","13/07/2017","09:40:10","42","","","UK Mobile T Mobile","UKNFM3","1","0.000000","","","","","SIPD","Gamma","","","","","3194","","","","","C523E644BC121BE04295C6D05EEF35AE5","GBP","+443300538880","DC2N17GKP43397_A1","","","","","","AddonDC2N17GKP43397_A1","SIP to Mobile AYCE","72000000","",""
"V","0","DC2N17GKP43397_A1","+447860863656","13/07/2017","09:54:43","30","","","UK Mobile O2","UKNFM1","1","0.000000","","","","","SIPD","Gamma","","","","","3194","","","","","CE78951DCEF8BB57ED82A1E9BDF4B644A","GBP","+443300538880","DC2N17GKP43397_A1","","","","","","AddonDC2N17GKP43397_A1","SIP to Mobile AYCE","72000000","",""
"G","0","DC2N17GKP43397_A1","+441753588556","13/07/2017","10:02:09","304","","","UK SLOUGH","UKN","1","0.000000","","","","","SIPD","Gamma","","","","","3194","","","","","C1BA828DCA782718C9DA920FFC059F783","GBP","+443300538880","DC2N17GKP43397_A1","","","","","","","","","",""
"V","0","DC2N17GKP43397_A1","+447495722011","13/07/2017","10:37:16","183","","","UK Mobile T Mobile","UKNFM3","1","0.000000","","","","","SIPD","Gamma","","","","","3194","","","","","CE985FD2B88991BC6044CDCCA64F635E0","GBP","+443300538880","DC2N17GKP43397_A1","","","","","","AddonDC2N17GKP43397_A1","SIP to Mobile AYCE","72000000","",""
"V","0","DC2N17GKP43397_A1","+447487695173","13/07/2017","10:39:03","227","","","UK Mobile Orange","UKNFM4","1","0.000000","","","","","SIPD","Gamma","","","","","3194","","","","","C8982AB02C67FAC7D68522BE41CED49EE","GBP","+443300538880","DC2N17GKP43397_A1","","","","","","AddonDC2N17GKP43397_A1","SIP to Mobile AYCE","72000000","",""
"V","0","DC2N17GKP43397_A1","+448708502755","13/07/2017","11:00:19","83","","","UK NGCS SC002 (1ppm)","UKNSC002","1","0.030000","","","","","SIPD","Gamma","","","","","3194","","","","","CBF94E25107BD2824BF5AA2A338CD86C7","GBP","+443300538880","DC2N17GKP43397_A1","0.018000","0.012000","","","","","","","",""
"G","0","DC2N17GKP43397_A1","+441531660258","13/07/2017","11:13:49","57","","","UK LEDBURY","UKN","1","0.000000","","","","","SIPD","Gamma","","","","","3194","","","","","C353FBFC54979537E3E5B5FDD3897AA11","GBP","+443300538880","DC2N17GKP43397_A1","","","","","","","","","",""
"V","0","DC2N17COP40785_A1","+448450750086","13/07/2017","11:40:39","162","","","UK NGCS SC003 (2ppm)","UKNSC003","1","0.081000","","","","","SIPD","Gamma","","","","","3194","","","","","CB9448AED26318534D4802622A39280F8","GBP","+443332026365","DC2N17COP40785_A1","0.035000","0.046000","","","","","","","",""
"V","0","DC2N17GKP43397_A1","+447741267127","13/07/2017","11:58:46","44","","","UK Mobile Vodafone","UKNFM5","1","0.000000","","","","","SIPD","Gamma","","","","","3194","","","","","C32E4E1A373AC625CDCE2C9A0123CA950","GBP","+443300538880","DC2N17GKP43397_A1","","","","","","AddonDC2N17GKP43397_A1","SIP to Mobile AYCE","72000000","",""
"G","0","DC2N17COP40785_A1","+441162044920","13/07/2017","12:22:44","93","","","UK LEICESTER","UKN","1","0.000000","","","","","SIPD","Gamma","","","","","3194","","","","","C7E172314D0E1105D97D9E7456E1DCB24","GBP","+443332026365","DC2N17COP40785_A1","","","","","","","","","",""
"V","0","DC2N17GKP43397_A1","+447831759924","13/07/2017","12:23:39","71","","","UK Mobile Vodafone","UKNFM5","1","0.000000","","","","","SIPD","Gamma","","","","","3194","","","","","C0B092E01ED5E8CEEACDDDE1400DEBA8C","GBP","+443300538880","DC2N17GKP43397_A1","","","","","","AddonDC2N17GKP43397_A1","SIP to Mobile AYCE","72000000","",""
"G","0","DC2N17GKP43397_A1","+441217429123","13/07/2017","12:23:40","80","","","UK BIRMINGHAM","UKN","1","0.000000","","","","","SIPD","Gamma","","","","","3194","","","","","C444F37FD58ADD90A2CD63F1125A6D118","GBP","+443300538880","DC2N17GKP43397_A1","","","","","","","","","",""
"G","0","DC2N17GKP43397_A1","+441480402012","13/07/2017","12:42:13","33","","","UK HUNTINGDON","UKN","1","0.000000","","","","","SIPD","Gamma","","","","","3194","","","","","C4B662945711D329237E31EF18FA0063A","GBP","+443300538880","DC2N17GKP43397_A1","","","","","","","","","",""
"G","0","DC2N17GKP43397_A1","+441782381340","13/07/2017","13:06:00","44","","","UK STOKE-ON-TRENT","UKN","1","0.000000","","","","","SIPD","Gamma","","","","","3194","","","","","C19A66E53083860561363812088A71010","GBP","+443300538880","DC2N17GKP43397_A1","","","","","","","","","",""
"V","0","DC2N17GKP43397_A1","+447831759924","13/07/2017","13:06:41","24","","","UK Mobile Vodafone","UKNFM5","1","0.000000","","","","","SIPD","Gamma","","","","","3194","","","","","C18ECCCDA489EC3BCAFF5E2E3C139C372","GBP","+443300538880","DC2N17GKP43397_A1","","","","","","AddonDC2N17GKP43397_A1","SIP to Mobile AYCE","72000000","",""
"G","0","DC2N17GKP43397_A1","+441538308296","13/07/2017","13:20:20","125","","","UK IPSTONES","UKN","1","0.000000","","","","","SIPD","Gamma","","","","","3194","","","","","CD1BE7D560E813783FB50098EFB45EC58","GBP","+443300538880","DC2N17GKP43397_A1","","","","","","","","","",""
"V","0","DC2N17GKP43397_A1","+447741267127","13/07/2017","13:55:05","310","","","UK Mobile Vodafone","UKNFM5","1","0.000000","","","","","SIPD","Gamma","","","","","3194","","","","","CEB677F73BE0BDA3EB9FBD1A1EAF39CA1","GBP","+443300538880","DC2N17GKP43397_A1","","","","","","AddonDC2N17GKP43397_A1","SIP to Mobile AYCE","72000000","",""
"G","0","DC2N17GKP43397_A1","+443452696650","13/07/2017","15:00:58","349","","","UK National Non Geographic","UKNNNG","1","0.000000","","","","","SIPD","Gamma","","","","","3194","","","","","CD3FAC5D48B92E893D7063E0B10895E20","GBP","+443300538880","DC2N17GKP43397_A1","","","","","","","","","",""
"G","0","DC2N17GKP43397_A1","+441782415513","13/07/2017","15:13:54","530","","","UK STOKE-ON-TRENT","UKN","1","0.000000","","","","","SIPD","Gamma","","","","","3194","","","","","C81202EA54060090E1AEF18F47C3109C1","GBP","+443300538880","DC2N17GKP43397_A1","","","","","","","","","",""
"G","0","DC2N17COP40785_A1","+443457606060","13/07/2017","16:22:24","26","","","UK National Non Geographic","UKNNNG","1","0.000000","","","","","SIPD","Gamma","","","","","3194","","","","","CA68F0A2100FF80A63430C51FD10BE589","GBP","+443332026365","DC2N17COP40785_A1","","","","","","","","","",""
"G","0","DC2N17COP40785_A1","+443457606060","13/07/2017","16:23:07","387","","","UK National Non Geographic","UKNNNG","1","0.000000","","","","","SIPD","Gamma","","","","","3194","","","","","C9B34457BE02BCE28DEA8938782D6D7EF","GBP","+443332026365","DC2N17COP40785_A1","","","","","","","","","",""
"G","0","DC2N17GKP43397_A1","+441205461594","13/07/2017","16:28:55","72","","","UK BOSTON","UKN","1","0.000000","","","","","SIPD","Gamma","","","","","3194","","","","","C05335B9B7792ADFFE33D1CD419874325","GBP","+443300538880","DC2N17GKP43397_A1","","","","","","","","","",""
