"Call Type","Call Cause Definition Required","Customer Identifier","Non-Charged Party","Call Date","Call Time","Duration","Bytes Transmitted","Bytes Received","Description","Chargecode","Time Band","Salesprice","Salesprice (Pre-Bundle)","Extension","DDI","Grouping ID","Call Class (Feature)","Carrier","Recording","VAT","Country of Origin","Network","Retail Tariff Code","Remote Network","APN","Diverted Number","Ring time","Record ID","Currency","Caller Line Identity","Network Access Reference","NGCS Access Charge","NGCS Service Charge","Total Bytes Transferred","User ID","Onward Billing Reference","Contract Name","Bundle Name","Bundle Allowance","Discount Reference","Routing Code"
"V","0","+441162893308","+448080044550","02/07/2017","13:10:37","16","","","UK Freephone","UKNFPH","3","0.000000","","","+441162893308","","CPS","Gamma","","","","","3194","","","","","C93232056672451BE4B0F29A4A611C95C","GBP","+441162893308","","","","","","","","","","",""
"V","0","+441162893308","+448080044550","02/07/2017","13:57:31","16","","","UK Freephone","UKNFPH","3","0.000000","","","+441162893308","","CPS","Gamma","","","","","3194","","","","","C7AD655505997166B0BAC5B79558204C8","GBP","+441162893308","","","","","","","","","","",""
"V","0","+441162893308","+448080044550","02/07/2017","14:08:53","16","","","UK Freephone","UKNFPH","3","0.000000","","","+441162893308","","CPS","Gamma","","","","","3194","","","","","CDB3B6E13D34B35BBE43F8B4AD2FB2F04","GBP","+441162893308","","","","","","","","","","",""
"V","0","+441162893308","+448080044550","02/07/2017","14:10:15","16","","","UK Freephone","UKNFPH","3","0.000000","","","+441162893308","","CPS","Gamma","","","","","3194","","","","","C566D04BFB0A203771011E26515F8B71E","GBP","+441162893308","","","","","","","","","","",""
"V","0","+441162893308","+448080044550","02/07/2017","14:11:58","17","","","UK Freephone","UKNFPH","3","0.000000","","","+441162893308","","CPS","Gamma","","","","","3194","","","","","CEA54160885ABDCCFC34C1A860EB8D42F","GBP","+441162893308","","","","","","","","","","",""
"V","0","+441162893308","+448009520280","02/07/2017","14:13:12","13","","","UK Freephone","UKNFPH","3","0.000000","","","+441162893308","","CPS","Gamma","","","","","3194","","","","","C2F390D679F4168D6FFC19A25CA6127A6","GBP","+441162893308","","","","","","","","","","",""
"V","0","+441162893308","+448080044550","02/07/2017","14:13:39","16","","","UK Freephone","UKNFPH","3","0.000000","","","+441162893308","","CPS","Gamma","","","","","3194","","","","","CBCD6938DD8FCD8487FAA900EF6B1ACB7","GBP","+441162893308","","","","","","","","","","",""
"V","0","+441162893308","+448080044550","02/07/2017","14:40:19","16","","","UK Freephone","UKNFPH","3","0.000000","","","+441162893308","","CPS","Gamma","","","","","3194","","","","","C15C2C53DD2B7737BC2C84D7711C18017","GBP","+441162893308","","","","","","","","","","",""
"V","0","+441162893308","+448080044550","02/07/2017","15:05:07","15","","","UK Freephone","UKNFPH","3","0.000000","","","+441162893308","","CPS","Gamma","","","","","3194","","","","","C783A00FB28D6A1FFF2483A10D06DCC65","GBP","+441162893308","","","","","","","","","","",""
"V","0","+441162893308","+448080044550","02/07/2017","15:30:56","16","","","UK Freephone","UKNFPH","3","0.000000","","","+441162893308","","CPS","Gamma","","","","","3194","","","","","CB9712FF623837D7CD04A62DAF5766942","GBP","+441162893308","","","","","","","","","","",""
"V","0","+441162893308","+448080044550","02/07/2017","15:56:02","15","","","UK Freephone","UKNFPH","3","0.000000","","","+441162893308","","CPS","Gamma","","","","","3194","","","","","C0DC3B66BE2A2D532980536D89EB0182D","GBP","+441162893308","","","","","","","","","","",""
"V","0","+441162893308","+448080044550","02/07/2017","16:21:59","16","","","UK Freephone","UKNFPH","3","0.000000","","","+441162893308","","CPS","Gamma","","","","","3194","","","","","C897676AEC623B02954200965C9E1E1BC","GBP","+441162893308","","","","","","","","","","",""
"V","0","+441162893308","+448080044550","02/07/2017","16:47:57","16","","","UK Freephone","UKNFPH","3","0.000000","","","+441162893308","","CPS","Gamma","","","","","3194","","","","","C405EF2B3A6F689059DAE08A6651B5A9E","GBP","+441162893308","","","","","","","","","","",""
"V","0","+441162893308","+448080044550","02/07/2017","17:13:49","16","","","UK Freephone","UKNFPH","3","0.000000","","","+441162893308","","CPS","Gamma","","","","","3194","","","","","C84041B902530AC3965A8B4F25517A7A6","GBP","+441162893308","","","","","","","","","","",""
"V","0","+441162893308","+448080044549","02/07/2017","17:31:07","1","","","UK Freephone","UKNFPH","3","0.000000","","","+441162893308","","CPS","Gamma","","","","","3194","","","","","C4FC4048D0CA796788ED29C1072C2E7FB","GBP","+441162893308","","","","","","","","","","",""
"V","0","+441162893308","+448080044550","02/07/2017","17:32:06","16","","","UK Freephone","UKNFPH","3","0.000000","","","+441162893308","","CPS","Gamma","","","","","3194","","","","","C81A9A6AE3137710BE552F4A2BC758369","GBP","+441162893308","","","","","","","","","","",""
"V","0","+441162893308","+448080044550","02/07/2017","17:57:19","16","","","UK Freephone","UKNFPH","3","0.000000","","","+441162893308","","CPS","Gamma","","","","","3194","","","","","CE8B6599FEEF34CFE193CD77F3328114C","GBP","+441162893308","","","","","","","","","","",""
"V","0","+441162893308","+448080044550","02/07/2017","18:22:30","16","","","UK Freephone","UKNFPH","3","0.000000","","","+441162893308","","CPS","Gamma","","","","","3194","","","","","C383D9322330FCAD709DD9D4B5E0CF71F","GBP","+441162893308","","","","","","","","","","",""
"V","0","+441162893308","+448080044550","02/07/2017","18:47:20","16","","","UK Freephone","UKNFPH","3","0.000000","","","+441162893308","","CPS","Gamma","","","","","3194","","","","","C8C3320AC1941B2F7AFB9713C9C7D561F","GBP","+441162893308","","","","","","","","","","",""
"V","0","+441162893308","+448080044550","02/07/2017","19:12:07","16","","","UK Freephone","UKNFPH","3","0.000000","","","+441162893308","","CPS","Gamma","","","","","3194","","","","","C0A8A4CF3D29325592F2270CDE9767A4F","GBP","+441162893308","","","","","","","","","","",""
"V","0","+441162893308","+448080044550","02/07/2017","19:38:17","16","","","UK Freephone","UKNFPH","3","0.000000","","","+441162893308","","CPS","Gamma","","","","","3194","","","","","C0E581174DEA276BF054DA5C2C82E0351","GBP","+441162893308","","","","","","","","","","",""
"V","0","+441162893308","+448080044550","02/07/2017","20:03:25","16","","","UK Freephone","UKNFPH","3","0.000000","","","+441162893308","","CPS","Gamma","","","","","3194","","","","","C4A811DCE90BC741167C6BED5CCE7F708","GBP","+441162893308","","","","","","","","","","",""
"V","0","+441162893308","+448080044550","02/07/2017","20:29:06","16","","","UK Freephone","UKNFPH","3","0.000000","","","+441162893308","","CPS","Gamma","","","","","3194","","","","","C5A1E69BC0653AFFE0FFC3F692D416D9D","GBP","+441162893308","","","","","","","","","","",""
"V","0","+441162893308","+448080044550","02/07/2017","20:55:06","16","","","UK Freephone","UKNFPH","3","0.000000","","","+441162893308","","CPS","Gamma","","","","","3194","","","","","C81E1361CC79B712376E7E47F04E375EA","GBP","+441162893308","","","","","","","","","","",""
"V","0","+441162893308","+448080044549","02/07/2017","21:12:12","12","","","UK Freephone","UKNFPH","3","0.000000","","","+441162893308","","CPS","Gamma","","","","","3194","","","","","C9232282F002D4BD21C10587C9FEA4E95","GBP","+441162893308","","","","","","","","","","",""
"V","0","+441162893308","+448080044549","02/07/2017","21:37:45","12","","","UK Freephone","UKNFPH","3","0.000000","","","+441162893308","","CPS","Gamma","","","","","3194","","","","","CC130DD0A4DDA3199D2BC9DFCD53F7DA1","GBP","+441162893308","","","","","","","","","","",""
"V","0","+441162893308","+448080044549","02/07/2017","22:03:24","12","","","UK Freephone","UKNFPH","3","0.000000","","","+441162893308","","CPS","Gamma","","","","","3194","","","","","C95A1DB6F8BD9FAF2A98880E7005014CF","GBP","+441162893308","","","","","","","","","","",""
"V","0","+441162893308","+448080044549","02/07/2017","22:28:11","12","","","UK Freephone","UKNFPH","3","0.000000","","","+441162893308","","CPS","Gamma","","","","","3194","","","","","CE507F64F174308CAD83643E2F76F67C6","GBP","+441162893308","","","","","","","","","","",""
"V","0","+441162893308","+448080044549","02/07/2017","22:53:11","12","","","UK Freephone","UKNFPH","3","0.000000","","","+441162893308","","CPS","Gamma","","","","","3194","","","","","C2C51B88BD697070B20E9589514B15E87","GBP","+441162893308","","","","","","","","","","",""
"V","0","+441162893308","+448080044549","02/07/2017","23:19:23","12","","","UK Freephone","UKNFPH","3","0.000000","","","+441162893308","","CPS","Gamma","","","","","3194","","","","","C8D36B2E55C2E762CA704142CDC1310F8","GBP","+441162893308","","","","","","","","","","",""
"V","0","+441162893308","+448080044549","02/07/2017","23:40:16","12","","","UK Freephone","UKNFPH","3","0.000000","","","+441162893308","","CPS","Gamma","","","","","3194","","","","","CFEB4771D082E83F7918DFD4A54B2F600","GBP","+441162893308","","","","","","","","","","",""
