"Call Type","Call Cause Definition Required","Customer Identifier","Non-Charged Party","Call Date","Call Time","Duration","Bytes Transmitted","Bytes Received","Description","Chargecode","Time Band","Salesprice","Salesprice (Pre-Bundle)","Extension","DDI","Grouping ID","Call Class (Feature)","Carrier","Recording","VAT","Country of Origin","Network","Retail Tariff Code","Remote Network","APN","Diverted Number","Ring time","Record ID","Currency","Caller Line Identity","Network Access Reference","NGCS Access Charge","NGCS Service Charge","Total Bytes Transferred","User ID","Onward Billing Reference","Contract Name","Bundle Name","Bundle Allowance","Discount Reference","Routing Code"
"N","0","+443300538880","+447903xxxxxx","28/09/2017","08:47:12","67","","","UK STOKE-ON-TRENT","UKN","1","0.009000","","","","","NT03","Gamma","","","","","3194","","","+441782898004","","S62FBB539E68C7F34380FD208BAA15D60","GBP","+443300538880","","","","","","","","","","",""
"N","0","+443300538880","+441512xxxxxx","28/09/2017","09:09:21","292","","","UK STOKE-ON-TRENT","UKN","1","0.036000","","","","","NT03","Gamma","","","","","3194","","","+441782898004","","S0a949054912dce8c257b854a54517851","GBP","+443300538880","","","","","","","","","","",""
"N","0","+443300538880","+447884xxxxxx","28/09/2017","10:10:14","223","","","UK STOKE-ON-TRENT","UKN","1","0.027000","","","","","NT03","Gamma","","","","","3194","","","+441782898004","","S3B298987113EBD1C46F0867AF941535D","GBP","+443300538880","","","","","","","","","","",""
"N","0","+443300538880","+447557xxxxxx","28/09/2017","10:22:12","90","","","UK STOKE-ON-TRENT","UKN","1","0.011000","","","","","NT03","Gamma","","","","","3194","","","+441782898004","","SF0F647414154AFE6A1ACBB0D0218DEB2","GBP","+443300538880","","","","","","","","","","",""
"N","0","+443300538880","+447557xxxxxx","28/09/2017","10:23:51","61","","","UK STOKE-ON-TRENT","UKN","1","0.008000","","","","","NT03","Gamma","","","","","3194","","","+441782898004","","S55C72B8050AF4C38502EE7E0F895197D","GBP","+443300538880","","","","","","","","","","",""
"N","0","+443300538880","+447809xxxxxx","28/09/2017","11:07:53","244","","","UK STOKE-ON-TRENT","UKN","1","0.030000","","","","","NT03","Gamma","","","","","3194","","","+441782898004","","S8DACBFED67037645A50764BEA86FBCF4","GBP","+443300538880","","","","","","","","","","",""
"N","0","+443300538880","+447809xxxxxx","28/09/2017","11:12:15","47","","","UK STOKE-ON-TRENT","UKN","1","0.006000","","","","","NT03","Gamma","","","","","3194","","","+441782898004","","SD7AB3A0B134EE91269223B386351F299","GBP","+443300538880","","","","","","","","","","",""
"N","0","+443300538880","+447477xxxxxx","28/09/2017","11:17:23","82","","","UK STOKE-ON-TRENT","UKN","1","0.010000","","","","","NT03","Gamma","","","","","3194","","","+441782898004","","S1bc73f65e18f29bb4ec7dbcf5089f1a1","GBP","+443300538880","","","","","","","","","","",""
"N","0","+443300538880","+447809xxxxxx","28/09/2017","11:24:30","95","","","UK STOKE-ON-TRENT","UKN","1","0.012000","","","","","NT03","Gamma","","","","","3194","","","+441782898004","","S91D638173372B549D08D32D830B726A4","GBP","+443300538880","","","","","","","","","","",""
"N","0","+443300539660","+447535xxxxxx","28/09/2017","11:29:42","157","","","UK LEICESTER","UKN","1","0.019000","","","","","NT03","Gamma","","","","","3194","","","+441162690770","","S86925F0E953C467D89B21F957E7C4ED0","GBP","+443300539660","","","","","","","","","","",""
"N","0","+443300538880","+441213xxxxxx","28/09/2017","11:38:09","92","","","UK STOKE-ON-TRENT","UKN","1","0.012000","","","","","NT03","Gamma","","","","","3194","","","+441782898004","","SC6ABE2E9033B8F4DE164935EE377F677","GBP","+443300538880","","","","","","","","","","",""
"N","0","+443300538880","+442038xxxxxx","28/09/2017","11:40:00","81","","","UK STOKE-ON-TRENT","UKN","1","0.010000","","","","","NT03","Gamma","","","","","3194","","","+441782898004","","S5d3b72f641e5bd93d31c0954138b0305","GBP","+443300538880","","","","","","","","","","",""
"N","0","+443300539660","+441613xxxxxx","28/09/2017","11:56:20","46","","","UK LEICESTER","UKN","1","0.006000","","","","","NT03","Gamma","","","","","3194","","","+441162690770","","S3138a2a2c28cd2517b52676ee8a95099","GBP","+443300539660","","","","","","","","","","",""
"N","0","+443300538880","+441386xxxxxx","28/09/2017","11:58:18","39","","","UK STOKE-ON-TRENT","UKN","1","0.005000","","","","","NT03","Gamma","","","","","3194","","","+441782898004","","Sfdea7d4e8e6a58c40de63538a150d499","GBP","+443300538880","","","","","","","","","","",""
"N","0","+443300538880","+441539xxxxxx","28/09/2017","12:08:02","104","","","UK STOKE-ON-TRENT","UKN","1","0.013000","","","","","NT03","Gamma","","","","","3194","","","+441782898004","","S509603ED4606DFC81541CCCEDFB4EEC0","GBP","+443300538880","","","","","","","","","","",""
"N","0","+443300539660","+277907xxxxxx","28/09/2017","12:19:12","193","","","UK LEICESTER","UKN","1","0.024000","","","","","NT03","Gamma","","","","","3194","","","+441162690770","","S56ACE1C06AEB097C3A366FAEACD2509E","GBP","+443300539660","","","","","","","","","","",""
"N","0","+443300538880","+441623xxxxxx","28/09/2017","13:01:15","150","","","UK STOKE-ON-TRENT","UKN","1","0.018000","","","","","NT03","Gamma","","","","","3194","","","+441782898004","","S6ECCF1930FA2220EEAAE33E2B26C1FE9","GBP","+443300538880","","","","","","","","","","",""
"N","0","+443300538880","+441782xxxxxx","28/09/2017","13:34:50","101","","","UK STOKE-ON-TRENT","UKN","1","0.013000","","","","","NT03","Gamma","","","","","3194","","","+441782898004","","SB2446B96589601F1257F08F430B81285","GBP","+443300538880","","","","","","","","","","",""
"N","0","+443300538880","+441782xxxxxx","28/09/2017","13:45:23","59","","","UK STOKE-ON-TRENT","UKN","1","0.008000","","","","","NT03","Gamma","","","","","3194","","","+441782898004","","SFB867247A9D219C16D03B1E5B842B1A5","GBP","+443300538880","","","","","","","","","","",""
"N","0","+443300538880","+442038xxxxxx","28/09/2017","13:59:54","132","","","UK STOKE-ON-TRENT","UKN","1","0.016000","","","","","NT03","Gamma","","","","","3194","","","+441782898004","","Sfe7f6dd1d79603bd45d5a6060581ec7a","GBP","+443300538880","","","","","","","","","","",""
"N","0","+443300537080","+448451xxxxxx","28/09/2017","14:00:56","54","","","UK LEICESTER","UKN","1","0.007000","","","","","NT03","Gamma","","","","","3194","","","+441164787427","","S3F30609E982C0CF3BFFD098050970A4A","GBP","+443300537080","","","","","","","","","","",""
"N","0","+443300538880","+441539xxxxxx","28/09/2017","14:07:19","86","","","UK STOKE-ON-TRENT","UKN","1","0.011000","","","","","NT03","Gamma","","","","","3194","","","+441782898004","","S3636587E36674E06F59995DA78BF5A4E","GBP","+443300538880","","","","","","","","","","",""
"N","0","+443300539660","+442072xxxxxx","28/09/2017","14:30:16","138","","","UK LEICESTER","UKN","1","0.017000","","","","","NT03","Gamma","","","","","3194","","","+441162690770","","S5E8BFD2ABE51FC75DE1D7F07197FFEBB","GBP","+443300539660","","","","","","","","","","",""
"N","0","+443300539660","+447774xxxxxx","28/09/2017","15:28:22","10","","","UK LEICESTER","UKN","1","0.002000","","","","","NT03","Gamma","","","","","3194","","","+441162690770","","SE7BE32C9AA208148E916EFCCA099EBD1","GBP","+443300539660","","","","","","","","","","",""
"N","0","+443300539660","+447774xxxxxx","28/09/2017","15:28:41","108","","","UK LEICESTER","UKN","1","0.013000","","","","","NT03","Gamma","","","","","3194","","","+441162690770","","S034A6B57DE1C93B98BC367E3F9A9752B","GBP","+443300539660","","","","","","","","","","",""
"N","0","+443300538880","+442392xxxxxx","28/09/2017","15:39:05","225","","","UK STOKE-ON-TRENT","UKN","1","0.027000","","","","","NT03","Gamma","","","","","3194","","","+441782898004","","SB5761AFD583C600687E70BCC04F9FB93","GBP","+443300538880","","","","","","","","","","",""
"N","0","+443300538880","+441432xxxxxx","28/09/2017","15:39:16","93","","","UK STOKE-ON-TRENT","UKN","1","0.012000","","","","","NT03","Gamma","","","","","3194","","","+441782898004","","SD53FC88DEC626B69B82E5DF8E77BDF55","GBP","+443300538880","","","","","","","","","","",""
"N","0","+443300538880","+441782xxxxxx","28/09/2017","15:50:42","65","","","UK STOKE-ON-TRENT","UKN","1","0.008000","","","","","NT03","Gamma","","","","","3194","","","+441782898004","","S424D3F1D482AD2A0FB3C4CE10CBA45B8","GBP","+443300538880","","","","","","","","","","",""
"N","0","+443300538880","+441293xxxxxx","28/09/2017","15:56:07","75","","","UK STOKE-ON-TRENT","UKN","1","0.009000","","","","","NT03","Gamma","","","","","3194","","","+441782898004","","SD00AB6CFD7EB938B7A8DA0A7847BC5A5","GBP","+443300538880","","","","","","","","","","",""
"N","0","+443300539660","+442076xxxxxx","28/09/2017","16:28:00","44","","","UK LEICESTER","UKN","1","0.006000","","","","","NT03","Gamma","","","","","3194","","","+441162690770","","SAB6211638860D012DEDAC11198494B72","GBP","+443300539660","","","","","","","","","","",""
"N","0","+443300539660","+353188xxxxxx","28/09/2017","16:44:33","187","","","UK LEICESTER","UKN","1","0.023000","","","","","NT03","Gamma","","","","","3194","","","+441162690770","","S5689A7C52508FDEE98C81C896B92E301","GBP","+443300539660","","","","","","","","","","",""
"N","0","+443300538880","+447715xxxxxx","28/09/2017","17:01:21","27","","","UK STOKE-ON-TRENT","UKN","1","0.004000","","","","","NT03","Gamma","","","","","3194","","","+441782898004","","S541A95F483CDCD3087B09A36DAD76DE9","GBP","+443300538880","","","","","","","","","","",""
