"Call Type","Call Cause Definition Required","Customer Identifier","Non-Charged Party","Call Date","Call Time","Duration","Bytes Transmitted","Bytes Received","Description","Chargecode","Time Band","Salesprice","Salesprice (Pre-Bundle)","Extension","DDI","Grouping ID","Call Class (Feature)","Carrier","Recording","VAT","Country of Origin","Network","Retail Tariff Code","Remote Network","APN","Diverted Number","Ring time","Record ID","Currency","Caller Line Identity","Network Access Reference","NGCS Access Charge","NGCS Service Charge","Total Bytes Transferred","User ID","Onward Billing Reference","Contract Name","Bundle Name","Bundle Allowance","Discount Reference","Routing Code"
"N","0","+443300538880","+441568xxxxxx","15/09/2017","07:59:28","14","","","UK STOKE-ON-TRENT","UKN","2","0.001000","","","","","NT03","Gamma","","","","","3194","","","+441782898004","","S3A2054EC4EDC79DAC0053EDE5B34A3E2","GBP","+443300538880","","","","","","","","","","",""
"N","0","+443300539660","+447768xxxxxx","15/09/2017","08:56:53","38","","","UK LEICESTER","UKN","1","0.005000","","","","","NT03","Gamma","","","","","3194","","","+441162690770","","S01513BE489D85B20772CE3B6310AE237","GBP","+443300539660","","","","","","","","","","",""
"N","0","+443300538880","+441568xxxxxx","15/09/2017","09:03:53","153","","","UK STOKE-ON-TRENT","UKN","1","0.019000","","","","","NT03","Gamma","","","","","3194","","","+441782898004","","S15316D3D7DE742B97951F8EEE0F841C6","GBP","+443300538880","","","","","","","","","","",""
"N","0","+443300538880","+441782xxxxxx","15/09/2017","09:15:06","123","","","UK STOKE-ON-TRENT","UKN","1","0.015000","","","","","NT03","Gamma","","","","","3194","","","+441782898004","","S77B8B9622A29471F72111B0DDD35D9E9","GBP","+443300538880","","","","","","","","","","",""
"N","0","+443300538880","+447741xxxxxx","15/09/2017","09:30:26","197","","","UK STOKE-ON-TRENT","UKN","1","0.024000","","","","","NT03","Gamma","","","","","3194","","","+441782898004","","SBE354693018DC063F6A0A24C9D61CA23","GBP","+443300538880","","","","","","","","","","",""
"N","0","+443300538880","+441480xxxxxx","15/09/2017","09:32:58","188","","","UK STOKE-ON-TRENT","UKN","1","0.023000","","","","","NT03","Gamma","","","","","3194","","","+441782898004","","S260E69D97AB8977C9A551639B57FDA9A","GBP","+443300538880","","","","","","","","","","",""
"N","0","+443300539660","+447794xxxxxx","15/09/2017","09:40:16","52","","","UK LEICESTER","UKN","1","0.007000","","","","","NT03","Gamma","","","","","3194","","","+441162690770","","S69E9B1EBDB287217002004C8CA58F444","GBP","+443300539660","","","","","","","","","","",""
"N","0","+443300539660","+447794xxxxxx","15/09/2017","09:41:20","219","","","UK LEICESTER","UKN","1","0.027000","","","","","NT03","Gamma","","","","","3194","","","+441162690770","","S1EADE70033EF360EA0A2679FB5DB29CB","GBP","+443300539660","","","","","","","","","","",""
"N","0","+443300538880","+447481xxxxxx","15/09/2017","09:44:10","304","","","UK STOKE-ON-TRENT","UKN","1","0.037000","","","","","NT03","Gamma","","","","","3194","","","+441782898004","","S8C760C2E8A99D4910AFF37EF634B3DF1","GBP","+443300538880","","","","","","","","","","",""
"N","0","+443300538880","+441530xxxxxx","15/09/2017","10:04:14","114","","","UK STOKE-ON-TRENT","UKN","1","0.014000","","","","","NT03","Gamma","","","","","3194","","","+441782898004","","S8E1BF02F63CC3082DA2F05C4B2CAC416","GBP","+443300538880","","","","","","","","","","",""
"N","0","+443300538880","+447495xxxxxx","15/09/2017","10:10:08","90","","","UK STOKE-ON-TRENT","UKN","1","0.011000","","","","","NT03","Gamma","","","","","3194","","","+441782898004","","SF0B1CDAC99907B47132DD2C8F275DEB5","GBP","+443300538880","","","","","","","","","","",""
"N","0","+443300538880","+442038xxxxxx","15/09/2017","10:13:26","13","","","UK STOKE-ON-TRENT","UKN","1","0.002000","","","","","NT03","Gamma","","","","","3194","","","+441782898004","","S84d5e042684942f1f3caa5c9f442f382","GBP","+443300538880","","","","","","","","","","",""
"N","0","+443300538880","+447495xxxxxx","15/09/2017","10:19:54","132","","","UK STOKE-ON-TRENT","UKN","1","0.016000","","","","","NT03","Gamma","","","","","3194","","","+441782898004","","S6E179025FA14F202D774FE196F06625B","GBP","+443300538880","","","","","","","","","","",""
"N","0","+443300538880","+442038xxxxxx","15/09/2017","10:22:34","167","","","UK STOKE-ON-TRENT","UKN","1","0.021000","","","","","NT03","Gamma","","","","","3194","","","+441782898004","","S2d28457f3be15a9a763963bc31bdd0b6","GBP","+443300538880","","","","","","","","","","",""
"N","0","+443300538880","+441782xxxxxx","15/09/2017","10:34:17","87","","","UK STOKE-ON-TRENT","UKN","1","0.011000","","","","","NT03","Gamma","","","","","3194","","","+441782898004","","S851694DA077E8A98C59EA5507CF8EB22","GBP","+443300538880","","","","","","","","","","",""
"N","0","+443300538880","+442077xxxxxx","15/09/2017","10:44:05","169","","","UK STOKE-ON-TRENT","UKN","1","0.021000","","","","","NT03","Gamma","","","","","3194","","","+441782898004","","S28E5917CF37283EE3EC77D8AE4A07708","GBP","+443300538880","","","","","","","","","","",""
"N","0","+443300538880","+441530xxxxxx","15/09/2017","10:45:34","26","","","UK STOKE-ON-TRENT","UKN","1","0.004000","","","","","NT03","Gamma","","","","","3194","","","+441782898004","","S4C3B197BDB1D53F782B8909DDD6F9AE3","GBP","+443300538880","","","","","","","","","","",""
"N","0","+443300538880","+441416xxxxxx","15/09/2017","10:46:51","141","","","UK STOKE-ON-TRENT","UKN","1","0.017000","","","","","NT03","Gamma","","","","","3194","","","+441782898004","","S44563963A601BF73E359B4DE4DBAD066","GBP","+443300538880","","","","","","","","","","",""
"N","0","+443300538880","+447741xxxxxx","15/09/2017","10:53:01","142","","","UK STOKE-ON-TRENT","UKN","1","0.018000","","","","","NT03","Gamma","","","","","3194","","","+441782898004","","S008F4577B00A7435F5627D4E94E16D4C","GBP","+443300538880","","","","","","","","","","",""
"N","0","+443300538880","+447910xxxxxx","15/09/2017","10:54:25","181","","","UK STOKE-ON-TRENT","UKN","1","0.022000","","","","","NT03","Gamma","","","","","3194","","","+441782898004","","S6461B0B3374430EF974CBE4AF3000BF1","GBP","+443300538880","","","","","","","","","","",""
"N","0","+443300538880","+441254xxxxxx","15/09/2017","11:43:38","245","","","UK STOKE-ON-TRENT","UKN","1","0.030000","","","","","NT03","Gamma","","","","","3194","","","+441782898004","","SFF2AFD349EF472454ADB1AA9BB81991E","GBP","+443300538880","","","","","","","","","","",""
"N","0","+443300538880","+447487xxxxxx","15/09/2017","11:50:19","115","","","UK STOKE-ON-TRENT","UKN","1","0.014000","","","","","NT03","Gamma","","","","","3194","","","+441782898004","","SAA1AF5636769BFAE0201D4FA8A3F3000","GBP","+443300538880","","","","","","","","","","",""
"N","0","+443300539660","+441162xxxxxx","15/09/2017","11:51:09","68","","","UK LEICESTER","UKN","1","0.009000","","","","","NT03","Gamma","","","","","3194","","","+441162690770","","S1FEA453392CC057ED73FE328B87883B7","GBP","+443300539660","","","","","","","","","","",""
"N","0","+443300538880","+441480xxxxxx","15/09/2017","11:59:04","150","","","UK STOKE-ON-TRENT","UKN","1","0.018000","","","","","NT03","Gamma","","","","","3194","","","+441782898004","","S31F520DB04BF1BD5D6DFAEF729067B74","GBP","+443300538880","","","","","","","","","","",""
"N","0","+443300538880","+447850xxxxxx","15/09/2017","12:04:10","251","","","UK STOKE-ON-TRENT","UKN","1","0.031000","","","","","NT03","Gamma","","","","","3194","","","+441782898004","","SD75F7992A5E8E7101673EE8A7C94767B","GBP","+443300538880","","","","","","","","","","",""
"N","0","+443300538880","+441506xxxxxx","15/09/2017","12:17:16","101","","","UK STOKE-ON-TRENT","UKN","1","0.013000","","","","","NT03","Gamma","","","","","3194","","","+441782898004","","SEAB43CD198A0F07A8C7830D37D60A0F4","GBP","+443300538880","","","","","","","","","","",""
"N","0","+443300538880","+447487xxxxxx","15/09/2017","12:37:00","66","","","UK STOKE-ON-TRENT","UKN","1","0.008000","","","","","NT03","Gamma","","","","","3194","","","+441782898004","","S1926C4358D72BB8993E2A6292E00D812","GBP","+443300538880","","","","","","","","","","",""
"N","0","+443300539660","+442072xxxxxx","15/09/2017","12:47:13","284","","","UK LEICESTER","UKN","1","0.035000","","","","","NT03","Gamma","","","","","3194","","","+441162690770","","SA3BEBD0BDA7C34C183175A05037299B8","GBP","+443300539660","","","","","","","","","","",""
"N","0","+443300539660","+441723xxxxxx","15/09/2017","13:08:03","91","","","UK LEICESTER","UKN","1","0.011000","","","","","NT03","Gamma","","","","","3194","","","+441162690770","","SDF8FFC77B769F9E6BFD4CA21A7B56F2D","GBP","+443300539660","","","","","","","","","","",""
"N","0","+443300538880","+447900xxxxxx","15/09/2017","13:20:22","159","","","UK STOKE-ON-TRENT","UKN","1","0.020000","","","","","NT03","Gamma","","","","","3194","","","+441782898004","","S0F855E8B41635921732D79DD6F5A1F2F","GBP","+443300538880","","","","","","","","","","",""
"N","0","+443300539660","+441227xxxxxx","15/09/2017","13:27:49","103","","","UK LEICESTER","UKN","1","0.013000","","","","","NT03","Gamma","","","","","3194","","","+441162690770","","SBADD7161BB6EE46239AC8D66C5BC6370","GBP","+443300539660","","","","","","","","","","",""
"N","0","+443300538880","+447768xxxxxx","15/09/2017","13:29:16","311","","","UK STOKE-ON-TRENT","UKN","1","0.038000","","","","","NT03","Gamma","","","","","3194","","","+441782898004","","S414570378BFCB4410158E0F30F8E5E57","GBP","+443300538880","","","","","","","","","","",""
"N","0","+443300538880","+447487xxxxxx","15/09/2017","13:29:54","187","","","UK STOKE-ON-TRENT","UKN","1","0.023000","","","","","NT03","Gamma","","","","","3194","","","+441782898004","","SBA9AFF51F1B11F45E7C4C03D1FF08B8C","GBP","+443300538880","","","","","","","","","","",""
"N","0","+443300538880","+441827xxxxxx","15/09/2017","13:33:46","101","","","UK STOKE-ON-TRENT","UKN","1","0.013000","","","","","NT03","Gamma","","","","","3194","","","+441782898004","","SC25D24BFB6E61E5DB6AB1EB7D6DB9B8E","GBP","+443300538880","","","","","","","","","","",""
"N","0","+443300538880","+447748xxxxxx","15/09/2017","13:38:15","12","","","UK STOKE-ON-TRENT","UKN","1","0.002000","","","","","NT03","Gamma","","","","","3194","","","+441782898004","","S05959bfaeb500139baa12d0ba65588f0","GBP","+443300538880","","","","","","","","","","",""
"N","0","+443300538880","+441298xxxxxx","15/09/2017","13:40:04","332","","","UK STOKE-ON-TRENT","UKN","1","0.040000","","","","","NT03","Gamma","","","","","3194","","","+441782898004","","S9D090A783A161A2CA72756B80233D03D","GBP","+443300538880","","","","","","","","","","",""
"N","0","+443300538880","+447748xxxxxx","15/09/2017","13:41:09","19","","","UK STOKE-ON-TRENT","UKN","1","0.003000","","","","","NT03","Gamma","","","","","3194","","","+441782898004","","S6ccf7ddc07d40f1f4a83e88d472c09bc","GBP","+443300538880","","","","","","","","","","",""
"N","0","+443300538880","+441768xxxxxx","15/09/2017","14:07:11","124","","","UK STOKE-ON-TRENT","UKN","1","0.015000","","","","","NT03","Gamma","","","","","3194","","","+441782898004","","SBF63D46DE4833484530B164ACE0A12DB","GBP","+443300538880","","","","","","","","","","",""
"N","0","+443300539660","+442030xxxxxx","15/09/2017","14:33:44","34","","","UK LEICESTER","UKN","1","0.005000","","","","","NT03","Gamma","","","","","3194","","","+441162690770","","S47701602FA25B5BC0B9AE0B1277E2E7B","GBP","+443300539660","","","","","","","","","","",""
"N","0","+443300538880","+447766xxxxxx","15/09/2017","15:09:53","99","","","UK STOKE-ON-TRENT","UKN","1","0.012000","","","","","NT03","Gamma","","","","","3194","","","+441782898004","","S34A24715407CC7793487460E16E95EEA","GBP","+443300538880","","","","","","","","","","",""
"N","0","+443300538880","+441386xxxxxx","15/09/2017","15:12:36","82","","","UK STOKE-ON-TRENT","UKN","1","0.010000","","","","","NT03","Gamma","","","","","3194","","","+441782898004","","S4d7e229d12897396ab07a5cfd5e3c882","GBP","+443300538880","","","","","","","","","","",""
"N","0","+443300538880","+447971xxxxxx","15/09/2017","15:15:52","25","","","UK STOKE-ON-TRENT","UKN","1","0.003000","","","","","NT03","Gamma","","","","","3194","","","+441782898004","","S92FCF774D3237E4CE087FB5E3D6B5B8D","GBP","+443300538880","","","","","","","","","","",""
"N","0","+443300539660","+442072xxxxxx","15/09/2017","16:14:11","92","","","UK LEICESTER","UKN","1","0.012000","","","","","NT03","Gamma","","","","","3194","","","+441162690770","","S2522815F6F232680BB9056DEEF53CDED","GBP","+443300539660","","","","","","","","","","",""
"N","0","+443300538880","+447971xxxxxx","15/09/2017","16:20:28","83","","","UK STOKE-ON-TRENT","UKN","1","0.010000","","","","","NT03","Gamma","","","","","3194","","","+441782898004","","S95780467F380DE03CF80E8842BB2F78B","GBP","+443300538880","","","","","","","","","","",""
"N","0","+443300538880","+447816xxxxxx","15/09/2017","16:23:38","116","","","UK STOKE-ON-TRENT","UKN","1","0.014000","","","","","NT03","Gamma","","","","","3194","","","+441782898004","","S78EBE00516CAADAD423C6B60874480EC","GBP","+443300538880","","","","","","","","","","",""
"N","0","+443300538880","+441506xxxxxx","15/09/2017","16:26:48","75","","","UK STOKE-ON-TRENT","UKN","1","0.009000","","","","","NT03","Gamma","","","","","3194","","","+441782898004","","SEA84508751774379F674B025FB227DC2","GBP","+443300538880","","","","","","","","","","",""
"N","0","+443300538880","+441506xxxxxx","15/09/2017","16:40:19","114","","","UK STOKE-ON-TRENT","UKN","1","0.014000","","","","","NT03","Gamma","","","","","3194","","","+441782898004","","SA0338524CA838A4E054F19C52DF7A3C7","GBP","+443300538880","","","","","","","","","","",""
"N","0","+443300538880","+441553xxxxxx","15/09/2017","16:44:35","6","","","UK STOKE-ON-TRENT","UKN","1","0.001000","","","","","NT03","Gamma","","","","","3194","","","+441782898004","","S945ac9029e4d4ea37905be8e9a38fc23","GBP","+443300538880","","","","","","","","","","",""
"N","0","+443300538880","+447584xxxxxx","15/09/2017","16:48:29","67","","","UK STOKE-ON-TRENT","UKN","1","0.009000","","","","","NT03","Gamma","","","","","3194","","","+441782898004","","SBC1A9626F75B76A5775D91BF5A78BA03","GBP","+443300538880","","","","","","","","","","",""
"N","0","+443300538880","+447557xxxxxx","15/09/2017","16:48:30","91","","","UK STOKE-ON-TRENT","UKN","1","0.011000","","","","","NT03","Gamma","","","","","3194","","","+441782898004","","S988BCA56D17C503364929287B9F08502","GBP","+443300538880","","","","","","","","","","",""
"N","0","+443300538880","+441553xxxxxx","15/09/2017","16:51:12","115","","","UK STOKE-ON-TRENT","UKN","1","0.014000","","","","","NT03","Gamma","","","","","3194","","","+441782898004","","S7243763759c316f4acf261844c6b3876","GBP","+443300538880","","","","","","","","","","",""
"N","0","+443300539660","+447474xxxxxx","15/09/2017","17:15:51","7","","","UK LEICESTER","UKN","1","0.001000","","","","","NT03","Gamma","","","","","3194","","","+441162690770","","S9133E1F562218FA0487B1A450945DA13","GBP","+443300539660","","","","","","","","","","",""
