"Call Type","Call Cause Definition Required","Customer Identifier","Non-Charged Party","Call Date","Call Time","Duration","Bytes Transmitted","Bytes Received","Description","Chargecode","Time Band","Salesprice","Salesprice (Pre-Bundle)","Extension","DDI","Grouping ID","Call Class (Feature)","Carrier","Recording","VAT","Country of Origin","Network","Retail Tariff Code","Remote Network","APN","Diverted Number","Ring time","Record ID","Currency","Caller Line Identity","Network Access Reference","NGCS Access Charge","NGCS Service Charge","Total Bytes Transferred","User ID","Onward Billing Reference","Contract Name","Bundle Name","Bundle Allowance","Discount Reference","Routing Code"
"V","0","DC2N17GKP43397_A1","+447495722011","27/07/2017","09:07:38","4","","","UK Mobile T Mobile","UKNFM3","1","0.000000","","","","","SIPD","Gamma","","","","","3194","","","","","CAD0FBBC141FE3D74E0F8134E76FF5FF2","GBP","+443300538880","DC2N17GKP43397_A1","","","","","","AddonDC2N17GKP43397_A1","SIP to Mobile AYCE","72000000","",""
"V","0","DC2N17GKP43397_A1","+447495722011","27/07/2017","09:12:52","24","","","UK Mobile T Mobile","UKNFM3","1","0.000000","","","","","SIPD","Gamma","","","","","3194","","","","","CE4582F9AE748022DA1CB317647DAF1E7","GBP","+443300538880","DC2N17GKP43397_A1","","","","","","AddonDC2N17GKP43397_A1","SIP to Mobile AYCE","72000000","",""
"G","0","DC2N17GKP43397_A1","+441205366833","27/07/2017","09:14:01","36","","","UK BOSTON","UKN","1","0.000000","","","","","SIPD","Gamma","","","","","3194","","","","","CAD6D2ADE07BD6DB25571C6863911DB3A","GBP","+443300538880","DC2N17GKP43397_A1","","","","","","","","","",""
"V","0","DC2N17GKP43397_A1","+447557339201","27/07/2017","09:15:35","2","","","UK Mobile Vodafone","UKNFM5","1","0.000000","","","","","SIPD","Gamma","","","","","3194","","","","","C84B8756608F71B881B96DA1F0C5E63CA","GBP","+443300538880","DC2N17GKP43397_A1","","","","","","AddonDC2N17GKP43397_A1","SIP to Mobile AYCE","72000000","",""
"G","0","DC2N17GKP43397_A1","+441434321680","27/07/2017","09:25:34","11","","","UK HALTWHISTLE","UKN","1","0.000000","","","","","SIPD","Gamma","","","","","3194","","","","","C6136766C88F508DB89B1CA093B8E5048","GBP","+443300538880","DC2N17GKP43397_A1","","","","","","","","","",""
"V","0","DC2N17GKP43397_A1","+447484777108","27/07/2017","09:27:21","30","","","UK Mobile T Mobile","UKNFM3","1","0.000000","","","","","SIPD","Gamma","","","","","3194","","","","","C0FFF0B6672B86D92F78DCBE2D8077194","GBP","+443300538880","DC2N17GKP43397_A1","","","","","","AddonDC2N17GKP43397_A1","SIP to Mobile AYCE","72000000","",""
"G","0","DC2N17GKP43397_A1","+441205461594","27/07/2017","09:42:49","5","","","UK BOSTON","UKN","1","0.000000","","","","","SIPD","Gamma","","","","","3194","","","","","C87CA6960E9734A0B236490DB8D4EA388","GBP","+443300538880","DC2N17GKP43397_A1","","","","","","","","","",""
"G","0","DC2N17COP40785_A1","+443457606060","27/07/2017","09:46:32","3","","","UK National Non Geographic","UKNNNG","1","0.000000","","","","","SIPD","Gamma","","","","","3194","","","","","CD00EEF0A815EEB2CF06DE106C6FB5BD4","GBP","+443332026365","DC2N17COP40785_A1","","","","","","","","","",""
"G","0","DC2N17GKP43397_A1","+441743718003","27/07/2017","09:47:05","17","","","UK SHREWSBURY","UKN","1","0.000000","","","","","SIPD","Gamma","","","","","3194","","","","","C16D548867F25AF8EACF1136040F129C9","GBP","+443300538880","DC2N17GKP43397_A1","","","","","","","","","",""
"V","0","DC2N17GKP43397_A1","+447943066328","27/07/2017","09:50:19","163","","","UK Mobile T Mobile","UKNFM3","1","0.000000","","","","","SIPD","Gamma","","","","","3194","","","","","C2B12EE3FF72BC69DD0C37F8BC9EE5513","GBP","+443300538880","DC2N17GKP43397_A1","","","","","","AddonDC2N17GKP43397_A1","SIP to Mobile AYCE","72000000","",""
"V","0","DC2N17GKP43397_A1","+447854549779","27/07/2017","09:53:36","7","","","UK Mobile T Mobile","UKNFM3","1","0.000000","","","","","SIPD","Gamma","","","","","3194","","","","","CDD31C4721B8E33AE206D309D6C7852B7","GBP","+443300538880","DC2N17GKP43397_A1","","","","","","AddonDC2N17GKP43397_A1","SIP to Mobile AYCE","72000000","",""
"G","0","DC2N17COP40785_A1","+443457606060","27/07/2017","09:59:06","335","","","UK National Non Geographic","UKNNNG","1","0.000000","","","","","SIPD","Gamma","","","","","3194","","","","","C38EA4CC26AB829ED3DFD54A9CBDBABF4","GBP","+443332026365","DC2N17COP40785_A1","","","","","","","","","",""
"G","0","DC2N17GKP43397_A1","+441205461594","27/07/2017","10:00:36","4","","","UK BOSTON","UKN","1","0.000000","","","","","SIPD","Gamma","","","","","3194","","","","","C93BB34579A1494261397F2CB2EC1359C","GBP","+443300538880","DC2N17GKP43397_A1","","","","","","","","","",""
"V","0","DC2N17GKP43397_A1","+447557339201","27/07/2017","10:14:31","3","","","UK Mobile Vodafone","UKNFM5","1","0.000000","","","","","SIPD","Gamma","","","","","3194","","","","","CB689E1DA932F1168C9A4A4FF4ADED914","GBP","+443300538880","DC2N17GKP43397_A1","","","","","","AddonDC2N17GKP43397_A1","SIP to Mobile AYCE","72000000","",""
"G","0","DC2N17GKP43397_A1","+441889272180","27/07/2017","10:19:30","116","","","UK RUGELY","UKN","1","0.000000","","","","","SIPD","Gamma","","","","","3194","","","","","C219FAE318675CA796D98253CD909D010","GBP","+443300538880","DC2N17GKP43397_A1","","","","","","","","","",""
"V","0","DC2N17GKP43397_A1","+447557339201","27/07/2017","10:20:46","29","","","UK Mobile Vodafone","UKNFM5","1","0.000000","","","","","SIPD","Gamma","","","","","3194","","","","","C8E2C984D328698E45D7D0CD94CFC38D9","GBP","+443300538880","DC2N17GKP43397_A1","","","","","","AddonDC2N17GKP43397_A1","SIP to Mobile AYCE","72000000","",""
"V","0","DC2N17GKP43397_A1","+447487695173","27/07/2017","11:09:30","4","","","UK Mobile Orange","UKNFM4","1","0.000000","","","","","SIPD","Gamma","","","","","3194","","","","","CEF421517C3DD19991F060A5DB0051F79","GBP","+443300538880","DC2N17GKP43397_A1","","","","","","AddonDC2N17GKP43397_A1","SIP to Mobile AYCE","72000000","",""
"V","0","DC2N17GKP43397_A1","+447487695173","27/07/2017","11:16:42","3","","","UK Mobile Orange","UKNFM4","1","0.000000","","","","","SIPD","Gamma","","","","","3194","","","","","CC0D7436E3D0F9B9158BBD510B9012A99","GBP","+443300538880","DC2N17GKP43397_A1","","","","","","AddonDC2N17GKP43397_A1","SIP to Mobile AYCE","72000000","",""
"V","0","DC2N17GKP43397_A1","+447487695173","27/07/2017","11:28:03","3","","","UK Mobile Orange","UKNFM4","1","0.000000","","","","","SIPD","Gamma","","","","","3194","","","","","CFBAE6E31C80B9D8B32B0C0BE72212F87","GBP","+443300538880","DC2N17GKP43397_A1","","","","","","AddonDC2N17GKP43397_A1","SIP to Mobile AYCE","72000000","",""
"V","0","DC2N17GKP43397_A1","+447487695173","27/07/2017","11:34:29","4","","","UK Mobile Orange","UKNFM4","1","0.000000","","","","","SIPD","Gamma","","","","","3194","","","","","C532689276BEDD3226B76AD35BAF09101","GBP","+443300538880","DC2N17GKP43397_A1","","","","","","AddonDC2N17GKP43397_A1","SIP to Mobile AYCE","72000000","",""
"G","0","DC2N17GKP43397_A1","+441205461594","27/07/2017","11:51:07","11","","","UK BOSTON","UKN","1","0.000000","","","","","SIPD","Gamma","","","","","3194","","","","","CD610DE882F389FF94A2CECEDCA49089B","GBP","+443300538880","DC2N17GKP43397_A1","","","","","","","","","",""
"V","0","DC2N17GKP43397_A1","+447741267127","27/07/2017","11:58:20","78","","","UK Mobile Vodafone","UKNFM5","1","0.000000","","","","","SIPD","Gamma","","","","","3194","","","","","C5F5AB424DE3EF7B791B8FC2E5C8FC17D","GBP","+443300538880","DC2N17GKP43397_A1","","","","","","AddonDC2N17GKP43397_A1","SIP to Mobile AYCE","72000000","",""
"V","0","DC2N17GKP43397_A1","+447487695173","27/07/2017","11:59:25","3","","","UK Mobile Orange","UKNFM4","1","0.000000","","","","","SIPD","Gamma","","","","","3194","","","","","C746DB30DDC122D26778F22983678B6A2","GBP","+443300538880","DC2N17GKP43397_A1","","","","","","AddonDC2N17GKP43397_A1","SIP to Mobile AYCE","72000000","",""
"G","0","DC2N17GKP43397_A1","+441617777423","27/07/2017","12:03:30","278","","","UK MANCHESTER","UKN","1","0.000000","","","","","SIPD","Gamma","","","","","3194","","","","","CFE2C2615B296AA24D0FD757B071E63B4","GBP","+443300538880","DC2N17GKP43397_A1","","","","","","","","","",""
"G","0","DC2N17GKP43397_A1","+441434321680","27/07/2017","12:48:22","9","","","UK HALTWHISTLE","UKN","1","0.000000","","","","","SIPD","Gamma","","","","","3194","","","","","C3B6A68E0C980F6A24A30E9CD8AFF16E6","GBP","+443300538880","DC2N17GKP43397_A1","","","","","","","","","",""
"V","0","DC2N17GKP43397_A1","+447718178267","27/07/2017","12:55:58","4","","","UK Mobile O2","UKNFM1","1","0.000000","","","","","SIPD","Gamma","","","","","3194","","","","","C7D6C6E3D5BCE620410D5A6DBE144F452","GBP","+443300538880","DC2N17GKP43397_A1","","","","","","AddonDC2N17GKP43397_A1","SIP to Mobile AYCE","72000000","",""
"G","0","DC2N17GKP43397_A1","+443332026365","27/07/2017","13:38:03","6","","","UK National Non Geographic","UKNNNG","1","0.000000","","","","","SIPD","Gamma","","","","","3194","","","","","C3E1593C1BF6A70FCC81221BFE1006286","GBP","+443300538880","DC2N17GKP43397_A1","","","","","","","","","",""
"G","0","DC2N17GKP43397_A1","+441434321680","27/07/2017","13:38:46","8","","","UK HALTWHISTLE","UKN","1","0.000000","","","","","SIPD","Gamma","","","","","3194","","","","","C6FE01588F027002B0334885548547D68","GBP","+443300538880","DC2N17GKP43397_A1","","","","","","","","","",""
"G","0","DC2N17GKP43397_A1","+441205461594","27/07/2017","13:39:23","12","","","UK BOSTON","UKN","1","0.000000","","","","","SIPD","Gamma","","","","","3194","","","","","C324CF4982F78E75FC91794A5D95F6CEA","GBP","+443300538880","DC2N17GKP43397_A1","","","","","","","","","",""
"G","0","DC2N17GKP43397_A1","+441743718003","27/07/2017","13:42:16","51","","","UK SHREWSBURY","UKN","1","0.000000","","","","","SIPD","Gamma","","","","","3194","","","","","CBC09FDBE0711E49DACA00164A67AD476","GBP","+443300538880","DC2N17GKP43397_A1","","","","","","","","","",""
"V","0","DC2N17GKP43397_A1","+447890591019","27/07/2017","14:01:38","174","","","UK Mobile T Mobile","UKNFM3","1","0.000000","","","","","SIPD","Gamma","","","","","3194","","","","","CD0A92C935A918F39571DD310F383681B","GBP","+443300538880","DC2N17GKP43397_A1","","","","","","AddonDC2N17GKP43397_A1","SIP to Mobile AYCE","72000000","",""
"G","0","DC2N17GKP43397_A1","+441434321680","27/07/2017","14:11:43","7","","","UK HALTWHISTLE","UKN","1","0.000000","","","","","SIPD","Gamma","","","","","3194","","","","","CB13DAEAF865F0679A5949A61014BC70C","GBP","+443300538880","DC2N17GKP43397_A1","","","","","","","","","",""
"V","0","DC2N17GKP43397_A1","+447718178267","27/07/2017","14:15:09","4","","","UK Mobile O2","UKNFM1","1","0.000000","","","","","SIPD","Gamma","","","","","3194","","","","","CE8101A8E0EBBEF64724A06BB97E97BFB","GBP","+443300538880","DC2N17GKP43397_A1","","","","","","AddonDC2N17GKP43397_A1","SIP to Mobile AYCE","72000000","",""
"V","0","DC2N17GKP43397_A1","+447736230675","27/07/2017","14:34:40","281","","","UK Mobile O2","UKNFM1","1","0.000000","","","","","SIPD","Gamma","","","","","3194","","","","","CE3320B4E7B9A4CD08B9A0276BAFFD944","GBP","+443300538880","DC2N17GKP43397_A1","","","","","","AddonDC2N17GKP43397_A1","SIP to Mobile AYCE","72000000","",""
"V","0","DC2N17COP40785_A1","+46702544222","27/07/2017","15:06:17","5","","","Sweden Mobile","SWEMOB","1","0.002000","","","","","SIPD","Gamma","","","","","3194","","","","","C137DEBEF053C975C1A50F7E08A2F3888","GBP","+443332026365","DC2N17COP40785_A1","","","","","","","","","",""
"V","0","DC2N17COP40785_A1","+46702544222","27/07/2017","15:07:42","11","","","Sweden Mobile","SWEMOB","1","0.003000","","","","","SIPD","Gamma","","","","","3194","","","","","CCD657ED061E3C7C573DA53BB0B5F2B11","GBP","+443332026365","DC2N17COP40785_A1","","","","","","","","","",""
"G","0","DC2N17GKP43397_A1","+441480407074","27/07/2017","15:09:32","202","","","UK HUNTINGDON","UKN","1","0.000000","","","","","SIPD","Gamma","","","","","3194","","","","","CCE4A617BC2A683858643F47892C4EA7A","GBP","+443300538880","DC2N17GKP43397_A1","","","","","","","","","",""
"G","0","DC2N17GKP43397_A1","+441233663063","27/07/2017","15:29:21","198","","","UK ASHFORD","UKN","1","0.000000","","","","","SIPD","Gamma","","","","","3194","","","","","CAC7F9D87EE7EFDCADD601B892A1BA4C9","GBP","+443300538880","DC2N17GKP43397_A1","","","","","","","","","",""
"V","0","DC2N17GKP43397_A1","+447884585312","27/07/2017","15:47:01","304","","","UK Mobile Vodafone","UKNFM5","1","0.000000","","","","","SIPD","Gamma","","","","","3194","","","","","C19561C4D363C2580B4F538ED4D8C5F0B","GBP","+443300538880","DC2N17GKP43397_A1","","","","","","AddonDC2N17GKP43397_A1","SIP to Mobile AYCE","72000000","",""
"V","0","DC2N17GKP43397_A1","+447736230675","27/07/2017","15:50:23","76","","","UK Mobile O2","UKNFM1","1","0.000000","","","","","SIPD","Gamma","","","","","3194","","","","","C3DCEAB86D0CA5957A4CA2D4DA1B8B2D2","GBP","+443300538880","DC2N17GKP43397_A1","","","","","","AddonDC2N17GKP43397_A1","SIP to Mobile AYCE","72000000","",""
"V","0","DC2N17GKP43397_A1","+447487695173","27/07/2017","15:52:23","104","","","UK Mobile Orange","UKNFM4","1","0.000000","","","","","SIPD","Gamma","","","","","3194","","","","","C3B4864E5880A9FCF6E55CE4B9C3EC679","GBP","+443300538880","DC2N17GKP43397_A1","","","","","","AddonDC2N17GKP43397_A1","SIP to Mobile AYCE","72000000","",""
"V","0","DC2N17GKP43397_A1","+447718178267","27/07/2017","15:54:28","189","","","UK Mobile O2","UKNFM1","1","0.000000","","","","","SIPD","Gamma","","","","","3194","","","","","C3A3889D89D888FAA23A7615C84BA541B","GBP","+443300538880","DC2N17GKP43397_A1","","","","","","AddonDC2N17GKP43397_A1","SIP to Mobile AYCE","72000000","",""
"V","0","DC2N17GKP43397_A1","+447971451933","27/07/2017","16:07:19","38","","","UK Mobile T Mobile","UKNFM3","1","0.000000","","","","","SIPD","Gamma","","","","","3194","","","","","C2B9C14FBC7E1ADCDED37F28E478F84D5","GBP","+443300538880","DC2N17GKP43397_A1","","","","","","AddonDC2N17GKP43397_A1","SIP to Mobile AYCE","72000000","",""
"V","0","DC2N17GKP43397_A1","+447718178267","27/07/2017","16:26:01","11","","","UK Mobile O2","UKNFM1","1","0.000000","","","","","SIPD","Gamma","","","","","3194","","","","","CBDA119160EA89D539EEE5B6CD8D87347","GBP","+443300538880","DC2N17GKP43397_A1","","","","","","AddonDC2N17GKP43397_A1","SIP to Mobile AYCE","72000000","",""
"V","0","DC2N17GKP43397_A1","+447487695173","27/07/2017","16:44:58","112","","","UK Mobile Orange","UKNFM4","1","0.000000","","","","","SIPD","Gamma","","","","","3194","","","","","C1F18A0052790708BEE2B3376EC0D2DD0","GBP","+443300538880","DC2N17GKP43397_A1","","","","","","AddonDC2N17GKP43397_A1","SIP to Mobile AYCE","72000000","",""
"V","0","DC2N17GKP43397_A1","+447718178267","27/07/2017","16:49:17","19","","","UK Mobile O2","UKNFM1","1","0.000000","","","","","SIPD","Gamma","","","","","3194","","","","","C0B8DFC797C23834577E7DA4674180C7D","GBP","+443300538880","DC2N17GKP43397_A1","","","","","","AddonDC2N17GKP43397_A1","SIP to Mobile AYCE","72000000","",""
"G","0","DC2N17GKP43397_A1","+441480407074","27/07/2017","17:01:31","7","","","UK HUNTINGDON","UKN","1","0.000000","","","","","SIPD","Gamma","","","","","3194","","","","","C1EFC817B810FF8EC971D791B1FADB7AC","GBP","+443300538880","DC2N17GKP43397_A1","","","","","","","","","",""
"G","0","DC2N17GKP43397_A1","+441480407074","27/07/2017","17:01:48","19","","","UK HUNTINGDON","UKN","1","0.000000","","","","","SIPD","Gamma","","","","","3194","","","","","CE0D9A47692DCEAA552517403A962132E","GBP","+443300538880","DC2N17GKP43397_A1","","","","","","","","","",""
"G","0","DC2N17GKP43397_A1","+441205366833","27/07/2017","17:02:27","60","","","UK BOSTON","UKN","1","0.000000","","","","","SIPD","Gamma","","","","","3194","","","","","C42EFA9BEF1A0D653EA3C609C880F6E5D","GBP","+443300538880","DC2N17GKP43397_A1","","","","","","","","","",""
"V","0","DC2N17GKP43397_A1","+447971451933","27/07/2017","17:04:52","67","","","UK Mobile T Mobile","UKNFM3","1","0.000000","","","","","SIPD","Gamma","","","","","3194","","","","","CE6D0D629BA3C341BC0732A2C2437231F","GBP","+443300538880","DC2N17GKP43397_A1","","","","","","AddonDC2N17GKP43397_A1","SIP to Mobile AYCE","72000000","",""
