"Call Type","Call Cause Definition Required","Customer Identifier","Non-Charged Party","Call Date","Call Time","Duration","Bytes Transmitted","Bytes Received","Description","Chargecode","Time Band","Salesprice","Salesprice (Pre-Bundle)","Extension","DDI","Grouping ID","Call Class (Feature)","Carrier","Recording","VAT","Country of Origin","Network","Retail Tariff Code","Remote Network","APN","Diverted Number","Ring time","Record ID","Currency","Caller Line Identity","Network Access Reference","NGCS Access Charge","NGCS Service Charge","Total Bytes Transferred","User ID","Onward Billing Reference","Contract Name","Bundle Name","Bundle Allowance","Discount Reference","Routing Code"
"V","0","DC2N17GKP43397_A1","+447557339201","21/06/2017","08:20:01","3","","","UK Mobile Vodafone","UKNFM5","1","0.000000","","","","","SIPD","Gamma","","","","","3194","","","","","CDFDEC14209352F2F13C33C23D90323AB","GBP","+443300538880","DC2N17GKP43397_A1","","","","","","AddonDC2N17GKP43397_A1","SIP to Mobile AYCE","72000000","",""
"V","0","DC2N17GKP43397_A1","+447557339201","21/06/2017","08:22:46","2","","","UK Mobile Vodafone","UKNFM5","1","0.000000","","","","","SIPD","Gamma","","","","","3194","","","","","CFFA1905EA01E97E49BE4B556264A7157","GBP","+443300538880","DC2N17GKP43397_A1","","","","","","AddonDC2N17GKP43397_A1","SIP to Mobile AYCE","72000000","",""
"G","0","DC2N17COP40785_A1","+442031762737","21/06/2017","09:09:47","98","","","UK LONDON","UKN","1","0.000000","","","","","SIPD","Gamma","","","","","3194","","","","","CB7FA0E44F30FDD43F4FCD0D6BF3DF7DB","GBP","+443332026365","DC2N17COP40785_A1","","","","","","","","","",""
"G","0","DC2N17GKP43397_A1","+441782799700","21/06/2017","09:13:04","27","","","UK STOKE-ON-TRENT","UKN","1","0.000000","","","","","SIPD","Gamma","","","","","3194","","","","","CA924AFBCBAA355CED68EDEE54438539F","GBP","+443300538880","DC2N17GKP43397_A1","","","","","","","","","",""
"V","0","DC2N17GKP43397_A1","+447787724663","21/06/2017","09:40:12","117","","","UK Mobile Vodafone","UKNFM5","1","0.000000","","","","","SIPD","Gamma","","","","","3194","","","","","CF10CB7221E8A20230DB69FAE751549D7","GBP","+443300538880","DC2N17GKP43397_A1","","","","","","AddonDC2N17GKP43397_A1","SIP to Mobile AYCE","72000000","",""
"V","0","DC2N17GKP43397_A1","+447495722011","21/06/2017","09:46:06","4","","","UK Mobile T Mobile","UKNFM3","1","0.000000","","","","","SIPD","Gamma","","","","","3194","","","","","C9D4E311F5068954A50B41CD692557A26","GBP","+443300538880","DC2N17GKP43397_A1","","","","","","AddonDC2N17GKP43397_A1","SIP to Mobile AYCE","72000000","",""
"G","0","DC2N17GKP43397_A1","+441506444255","21/06/2017","09:47:28","44","","","UK BATHGATE","UKN","1","0.000000","","","","","SIPD","Gamma","","","","","3194","","","","","CD5E9643B8FF4B29BE0DC9064E4BEC3E7","GBP","+443300538880","DC2N17GKP43397_A1","","","","","","","","","",""
"G","0","DC2N17GKP43397_A1","+441617777422","21/06/2017","09:51:28","28","","","UK MANCHESTER","UKN","1","0.000000","","","","","SIPD","Gamma","","","","","3194","","","","","C30593554A4E1BDA0F6F123997B3A0294","GBP","+443300538880","DC2N17GKP43397_A1","","","","","","","","","",""
"V","0","DC2N17COP40785_A1","+442070705453","21/06/2017","10:00:41","3671","","","Gamma Audio Conferencing","UKNGAC","1","0.000000","","","","","SIPD","Gamma","","","","","3194","","","","","CB9B5283550DEF62D7367CEC277DEFA2C","GBP","+443332026365","DC2N17COP40785_A1","","","","","","","","","",""
"V","0","DC2N17GKP43397_A1","+447487695173","21/06/2017","10:12:35","186","","","UK Mobile Orange","UKNFM4","1","0.000000","","","","","SIPD","Gamma","","","","","3194","","","","","C0A24A5D063CFF3935CB54286579D0EA3","GBP","+443300538880","DC2N17GKP43397_A1","","","","","","AddonDC2N17GKP43397_A1","SIP to Mobile AYCE","72000000","",""
"G","0","DC2N17GKP43397_A1","+441617777422","21/06/2017","10:35:36","84","","","UK MANCHESTER","UKN","1","0.000000","","","","","SIPD","Gamma","","","","","3194","","","","","C9F764600A464E717A6C9FFC1B3C2FBA7","GBP","+443300538880","DC2N17GKP43397_A1","","","","","","","","","",""
"G","0","DC2N17GKP43397_A1","+441429867478","21/06/2017","11:06:51","31","","","UK HARTLEPOOL","UKN","1","0.000000","","","","","SIPD","Gamma","","","","","3194","","","","","C21D931F8355012B2218457EDC7880C9A","GBP","+443300538880","DC2N17GKP43397_A1","","","","","","","","","",""
"V","0","DC2N17GKP43397_A1","+447495722011","21/06/2017","11:13:33","138","","","UK Mobile T Mobile","UKNFM3","1","0.000000","","","","","SIPD","Gamma","","","","","3194","","","","","CD4FD2EA81097E09ADBAACF5B62789B7F","GBP","+443300538880","DC2N17GKP43397_A1","","","","","","AddonDC2N17GKP43397_A1","SIP to Mobile AYCE","72000000","",""
"V","0","DC2N17GKP43397_A1","+447787724663","21/06/2017","11:28:40","54","","","UK Mobile Vodafone","UKNFM5","1","0.000000","","","","","SIPD","Gamma","","","","","3194","","","","","C5D7C5F86ABBB9F2BBCA753A30BCC7168","GBP","+443300538880","DC2N17GKP43397_A1","","","","","","AddonDC2N17GKP43397_A1","SIP to Mobile AYCE","72000000","",""
"G","0","DC2N17GKP43397_A1","+441213277771","21/06/2017","11:31:31","46","","","UK BIRMINGHAM","UKN","1","0.000000","","","","","SIPD","Gamma","","","","","3194","","","","","C582A1DFA35936D752FAB31C8C2FC707B","GBP","+443300538880","DC2N17GKP43397_A1","","","","","","","","","",""
"V","0","DC2N17GKP43397_A1","+447557339201","21/06/2017","11:33:59","24","","","UK Mobile Vodafone","UKNFM5","1","0.000000","","","","","SIPD","Gamma","","","","","3194","","","","","C54BA0E8C4BB7D1285075FA740E9C9BFB","GBP","+443300538880","DC2N17GKP43397_A1","","","","","","AddonDC2N17GKP43397_A1","SIP to Mobile AYCE","72000000","",""
"V","0","DC2N17GKP43397_A1","+447884585312","21/06/2017","11:36:04","265","","","UK Mobile Vodafone","UKNFM5","1","0.000000","","","","","SIPD","Gamma","","","","","3194","","","","","C75821F5A4FE344700556DEE4CCFF806A","GBP","+443300538880","DC2N17GKP43397_A1","","","","","","AddonDC2N17GKP43397_A1","SIP to Mobile AYCE","72000000","",""
"V","0","DC2N17GKP43397_A1","+447487695173","21/06/2017","11:41:10","131","","","UK Mobile Orange","UKNFM4","1","0.000000","","","","","SIPD","Gamma","","","","","3194","","","","","C71AE2922D00A0F268185AB839C1CF9AD","GBP","+443300538880","DC2N17GKP43397_A1","","","","","","AddonDC2N17GKP43397_A1","SIP to Mobile AYCE","72000000","",""
"G","0","DC2N17GKP43397_A1","+441782566665","21/06/2017","11:55:52","186","","","UK STOKE-ON-TRENT","UKN","1","0.000000","","","","","SIPD","Gamma","","","","","3194","","","","","C6A8E838411ACBD05D9B6AAD009287A81","GBP","+443300538880","DC2N17GKP43397_A1","","","","","","","","","",""
"V","0","DC2N17GKP43397_A1","+447557339201","21/06/2017","12:18:23","100","","","UK Mobile Vodafone","UKNFM5","1","0.000000","","","","","SIPD","Gamma","","","","","3194","","","","","C3D6840D11CF067692CEC15563CD94852","GBP","+443300538880","DC2N17GKP43397_A1","","","","","","AddonDC2N17GKP43397_A1","SIP to Mobile AYCE","72000000","",""
"V","0","DC2N17COP40785_A1","+448000286743","21/06/2017","12:23:51","268","","","UK Freephone","UKNFPH","1","0.000000","","","","","SIPD","Gamma","","","","","3194","","","","","C5EFD64A695B2BD2D30EF26B492FA3476","GBP","+443332026365","DC2N17COP40785_A1","","","","","","","","","",""
"V","0","DC2N17GKP43397_A1","+447718661999","21/06/2017","12:39:38","20","","","UK Mobile O2","UKNFM1","1","0.000000","","","","","SIPD","Gamma","","","","","3194","","","","","C943E47DE3666A55C71735C94F5082478","GBP","+443300538880","DC2N17GKP43397_A1","","","","","","AddonDC2N17GKP43397_A1","SIP to Mobile AYCE","72000000","",""
"V","0","DC2N17GKP43397_A1","+448000363839","21/06/2017","12:54:03","267","","","UK Freephone","UKNFPH","1","0.000000","","","","","SIPD","Gamma","","","","","3194","","","","","C51DBE3A48CA8633D2A3DFA20B9CBE036","GBP","+443300538880","DC2N17GKP43397_A1","","","","","","","","","",""
"V","0","DC2N17GKP43397_A1","+447718661999","21/06/2017","13:00:52","3","","","UK Mobile O2","UKNFM1","1","0.000000","","","","","SIPD","Gamma","","","","","3194","","","","","C86D717B9A6F5429247073F6344401E3D","GBP","+443300538880","DC2N17GKP43397_A1","","","","","","AddonDC2N17GKP43397_A1","SIP to Mobile AYCE","72000000","",""
"G","0","DC2N17GKP43397_A1","+44138641411","21/06/2017","13:25:37","79","","","UK EVESHAM","UKN","1","0.000000","","","","","SIPD","Gamma","","","","","3194","","","","","C597A5EB10DB44CC3BF1614ECA840BEC7","GBP","+443300538880","DC2N17GKP43397_A1","","","","","","","","","",""
"V","0","DC2N17GKP43397_A1","+447487695173","21/06/2017","13:27:25","1","","","UK Mobile Orange","UKNFM4","1","0.000000","","","","","SIPD","Gamma","","","","","3194","","","","","C27CEAB66817BAE1E6F27CFFA483469E2","GBP","+443300538880","DC2N17GKP43397_A1","","","","","","AddonDC2N17GKP43397_A1","SIP to Mobile AYCE","72000000","",""
"G","0","DC2N17GKP43397_A1","+441782372251","21/06/2017","13:44:45","121","","","UK STOKE-ON-TRENT","UKN","1","0.000000","","","","","SIPD","Gamma","","","","","3194","","","","","C6C47A073E4DBAC394D94454EE295E607","GBP","+443300538880","DC2N17GKP43397_A1","","","","","","","","","",""
"G","0","DC2N17COP40785_A1","+442031762737","21/06/2017","13:48:31","26","","","UK LONDON","UKN","1","0.000000","","","","","SIPD","Gamma","","","","","3194","","","","","CA871FF959712DE517A87C39229C7CDCA","GBP","+443332026365","DC2N17COP40785_A1","","","","","","","","","",""
"V","0","DC2N17GKP43397_A1","+447557339201","21/06/2017","14:10:30","154","","","UK Mobile Vodafone","UKNFM5","1","0.000000","","","","","SIPD","Gamma","","","","","3194","","","","","C2FE8F199A08FD53F531982E1CCC08418","GBP","+443300538880","DC2N17GKP43397_A1","","","","","","AddonDC2N17GKP43397_A1","SIP to Mobile AYCE","72000000","",""
"V","0","DC2N17GKP43397_A1","+447973691187","21/06/2017","14:13:51","149","","","UK Mobile T Mobile","UKNFM3","1","0.000000","","","","","SIPD","Gamma","","","","","3194","","","","","C4491461008797EF475E0DC5BE09367A9","GBP","+443300538880","DC2N17GKP43397_A1","","","","","","AddonDC2N17GKP43397_A1","SIP to Mobile AYCE","72000000","",""
"G","0","DC2N17GKP43397_A1","+441202822221","21/06/2017","14:16:40","167","","","UK BOURNEMOUTH","UKN","1","0.000000","","","","","SIPD","Gamma","","","","","3194","","","","","C0F099D4E561F16B077E2863FA55EA4B4","GBP","+443300538880","DC2N17GKP43397_A1","","","","","","","","","",""
"V","0","DC2N17GKP43397_A1","+447528173351","21/06/2017","14:20:01","66","","","UK Mobile T Mobile","UKNFM3","1","0.000000","","","","","SIPD","Gamma","","","","","3194","","","","","C97E6CD001ADB16B0749651C4ED8D8842","GBP","+443300538880","DC2N17GKP43397_A1","","","","","","AddonDC2N17GKP43397_A1","SIP to Mobile AYCE","72000000","",""
"G","0","DC2N17GKP43397_A1","+441745583000","21/06/2017","14:21:30","102","","","UK RHYL","UKN","1","0.000000","","","","","SIPD","Gamma","","","","","3194","","","","","C69389013C0E024B6B3488574D4C3034C","GBP","+443300538880","DC2N17GKP43397_A1","","","","","","","","","",""
"G","0","DC2N17COP40785_A1","+441163527223","21/06/2017","14:32:40","116","","","UK LEICESTER","UKN","1","0.000000","","","","","SIPD","Gamma","","","","","3194","","","","","C5C5031EBDF22A14C5D13868B35522829","GBP","+443332026365","DC2N17COP40785_A1","","","","","","","","","",""
"V","0","DC2N17GKP43397_A1","+447943066328","21/06/2017","14:39:01","196","","","UK Mobile T Mobile","UKNFM3","1","0.000000","","","","","SIPD","Gamma","","","","","3194","","","","","C58BF8F8942CDD47C723B2BBCBBA0760B","GBP","+443300538880","DC2N17GKP43397_A1","","","","","","AddonDC2N17GKP43397_A1","SIP to Mobile AYCE","72000000","",""
"V","0","DC2N17GKP43397_A1","+447557339201","21/06/2017","14:43:03","108","","","UK Mobile Vodafone","UKNFM5","1","0.000000","","","","","SIPD","Gamma","","","","","3194","","","","","CEF613D37D13C0E04E05285B64EE4DB00","GBP","+443300538880","DC2N17GKP43397_A1","","","","","","AddonDC2N17GKP43397_A1","SIP to Mobile AYCE","72000000","",""
"G","0","DC2N17COP40785_A1","+441163527223","21/06/2017","14:46:02","608","","","UK LEICESTER","UKN","1","0.000000","","","","","SIPD","Gamma","","","","","3194","","","","","C1758BCC5E6BC5500C25C36752CC3189B","GBP","+443332026365","DC2N17COP40785_A1","","","","","","","","","",""
"G","0","DC2N17COP40785_A1","+442031762737","21/06/2017","14:47:11","6","","","UK LONDON","UKN","1","0.000000","","","","","SIPD","Gamma","","","","","3194","","","","","C34F26D5911072C5007144BF1181F6067","GBP","+443332026365","DC2N17COP40785_A1","","","","","","","","","",""
"G","0","DC2N17COP40785_A1","+442031762737","21/06/2017","14:58:49","2","","","UK LONDON","UKN","1","0.000000","","","","","SIPD","Gamma","","","","","3194","","","","","CF98B1A698CA1CC36EA12953D4AEC8522","GBP","+443332026365","DC2N17COP40785_A1","","","","","","","","","",""
"G","0","DC2N17COP40785_A1","+442031762737","21/06/2017","14:59:31","120","","","UK LONDON","UKN","1","0.000000","","","","","SIPD","Gamma","","","","","3194","","","","","CB6767E460309E8EC77B04E53598CA8D0","GBP","+443332026365","DC2N17COP40785_A1","","","","","","","","","",""
"G","0","DC2N17GKP43397_A1","+441782799700","21/06/2017","15:19:51","75","","","UK STOKE-ON-TRENT","UKN","1","0.000000","","","","","SIPD","Gamma","","","","","3194","","","","","C432D511B7D6B4FFB0AAF28849B876968","GBP","+443300538880","DC2N17GKP43397_A1","","","","","","","","","",""
"V","0","DC2N17GKP43397_A1","+447557339201","21/06/2017","15:58:28","95","","","UK Mobile Vodafone","UKNFM5","1","0.000000","","","","","SIPD","Gamma","","","","","3194","","","","","C8DAA13462B6B2BF0F84AD22AC4B0908A","GBP","+443300538880","DC2N17GKP43397_A1","","","","","","AddonDC2N17GKP43397_A1","SIP to Mobile AYCE","72000000","",""
"V","0","DC2N17GKP43397_A1","+447557339201","21/06/2017","16:10:02","52","","","UK Mobile Vodafone","UKNFM5","1","0.000000","","","","","SIPD","Gamma","","","","","3194","","","","","C06C5677820ABE82183B16DE4EE2AC72E","GBP","+443300538880","DC2N17GKP43397_A1","","","","","","AddonDC2N17GKP43397_A1","SIP to Mobile AYCE","72000000","",""
"G","0","DC2N17GKP43397_A1","+441270626162","21/06/2017","16:41:22","203","","","UK CREWE","UKN","1","0.000000","","","","","SIPD","Gamma","","","","","3194","","","","","C1A3582D38CDB237EC289C45E7E329061","GBP","+443300538880","DC2N17GKP43397_A1","","","","","","","","","",""
