"Call Type","Call Cause Definition Required","Customer Identifier","Non-Charged Party","Call Date","Call Time","Duration","Bytes Transmitted","Bytes Received","Description","Chargecode","Time Band","Salesprice","Salesprice (Pre-Bundle)","Extension","DDI","Grouping ID","Call Class (Feature)","Carrier","Recording","VAT","Country of Origin","Network","Retail Tariff Code","Remote Network","APN","Diverted Number","Ring time","Record ID","Currency","Caller Line Identity","Network Access Reference","NGCS Access Charge","NGCS Service Charge","Total Bytes Transferred","User ID","Onward Billing Reference","Contract Name","Bundle Name","Bundle Allowance","Discount Reference","Routing Code"
"G","0","DC2N17GKP43397_A1","+441617777422","19/06/2017","09:27:19","121","","","UK MANCHESTER","UKN","1","0.000000","","","","","SIPD","Gamma","","","","","3194","","","","","CA585ED65BA4380A57836BD99807E6D1D","GBP","+443300538880","DC2N17GKP43397_A1","","","","","","","","","",""
"G","0","DC2N17COP40785_A1","+443719733000","19/06/2017","10:12:05","66","","","UK National Non Geographic","UKNNNG","1","0.000000","","","","","SIPD","Gamma","","","","","3194","","","","","C47EE8BE8D95723CF301B1860223CCF0F","GBP","+443332026365","DC2N17COP40785_A1","","","","","","","","","",""
"G","0","DC2N17COP40785_A1","+443719733000","19/06/2017","10:13:19","191","","","UK National Non Geographic","UKNNNG","1","0.000000","","","","","SIPD","Gamma","","","","","3194","","","","","CE0D2505FCAAC63C1C7FFC488E9633D03","GBP","+443332026365","DC2N17COP40785_A1","","","","","","","","","",""
"V","0","DC2N17GKP43397_A1","+447973691187","19/06/2017","10:22:13","49","","","UK Mobile T Mobile","UKNFM3","1","0.000000","","","","","SIPD","Gamma","","","","","3194","","","","","CAEC14F2D8CFB824E90B0798202E4C3A5","GBP","+443300538880","DC2N17GKP43397_A1","","","","","","AddonDC2N17GKP43397_A1","SIP to Mobile AYCE","72000000","",""
"G","0","DC2N17COP40785_A1","+442380558923","19/06/2017","10:24:51","453","","","UK SOUTHAMPTON","UKN","1","0.000000","","","","","SIPD","Gamma","","","","","3194","","","","","C1AC62D22CB0CE8822E2D5C34C614556B","GBP","+443332026365","DC2N17COP40785_A1","","","","","","","","","",""
"G","0","DC2N17GKP43397_A1","+441617777422","19/06/2017","10:32:47","33","","","UK MANCHESTER","UKN","1","0.000000","","","","","SIPD","Gamma","","","","","3194","","","","","CDDD0D459AD8731E0BE689DCDD6C7DBC2","GBP","+443300538880","DC2N17GKP43397_A1","","","","","","","","","",""
"V","0","DC2N17GKP43397_A1","+447487695173","19/06/2017","10:33:56","3","","","UK Mobile Orange","UKNFM4","1","0.000000","","","","","SIPD","Gamma","","","","","3194","","","","","C18E973A1BA5C98364942CD9B783918B3","GBP","+443300538880","DC2N17GKP43397_A1","","","","","","AddonDC2N17GKP43397_A1","SIP to Mobile AYCE","72000000","",""
"G","0","DC2N17COP40785_A1","+441256788333","19/06/2017","11:00:43","17","","","UK BASINGSTOKE","UKN","1","0.000000","","","","","SIPD","Gamma","","","","","3194","","","","","C2E8C9905003CAB29E1F0C0A9F9C8E502","GBP","+443332026365","DC2N17COP40785_A1","","","","","","","","","",""
"G","0","DC2N17COP40785_A1","+441256788333","19/06/2017","11:11:58","318","","","UK BASINGSTOKE","UKN","1","0.000000","","","","","SIPD","Gamma","","","","","3194","","","","","CF2FAF7A8F4879F8BDACDD70DBDB9133B","GBP","+443332026365","DC2N17COP40785_A1","","","","","","","","","",""
"V","0","DC2N17GKP43397_A1","+447943066328","19/06/2017","11:32:49","50","","","UK Mobile T Mobile","UKNFM3","1","0.000000","","","","","SIPD","Gamma","","","","","3194","","","","","CE35EF809E103B35790F44086C7748CBE","GBP","+443300538880","DC2N17GKP43397_A1","","","","","","AddonDC2N17GKP43397_A1","SIP to Mobile AYCE","72000000","",""
"V","0","DC2N17GKP43397_A1","+447943066328","19/06/2017","11:48:36","24","","","UK Mobile T Mobile","UKNFM3","1","0.000000","","","","","SIPD","Gamma","","","","","3194","","","","","CB363A2BDEBA10B11CDD2AD8C0089D166","GBP","+443300538880","DC2N17GKP43397_A1","","","","","","AddonDC2N17GKP43397_A1","SIP to Mobile AYCE","72000000","",""
"V","0","DC2N17GKP43397_A1","+447584255378","19/06/2017","11:49:31","18","","","UK Mobile Vodafone","UKNFM5","1","0.000000","","","","","SIPD","Gamma","","","","","3194","","","","","C6C0ABDECB99353480144CF113411799B","GBP","+443300538880","DC2N17GKP43397_A1","","","","","","AddonDC2N17GKP43397_A1","SIP to Mobile AYCE","72000000","",""
"G","0","DC2N17COP40785_A1","+443719733000","19/06/2017","12:01:08","154","","","UK National Non Geographic","UKNNNG","1","0.000000","","","","","SIPD","Gamma","","","","","3194","","","","","CF396B65DE8D880C778EEBEDE3CF49C6C","GBP","+443332026365","DC2N17COP40785_A1","","","","","","","","","",""
"G","0","DC2N17COP40785_A1","+443719733000","19/06/2017","12:08:10","292","","","UK National Non Geographic","UKNNNG","1","0.000000","","","","","SIPD","Gamma","","","","","3194","","","","","C5538B397D73ECDDDA4EA0E44AB301A55","GBP","+443332026365","DC2N17COP40785_A1","","","","","","","","","",""
"G","0","DC2N17GKP43397_A1","+442073985700","19/06/2017","12:17:14","527","","","UK LONDON","UKN","1","0.000000","","","+443300538880","","SIPD","Gamma","","","","","3194","","","","","CBD4DBDDBA2A2D1738D8F58F8ABC24C2B","GBP","+443300538880","DC2N17GKP43397_A1","","","","","","","","","",""
"V","0","DC2N17GKP43397_A1","+447557339201","19/06/2017","13:26:45","61","","","UK Mobile Vodafone","UKNFM5","1","0.000000","","","","","SIPD","Gamma","","","","","3194","","","","","C20BE4121DD00CA5E85D58EF7949EB142","GBP","+443300538880","DC2N17GKP43397_A1","","","","","","AddonDC2N17GKP43397_A1","SIP to Mobile AYCE","72000000","",""
"V","0","DC2N17GKP43397_A1","+447557339201","19/06/2017","13:28:34","145","","","UK Mobile Vodafone","UKNFM5","1","0.000000","","","","","SIPD","Gamma","","","","","3194","","","","","CFA4C338431BF3C4158CA35A63C7CDF27","GBP","+443300538880","DC2N17GKP43397_A1","","","","","","AddonDC2N17GKP43397_A1","SIP to Mobile AYCE","72000000","",""
"G","0","DC2N17COP40785_A1","+441158377242","19/06/2017","13:43:29","20","","","UK NOTTINGHAM","UKN","1","0.000000","","","","","SIPD","Gamma","","","","","3194","","","","","C5914D15B96648A8501A8C0A09DE748F9","GBP","+443332026365","DC2N17COP40785_A1","","","","","","","","","",""
"G","0","DC2N17COP40785_A1","+441158377242","19/06/2017","13:45:20","6","","","UK NOTTINGHAM","UKN","1","0.000000","","","","","SIPD","Gamma","","","","","3194","","","","","C718D719EB144A8CA7FACAB711895C0A1","GBP","+443332026365","DC2N17COP40785_A1","","","","","","","","","",""
"G","0","DC2N17COP40785_A1","+441158377242","19/06/2017","13:46:06","4","","","UK NOTTINGHAM","UKN","1","0.000000","","","","","SIPD","Gamma","","","","","3194","","","","","C80BF23E9F923C81A4A9207F60D97693F","GBP","+443332026365","DC2N17COP40785_A1","","","","","","","","","",""
"V","0","DC2N17GKP43397_A1","+447487695173","19/06/2017","14:36:10","135","","","UK Mobile Orange","UKNFM4","1","0.000000","","","","","SIPD","Gamma","","","","","3194","","","","","C9854FDD8CBF94742A66C062C2D18E754","GBP","+443300538880","DC2N17GKP43397_A1","","","","","","AddonDC2N17GKP43397_A1","SIP to Mobile AYCE","72000000","",""
"V","0","DC2N17GKP43397_A1","+447886266788","19/06/2017","15:45:14","89","","","UK Mobile Hutchison 3G","UKNFM6","1","0.000000","","","","","SIPD","Gamma","","","","","3194","","","","","CE89951B9E387BFE14045323367104B29","GBP","+443300538880","DC2N17GKP43397_A1","","","","","","AddonDC2N17GKP43397_A1","SIP to Mobile AYCE","72000000","",""
"V","0","DC2N17GKP43397_A1","+447557339201","19/06/2017","15:47:54","14","","","UK Mobile Vodafone","UKNFM5","1","0.000000","","","","","SIPD","Gamma","","","","","3194","","","","","C42C70F846B127CA1050565C6D3EE45E8","GBP","+443300538880","DC2N17GKP43397_A1","","","","","","AddonDC2N17GKP43397_A1","SIP to Mobile AYCE","72000000","",""
"G","0","DC2N17COP40785_A1","+441162615200","19/06/2017","15:52:30","174","","","UK LEICESTER","UKN","1","0.000000","","","","","SIPD","Gamma","","","","","3194","","","","","CF566A4863CE6CB5C645467269B7078A1","GBP","+443332026365","DC2N17COP40785_A1","","","","","","","","","",""
"G","0","DC2N17COP40785_A1","+441664561909","19/06/2017","15:56:32","19","","","UK MELTON MOWBRAY","UKN","1","0.000000","","","","","SIPD","Gamma","","","","","3194","","","","","CA770C21DE02BD0EEDEA1F915EC5A5337","GBP","+443332026365","DC2N17COP40785_A1","","","","","","","","","",""
"V","0","DC2N17GKP43397_A1","+447971451933","19/06/2017","16:04:36","65","","","UK Mobile T Mobile","UKNFM3","1","0.000000","","","","","SIPD","Gamma","","","","","3194","","","","","CCFF4D54A4F6FC2C45BF9E0BD7256EC23","GBP","+443300538880","DC2N17GKP43397_A1","","","","","","AddonDC2N17GKP43397_A1","SIP to Mobile AYCE","72000000","",""
"V","0","DC2N17GKP43397_A1","+447971451933","19/06/2017","16:10:39","37","","","UK Mobile T Mobile","UKNFM3","1","0.000000","","","","","SIPD","Gamma","","","","","3194","","","","","C3A37EAAF73E57C2E8FF0E1BECD141082","GBP","+443300538880","DC2N17GKP43397_A1","","","","","","AddonDC2N17GKP43397_A1","SIP to Mobile AYCE","72000000","",""
"V","0","DC2N17GKP43397_A1","+447903867516","19/06/2017","16:23:09","75","","","UK Mobile T Mobile","UKNFM3","1","0.000000","","","","","SIPD","Gamma","","","","","3194","","","","","C17B58E0EDA97A62AC1ADDD345ECFC90C","GBP","+443300538880","DC2N17GKP43397_A1","","","","","","AddonDC2N17GKP43397_A1","SIP to Mobile AYCE","72000000","",""
