"Call Type","Call Cause Definition Required","Customer Identifier","Non-Charged Party","Call Date","Call Time","Duration","Bytes Transmitted","Bytes Received","Description","Chargecode","Time Band","Salesprice","Salesprice (Pre-Bundle)","Extension","DDI","Grouping ID","Call Class (Feature)","Carrier","Recording","VAT","Country of Origin","Network","Retail Tariff Code","Remote Network","APN","Diverted Number","Ring time","Record ID","Currency","Caller Line Identity","Network Access Reference","NGCS Access Charge","NGCS Service Charge","Total Bytes Transferred","User ID","Onward Billing Reference","Contract Name","Bundle Name","Bundle Allowance","Discount Reference","Routing Code"
"N","0","+443300538880","+441246xxxxxx","21/07/2017","08:50:24","408","","","UK STOKE-ON-TRENT","UKN","1","0.049000","","","","","NT03","Gamma","","","","","3194","","","+441782898004","","S7DF19CB2C4A266A77B8C863A9898FA88","GBP","+443300538880","","","","","","","","","","",""
"N","0","+443300538880","+441249xxxxxx","21/07/2017","08:57:09","31","","","UK STOKE-ON-TRENT","UKN","1","0.004000","","","","","NT03","Gamma","","","","","3194","","","+441782898004","","S62C5414FB56CD772D2FA33BE635BEE0E","GBP","+443300538880","","","","","","","","","","",""
"N","0","+443300538880","+441782xxxxxx","21/07/2017","09:07:23","43","","","UK STOKE-ON-TRENT","UKN","1","0.006000","","","","","NT03","Gamma","","","","","3194","","","+441782898004","","SD6227B0D609393BE96D037C312E5FB3E","GBP","+443300538880","","","","","","","","","","",""
"N","0","+443300539660","+441225xxxxxx","21/07/2017","09:26:45","163","","","UK LEICESTER","UKN","1","0.020000","","","","","NT03","Gamma","","","","","3194","","","+441162690770","","S60246C7C5099FE182CC54D82F55677C4","GBP","+443300539660","","","","","","","","","","",""
"N","0","+443300538880","+447495xxxxxx","21/07/2017","10:24:56","62","","","UK STOKE-ON-TRENT","UKN","1","0.008000","","","","","NT03","Gamma","","","","","3194","","","+441782898004","","S4015BA679C34F3B0B896189993B66546","GBP","+443300538880","","","","","","","","","","",""
"N","0","+443300538880","+441412xxxxxx","21/07/2017","10:32:09","178","","","UK STOKE-ON-TRENT","UKN","1","0.022000","","","","","NT03","Gamma","","","","","3194","","","+441782898004","","S6be90589f837b451962907d39941c031","GBP","+443300538880","","","","","","","","","","",""
"N","0","+443300538880","+441412xxxxxx","21/07/2017","10:43:57","77","","","UK STOKE-ON-TRENT","UKN","1","0.010000","","","","","NT03","Gamma","","","","","3194","","","+441782898004","","Scb8dc18200838c43a786e1b827459868","GBP","+443300538880","","","","","","","","","","",""
"N","0","+443300539660","+447438xxxxxx","21/07/2017","10:44:50","410","","","UK LEICESTER","UKN","1","0.050000","","","","","NT03","Gamma","","","","","3194","","","+441162690770","","SEC328C5F3D926D27669B47F05E2272F2","GBP","+443300539660","","","","","","","","","","",""
"N","0","+443300538880","+442476xxxxxx","21/07/2017","11:10:55","143","","","UK STOKE-ON-TRENT","UKN","1","0.018000","","","","","NT03","Gamma","","","","","3194","","","+441782898004","","SEFB4A8663E23C48652E5DE505C0D2DE1","GBP","+443300538880","","","","","","","","","","",""
"N","0","+443300538880","+447877xxxxxx","21/07/2017","11:20:55","79","","","UK STOKE-ON-TRENT","UKN","1","0.010000","","","","","NT03","Gamma","","","","","3194","","","+441782898004","","S4BA2AC69742ABF5B15E59509867BD086","GBP","+443300538880","","","","","","","","","","",""
"N","0","+443300539660","+353188xxxxxx","21/07/2017","12:08:44","47","","","UK LEICESTER","UKN","1","0.006000","","","","","NT03","Gamma","","","","","3194","","","+441162690770","","S636E91AE8FD4B6BC2ECBC2ED3CA047D6","GBP","+443300539660","","","","","","","","","","",""
"N","0","+443300538880","+447487xxxxxx","21/07/2017","12:32:30","75","","","UK STOKE-ON-TRENT","UKN","1","0.009000","","","","","NT03","Gamma","","","","","3194","","","+441782898004","","S5BBC43D119D670833EF0E9204A0F2695","GBP","+443300538880","","","","","","","","","","",""
"N","0","+443300538880","+447741xxxxxx","21/07/2017","12:42:03","41","","","UK STOKE-ON-TRENT","UKN","1","0.005000","","","","","NT03","Gamma","","","","","3194","","","+441782898004","","SF791A2038CF9CECBCFAFD3AA4C382C4C","GBP","+443300538880","","","","","","","","","","",""
"N","0","+443300538880","+447495xxxxxx","21/07/2017","13:13:41","197","","","UK STOKE-ON-TRENT","UKN","1","0.024000","","","","","NT03","Gamma","","","","","3194","","","+441782898004","","S500029939C40132C1ECB9F60CB777439","GBP","+443300538880","","","","","","","","","","",""
"N","0","+443300538880","+447487xxxxxx","21/07/2017","13:33:55","70","","","UK STOKE-ON-TRENT","UKN","1","0.009000","","","","","NT03","Gamma","","","","","3194","","","+441782898004","","SFCD57D760D2F839A7530BDCDBA57E981","GBP","+443300538880","","","","","","","","","","",""
"N","0","+443300538880","+447825xxxxxx","21/07/2017","14:01:32","90","","","UK STOKE-ON-TRENT","UKN","1","0.011000","","","","","NT03","Gamma","","","","","3194","","","+441782898004","","SC038886CBB159DC0C458F5B6EB7E2725","GBP","+443300538880","","","","","","","","","","",""
"N","0","+443300539660","+447972xxxxxx","21/07/2017","14:11:05","178","","","UK LEICESTER","UKN","1","0.022000","","","","","NT03","Gamma","","","","","3194","","","+441162690770","","S554275FD8D6E858D5C47B959AB0C7A2A","GBP","+443300539660","","","","","","","","","","",""
"N","0","+443300539660","+447850xxxxxx","21/07/2017","14:13:03","143","","","UK LEICESTER","UKN","1","0.018000","","","","","NT03","Gamma","","","","","3194","","","+441162690770","","S2FCD8F6B25871D30D123264E4CABCFF0","GBP","+443300539660","","","","","","","","","","",""
"N","0","+443300538880","+441463xxxxxx","21/07/2017","15:13:15","75","","","UK STOKE-ON-TRENT","UKN","1","0.009000","","","","","NT03","Gamma","","","","","3194","","","+441782898004","","S8e1d604736fbf6944e96c8ed19a0c01d","GBP","+443300538880","","","","","","","","","","",""
"N","0","+443300538880","+447876xxxxxx","21/07/2017","16:25:40","86","","","UK STOKE-ON-TRENT","UKN","1","0.011000","","","","","NT03","Gamma","","","","","3194","","","+441782898004","","SCA6158DCA5A0E6F3502445F8A4DD31F4","GBP","+443300538880","","","","","","","","","","",""
"N","0","+443300538880","+447710xxxxxx","21/07/2017","17:05:37","165","","","UK STOKE-ON-TRENT","UKN","1","0.020000","","","","","NT03","Gamma","","","","","3194","","","+441782898004","","S6D51E340724EB0515EF9121526186177","GBP","+443300538880","","","","","","","","","","",""
