"Call Type","Call Cause Definition Required","Customer Identifier","Non-Charged Party","Call Date","Call Time","Duration","Bytes Transmitted","Bytes Received","Description","Chargecode","Time Band","Salesprice","Salesprice (Pre-Bundle)","Extension","DDI","Grouping ID","Call Class (Feature)","Carrier","Recording","VAT","Country of Origin","Network","Retail Tariff Code","Remote Network","APN","Diverted Number","Ring time","Record ID","Currency","Caller Line Identity","Network Access Reference","NGCS Access Charge","NGCS Service Charge","Total Bytes Transferred","User ID","Onward Billing Reference","Contract Name","Bundle Name","Bundle Allowance","Discount Reference","Routing Code"
"N","0","+443300538880","+441387xxxxxx","14/08/2017","08:49:19","7","","","UK STOKE-ON-TRENT","UKN","1","0.001000","","","","","NT03","Gamma","","","","","3194","","","+441782898004","","S6A886236384CA917719F79BBD7FD2826","GBP","+443300538880","","","","","","","","","","",""
"N","0","+443300538880","+441302xxxxxx","14/08/2017","08:59:27","12","","","UK STOKE-ON-TRENT","UKN","1","0.002000","","","","","NT03","Gamma","","","","","3194","","","+441782898004","","Scbc6ab71b44302cd28968cf1b3388c50","GBP","+443300538880","","","","","","","","","","",""
"N","0","+443300538880","+441302xxxxxx","14/08/2017","08:59:43","7","","","UK STOKE-ON-TRENT","UKN","1","0.001000","","","","","NT03","Gamma","","","","","3194","","","+441782898004","","See21f2d15b2aa2e3bd2d5883ed839872","GBP","+443300538880","","","","","","","","","","",""
"N","0","+443300538880","+441302xxxxxx","14/08/2017","09:00:01","5","","","UK STOKE-ON-TRENT","UKN","1","0.001000","","","","","NT03","Gamma","","","","","3194","","","+441782898004","","S98c00db266bcfff736a6c92cea35e921","GBP","+443300538880","","","","","","","","","","",""
"N","0","+443300538880","+441302xxxxxx","14/08/2017","09:01:11","49","","","UK STOKE-ON-TRENT","UKN","1","0.006000","","","","","NT03","Gamma","","","","","3194","","","+441782898004","","S317f121d0437faefdfbe30d52bc36aee","GBP","+443300538880","","","","","","","","","","",""
"N","0","+443300538880","+441387xxxxxx","14/08/2017","09:11:53","218","","","UK STOKE-ON-TRENT","UKN","1","0.027000","","","","","NT03","Gamma","","","","","3194","","","+441782898004","","S0FB5CEC6078153E60D380D9611162C60","GBP","+443300538880","","","","","","","","","","",""
"N","0","+443300538880","+353151xxxxxx","14/08/2017","09:13:01","420","","","UK STOKE-ON-TRENT","UKN","1","0.051000","","","","","NT03","Gamma","","","","","3194","","","+441782898004","","SDB706AF072DB6364218262326FAA93DD","GBP","+443300538880","","","","","","","","","","",""
"N","0","+443300538880","+441914xxxxxx","14/08/2017","09:22:06","59","","","UK STOKE-ON-TRENT","UKN","1","0.008000","","","","","NT03","Gamma","","","","","3194","","","+441782898004","","S36A9F1C0F0F440F12A4BD07275974778","GBP","+443300538880","","","","","","","","","","",""
"N","0","+443300538880","+447971xxxxxx","14/08/2017","09:27:46","221","","","UK STOKE-ON-TRENT","UKN","1","0.027000","","","","","NT03","Gamma","","","","","3194","","","+441782898004","","S210E6FD1A692EDF729531666E30F8583","GBP","+443300538880","","","","","","","","","","",""
"N","0","+443300539660","+447717xxxxxx","14/08/2017","09:41:27","333","","","UK LEICESTER","UKN","1","0.040000","","","","","NT03","Gamma","","","","","3194","","","+441162690770","","S0FB3D41471583CC1D084395D80CE45E7","GBP","+443300539660","","","","","","","","","","",""
"N","0","+443300538880","+447971xxxxxx","14/08/2017","09:46:11","306","","","UK STOKE-ON-TRENT","UKN","1","0.037000","","","","","NT03","Gamma","","","","","3194","","","+441782898004","","S983987DD46DF9A4DFFF0B5C37436B643","GBP","+443300538880","","","","","","","","","","",""
"N","0","+443300539660","+447777xxxxxx","14/08/2017","09:58:43","124","","","UK LEICESTER","UKN","1","0.015000","","","","","NT03","Gamma","","","","","3194","","","+441162690770","","S30E272CAF82FDB096126F94CEC10373C","GBP","+443300539660","","","","","","","","","","",""
"N","0","+443300539660","+447777xxxxxx","14/08/2017","10:24:51","202","","","UK LEICESTER","UKN","1","0.025000","","","","","NT03","Gamma","","","","","3194","","","+441162690770","","S9055DDF72DCB4326D5E0AA899AA6560E","GBP","+443300539660","","","","","","","","","","",""
"N","0","+443300538880","+441423xxxxxx","14/08/2017","10:47:25","58","","","UK STOKE-ON-TRENT","UKN","1","0.007000","","","","","NT03","Gamma","","","","","3194","","","+441782898004","","S7FD3BF28EBE9D8E51897759392CA458D","GBP","+443300538880","","","","","","","","","","",""
"N","0","+443300539660","+442088xxxxxx","14/08/2017","11:12:14","1066","","","UK LEICESTER","UKN","1","0.128000","","","","","NT03","Gamma","","","","","3194","","","+441162690770","","S3029699F1D0A85114DF10A77CE9276FB","GBP","+443300539660","","","","","","","","","","",""
"N","0","+443300538880","+447791xxxxxx","14/08/2017","12:16:36","290","","","UK STOKE-ON-TRENT","UKN","1","0.035000","","","","","NT03","Gamma","","","","","3194","","","+441782898004","","SD75735CDD6DEE5C81F881046B7386CFF","GBP","+443300538880","","","","","","","","","","",""
"N","0","+443300538880","+441289xxxxxx","14/08/2017","12:30:25","433","","","UK STOKE-ON-TRENT","UKN","1","0.052000","","","","","NT03","Gamma","","","","","3194","","","+441782898004","","S56E1EC2D077D38B71ACB96E3FF2C0C27","GBP","+443300538880","","","","","","","","","","",""
"N","0","+443300538880","+441289xxxxxx","14/08/2017","12:38:01","107","","","UK STOKE-ON-TRENT","UKN","1","0.013000","","","","","NT03","Gamma","","","","","3194","","","+441782898004","","S01C24F8E780AC9FC7DF698773E8DFBE7","GBP","+443300538880","","","","","","","","","","",""
"N","0","+443300539660","+442088xxxxxx","14/08/2017","13:03:37","140","","","UK LEICESTER","UKN","1","0.017000","","","","","NT03","Gamma","","","","","3194","","","+441162690770","","SB94FD9BFCA1611D191554149FC35366A","GBP","+443300539660","","","","","","","","","","",""
"N","0","+443300538880","+441387xxxxxx","14/08/2017","13:41:20","228","","","UK STOKE-ON-TRENT","UKN","1","0.028000","","","","","NT03","Gamma","","","","","3194","","","+441782898004","","SEF9C68EA3DBF63665AA1B0AF9ED70335","GBP","+443300538880","","","","","","","","","","",""
"N","0","+443300538880","+447741xxxxxx","14/08/2017","14:05:19","319","","","UK STOKE-ON-TRENT","UKN","1","0.039000","","","","","NT03","Gamma","","","","","3194","","","+441782898004","","S772C8F734840E661E66881F6CC1CE0A8","GBP","+443300538880","","","","","","","","","","",""
"N","0","+443300539660","+441530xxxxxx","14/08/2017","14:10:43","156","","","UK LEICESTER","UKN","1","0.019000","","","","","NT03","Gamma","","","","","3194","","","+441162690770","","S51B9FD25480D55F4760E1D1611B23DD7","GBP","+443300539660","","","","","","","","","","",""
"N","0","+443300538880","+447738xxxxxx","14/08/2017","14:16:05","11","","","UK STOKE-ON-TRENT","UKN","1","0.002000","","","","","NT03","Gamma","","","","","3194","","","+441782898004","","S95539DEDBBC9DC2FB345060642A25564","GBP","+443300538880","","","","","","","","","","",""
"N","0","+443300538880","+447738xxxxxx","14/08/2017","14:16:27","195","","","UK STOKE-ON-TRENT","UKN","1","0.024000","","","","","NT03","Gamma","","","","","3194","","","+441782898004","","S923C88FD8FC227F5867103DA707F2DF1","GBP","+443300538880","","","","","","","","","","",""
"N","0","+443300538880","+442077xxxxxx","14/08/2017","14:31:11","68","","","UK STOKE-ON-TRENT","UKN","1","0.009000","","","","","NT03","Gamma","","","","","3194","","","+441782898004","","S0174D751396A3009776ED859A21FA1C6","GBP","+443300538880","","","","","","","","","","",""
"N","0","+443300538880","+353212xxxxxx","14/08/2017","14:51:12","28","","","UK STOKE-ON-TRENT","UKN","1","0.004000","","","","","NT03","Gamma","","","","","3194","","","+441782898004","","Sadc1192d51299fcfd153bc4c9e26c61a","GBP","+443300538880","","","","","","","","","","",""
"N","0","+443300538880","+353212xxxxxx","14/08/2017","14:53:31","28","","","UK STOKE-ON-TRENT","UKN","1","0.004000","","","","","NT03","Gamma","","","","","3194","","","+441782898004","","S075202ddb89e159deb66fcd31ae1f836","GBP","+443300538880","","","","","","","","","","",""
"N","0","+443300539660","+442038xxxxxx","14/08/2017","14:55:05","39","","","UK LEICESTER","UKN","1","0.005000","","","","","NT03","Gamma","","","","","3194","","","+441162690770","","SA49EAACE10146E2FFC84C184296E5ADF","GBP","+443300539660","","","","","","","","","","",""
"N","0","+443300538880","+353212xxxxxx","14/08/2017","14:56:40","31","","","UK STOKE-ON-TRENT","UKN","1","0.004000","","","","","NT03","Gamma","","","","","3194","","","+441782898004","","S5048201e6312f1f79a91771ecbb977ca","GBP","+443300538880","","","","","","","","","","",""
"N","0","+443300538880","+441670xxxxxx","14/08/2017","15:07:52","139","","","UK STOKE-ON-TRENT","UKN","1","0.017000","","","","","NT03","Gamma","","","","","3194","","","+441782898004","","SD3775311ABDA39B4DB1AB5954CEBC127","GBP","+443300538880","","","","","","","","","","",""
"N","0","+443300539660","+443332xxxxxx","14/08/2017","15:29:16","34","","","UK LEICESTER","UKN","1","0.005000","","","","","NT03","Gamma","","","","","3194","","","+441162690770","","S58600F4BCFC13038A5A7BCA0F0160271","GBP","+443300539660","","","","","","","","","","",""
"N","0","+443300539660","+443332xxxxxx","14/08/2017","15:30:05","33","","","UK LEICESTER","UKN","1","0.004000","","","","","NT03","Gamma","","","","","3194","","","+441162690770","","SBAC7E1ADC61318EE82C3D8251E7BCB99","GBP","+443300539660","","","","","","","","","","",""
"N","0","+443300539660","+443332xxxxxx","14/08/2017","15:30:57","37","","","UK LEICESTER","UKN","1","0.005000","","","","","NT03","Gamma","","","","","3194","","","+441162690770","","S67BC26E5931C0FFF355A5E39C203F767","GBP","+443300539660","","","","","","","","","","",""
"N","0","+443300539660","+443332xxxxxx","14/08/2017","15:32:59","33","","","UK LEICESTER","UKN","1","0.004000","","","","","NT03","Gamma","","","","","3194","","","+441162690770","","S94147158222BDF46B8947A0ABBD744FA","GBP","+443300539660","","","","","","","","","","",""
"N","0","+443300539660","+443332xxxxxx","14/08/2017","15:33:51","55","","","UK LEICESTER","UKN","1","0.007000","","","","","NT03","Gamma","","","","","3194","","","+441162690770","","S16077A19558F061F5842CAF1D454B447","GBP","+443300539660","","","","","","","","","","",""
"N","0","+443300538880","+447741xxxxxx","14/08/2017","15:48:04","209","","","UK STOKE-ON-TRENT","UKN","1","0.026000","","","","","NT03","Gamma","","","","","3194","","","+441782898004","","S38AC5A827755E27E593D176A76203C0F","GBP","+443300538880","","","","","","","","","","",""
"N","0","+443300538880","+441825xxxxxx","14/08/2017","16:17:38","207","","","UK STOKE-ON-TRENT","UKN","1","0.025000","","","","","NT03","Gamma","","","","","3194","","","+441782898004","","S892B326AE96A075EB38838D14B1915A8","GBP","+443300538880","","","","","","","","","","",""
"N","0","+443300538880","+441242xxxxxx","14/08/2017","16:27:57","137","","","UK STOKE-ON-TRENT","UKN","1","0.017000","","","","","NT03","Gamma","","","","","3194","","","+441782898004","","S5769eb91ee8f36f355cbd0e2040c98cd","GBP","+443300538880","","","","","","","","","","",""
