"Call Type","Call Cause Definition Required","Customer Identifier","Non-Charged Party","Call Date","Call Time","Duration","Bytes Transmitted","Bytes Received","Description","Chargecode","Time Band","Salesprice","Salesprice (Pre-Bundle)","Extension","DDI","Grouping ID","Call Class (Feature)","Carrier","Recording","VAT","Country of Origin","Network","Retail Tariff Code","Remote Network","APN","Diverted Number","Ring time","Record ID","Currency","Caller Line Identity","Network Access Reference","NGCS Access Charge","NGCS Service Charge","Total Bytes Transferred","User ID","Onward Billing Reference","Contract Name","Bundle Name","Bundle Allowance","Discount Reference","Routing Code"
"V","0","DC2N17GKP43397_A1","+447970910133","26/06/2017","08:46:25","24","","","UK Mobile T Mobile","UKNFM3","1","0.000000","","","","","SIPD","Gamma","","","","","3194","","","","","C05FC03030174ABEA322C9EC77BAFBCB3","GBP","+443300538880","DC2N17GKP43397_A1","","","","","","AddonDC2N17GKP43397_A1","SIP to Mobile AYCE","72000000","",""
"V","0","DC2N17GKP43397_A1","+447528173351","26/06/2017","09:08:15","30","","","UK Mobile T Mobile","UKNFM3","1","0.000000","","","","","SIPD","Gamma","","","","","3194","","","","","C48EA6A61314DF085670C05CD022BB354","GBP","+443300538880","DC2N17GKP43397_A1","","","","","","AddonDC2N17GKP43397_A1","SIP to Mobile AYCE","72000000","",""
"G","0","DC2N17GKP43397_A1","+441638666888","26/06/2017","09:11:16","74","","","UK NEWMARKET","UKN","1","0.000000","","","","","SIPD","Gamma","","","","","3194","","","","","C03DAF2A1871AD18C3393FED1DCD0451D","GBP","+443300538880","DC2N17GKP43397_A1","","","","","","","","","",""
"G","0","DC2N17COP40785_A1","+441162515558","26/06/2017","09:43:27","21","","","UK LEICESTER","UKN","1","0.000000","","","","","SIPD","Gamma","","","","","3194","","","","","C90719B5067DC35E49EB8B990F0BAF9DF","GBP","+443332026365","DC2N17COP40785_A1","","","","","","","","","",""
"V","0","DC2N17COP40785_A1","+447415411067","26/06/2017","09:44:34","5","","","UK Mobile T Mobile","UKNFM3","1","0.000000","","","","","SIPD","Gamma","","","","","3194","","","","","C35040412C7EA6C03396968C5AB18CD01","GBP","+443332026365","DC2N17COP40785_A1","","","","","","AddonDC2N17COP40785_A1","SIP to Mobile AYCE","72000000","",""
"V","0","DC2N17GKP43397_A1","+447487695173","26/06/2017","09:50:44","3","","","UK Mobile Orange","UKNFM4","1","0.000000","","","","","SIPD","Gamma","","","","","3194","","","","","CA8CDD9D5C5108BED1B0410B20A37F0BF","GBP","+443300538880","DC2N17GKP43397_A1","","","","","","AddonDC2N17GKP43397_A1","SIP to Mobile AYCE","72000000","",""
"V","0","DC2N17COP40785_A1","+447958565955","26/06/2017","10:03:02","44","","","UK Mobile T Mobile","UKNFM3","1","0.000000","","","","","SIPD","Gamma","","","","","3194","","","","","CBA2AFD6D6E1289E148064A33F91497D7","GBP","+443332026365","DC2N17COP40785_A1","","","","","","AddonDC2N17COP40785_A1","SIP to Mobile AYCE","72000000","",""
"V","0","DC2N17GKP43397_A1","+447876493772","26/06/2017","10:18:31","24","","","UK Mobile Vodafone","UKNFM5","1","0.000000","","","","","SIPD","Gamma","","","","","3194","","","","","C86D882C37C0A6255E401481AD9AEF065","GBP","+443300538880","DC2N17GKP43397_A1","","","","","","AddonDC2N17GKP43397_A1","SIP to Mobile AYCE","72000000","",""
"V","0","DC2N17GKP43397_A1","+447787724663","26/06/2017","10:18:41","8","","","UK Mobile Vodafone","UKNFM5","1","0.000000","","","","","SIPD","Gamma","","","","","3194","","","","","CBC29567E20E9F6D8F4F0BCD70876C440","GBP","+443300538880","DC2N17GKP43397_A1","","","","","","AddonDC2N17GKP43397_A1","SIP to Mobile AYCE","72000000","",""
"G","0","DC2N17COP40785_A1","+441509631650","26/06/2017","10:20:33","343","","","UK LOUGHBOROUGH","UKN","1","0.000000","","","","","SIPD","Gamma","","","","","3194","","","","","C21119F7B04E4E5D083C73F6655CBE5A6","GBP","+443332026365","DC2N17COP40785_A1","","","","","","","","","",""
"V","0","DC2N17GKP43397_A1","+447876493772","26/06/2017","10:53:22","5","","","UK Mobile Vodafone","UKNFM5","1","0.000000","","","","","SIPD","Gamma","","","","","3194","","","","","C4401FF609434AB7982CDC17BFE55F85C","GBP","+443300538880","DC2N17GKP43397_A1","","","","","","AddonDC2N17GKP43397_A1","SIP to Mobile AYCE","72000000","",""
"V","0","DC2N17GKP43397_A1","+447876493772","26/06/2017","10:59:35","3","","","UK Mobile Vodafone","UKNFM5","1","0.000000","","","","","SIPD","Gamma","","","","","3194","","","","","CADB1265BA015CD623DBADF8A9E139086","GBP","+443300538880","DC2N17GKP43397_A1","","","","","","AddonDC2N17GKP43397_A1","SIP to Mobile AYCE","72000000","",""
"V","0","DC2N17GKP43397_A1","+447741267127","26/06/2017","11:15:10","152","","","UK Mobile Vodafone","UKNFM5","1","0.000000","","","","","SIPD","Gamma","","","","","3194","","","","","C0C7F055C97C42925D0190C733B59FD65","GBP","+443300538880","DC2N17GKP43397_A1","","","","","","AddonDC2N17GKP43397_A1","SIP to Mobile AYCE","72000000","",""
"V","0","DC2N17GKP43397_A1","+447584255378","26/06/2017","11:26:10","209","","","UK Mobile Vodafone","UKNFM5","1","0.000000","","","","","SIPD","Gamma","","","","","3194","","","","","CF15BCF6C06DAF9138BD6C17CE0E00E81","GBP","+443300538880","DC2N17GKP43397_A1","","","","","","AddonDC2N17GKP43397_A1","SIP to Mobile AYCE","72000000","",""
"V","0","DC2N17GKP43397_A1","+447741267127","26/06/2017","11:34:40","84","","","UK Mobile Vodafone","UKNFM5","1","0.000000","","","","","SIPD","Gamma","","","","","3194","","","","","C6A2CD518B6A374CDB031461036A16EA8","GBP","+443300538880","DC2N17GKP43397_A1","","","","","","AddonDC2N17GKP43397_A1","SIP to Mobile AYCE","72000000","",""
"V","0","DC2N17GKP43397_A1","+492557939321","26/06/2017","11:55:52","26","","","Germany","GER","1","0.005000","","","","","SIPD","Gamma","","","","","3194","","","","","CD3EF1E71C9B6E9037954C92D9FC2F89C","GBP","+443300538880","DC2N17GKP43397_A1","","","","","","","","","",""
"G","0","DC2N17GKP43397_A1","+441746766290","26/06/2017","11:58:26","112","","","UK BRIDGNORTH","UKN","1","0.000000","","","","","SIPD","Gamma","","","","","3194","","","","","C7B47A1B2F5C6DA7A94F311BCBF848CF0","GBP","+443300538880","DC2N17GKP43397_A1","","","","","","","","","",""
"V","0","DC2N17GKP43397_A1","+447943066328","26/06/2017","13:05:10","3","","","UK Mobile T Mobile","UKNFM3","1","0.000000","","","","","SIPD","Gamma","","","","","3194","","","","","CAA51A1A85F19680CF64A97AE7ECB51E4","GBP","+443300538880","DC2N17GKP43397_A1","","","","","","AddonDC2N17GKP43397_A1","SIP to Mobile AYCE","72000000","",""
"V","0","DC2N17COP40785_A1","+447415411067","26/06/2017","13:42:23","101","","","UK Mobile T Mobile","UKNFM3","1","0.000000","","","","","SIPD","Gamma","","","","","3194","","","","","CE6828446DA789363B407EC93FF764F24","GBP","+443332026365","DC2N17COP40785_A1","","","","","","AddonDC2N17COP40785_A1","SIP to Mobile AYCE","72000000","",""
"V","0","DC2N17COP40785_A1","+447415411067","26/06/2017","13:45:05","8","","","UK Mobile T Mobile","UKNFM3","1","0.000000","","","","","SIPD","Gamma","","","","","3194","","","","","CBE0DCFC5767189A05D1609D4F6555247","GBP","+443332026365","DC2N17COP40785_A1","","","","","","AddonDC2N17COP40785_A1","SIP to Mobile AYCE","72000000","",""
"V","0","DC2N17COP40785_A1","+447415411067","26/06/2017","13:45:58","5","","","UK Mobile T Mobile","UKNFM3","1","0.000000","","","","","SIPD","Gamma","","","","","3194","","","","","CA8B063E852F0565D2F0DD4B1C53C40B0","GBP","+443332026365","DC2N17COP40785_A1","","","","","","AddonDC2N17COP40785_A1","SIP to Mobile AYCE","72000000","",""
"V","0","DC2N17COP40785_A1","+447415411067","26/06/2017","13:46:33","21","","","UK Mobile T Mobile","UKNFM3","1","0.000000","","","","","SIPD","Gamma","","","","","3194","","","","","C2BFA7E6226255E3FD4BD9A5AAF0FB997","GBP","+443332026365","DC2N17COP40785_A1","","","","","","AddonDC2N17COP40785_A1","SIP to Mobile AYCE","72000000","",""
"V","0","DC2N17COP40785_A1","+447415411067","26/06/2017","13:47:22","6","","","UK Mobile T Mobile","UKNFM3","1","0.000000","","","","","SIPD","Gamma","","","","","3194","","","","","C6667FC2A09C85AA462610E30AE07A530","GBP","+443332026365","DC2N17COP40785_A1","","","","","","AddonDC2N17COP40785_A1","SIP to Mobile AYCE","72000000","",""
"G","0","DC2N17GKP43397_A1","+44138641411","26/06/2017","14:03:49","203","","","UK EVESHAM","UKN","1","0.000000","","","","","SIPD","Gamma","","","","","3194","","","","","C9DACC505A9801D84F5929B4A5216217C","GBP","+443300538880","DC2N17GKP43397_A1","","","","","","","","","",""
"G","0","DC2N17COP40785_A1","+443332026365","26/06/2017","14:12:38","12","","","UK National Non Geographic","UKNNNG","1","0.000000","","","","","SIPD","Gamma","","","","","3194","","","","","CEB7D6723C674E460313CC0E97E8B2C86","GBP","+443332026365","DC2N17COP40785_A1","","","","","","","","","",""
"G","0","DC2N17COP40785_A1","+441162556022","26/06/2017","14:15:27","830","","","UK LEICESTER","UKN","1","0.000000","","","","","SIPD","Gamma","","","","","3194","","","","","C892795EE0D417E8865D7C54851F084FF","GBP","+443332026365","DC2N17COP40785_A1","","","","","","","","","",""
"V","0","DC2N17GKP43397_A1","+447557339201","26/06/2017","14:18:02","109","","","UK Mobile Vodafone","UKNFM5","1","0.000000","","","","","SIPD","Gamma","","","","","3194","","","","","C83D2330B3BB5A3F2C2F5EFFB518DF64A","GBP","+443300538880","DC2N17GKP43397_A1","","","","","","AddonDC2N17GKP43397_A1","SIP to Mobile AYCE","72000000","",""
"V","0","DC2N17GKP43397_A1","+447837642415","26/06/2017","14:20:27","25","","","UK Mobile T Mobile","UKNFM3","1","0.000000","","","","","SIPD","Gamma","","","","","3194","","","","","CBF2948698E7909FA3A64FEFE42F7D6C2","GBP","+443300538880","DC2N17GKP43397_A1","","","","","","AddonDC2N17GKP43397_A1","SIP to Mobile AYCE","72000000","",""
"G","0","DC2N17GKP43397_A1","+441782381340","26/06/2017","14:59:36","82","","","UK STOKE-ON-TRENT","UKN","1","0.000000","","","","","SIPD","Gamma","","","","","3194","","","","","C619A73CBAD011368BD1EE86B4F465753","GBP","+443300538880","DC2N17GKP43397_A1","","","","","","","","","",""
"V","0","DC2N17GKP43397_A1","+447971451933","26/06/2017","15:05:00","19","","","UK Mobile T Mobile","UKNFM3","1","0.000000","","","","","SIPD","Gamma","","","","","3194","","","","","C6E5C4355BEE749A395E839AB487C9160","GBP","+443300538880","DC2N17GKP43397_A1","","","","","","AddonDC2N17GKP43397_A1","SIP to Mobile AYCE","72000000","",""
"G","0","DC2N17GKP43397_A1","+441782381340","26/06/2017","15:13:07","219","","","UK STOKE-ON-TRENT","UKN","1","0.000000","","","","","SIPD","Gamma","","","","","3194","","","","","CF105DA5B4567BFCCBDA18706E492DC4A","GBP","+443300538880","DC2N17GKP43397_A1","","","","","","","","","",""
"V","0","DC2N17COP40785_A1","+448005200729","26/06/2017","15:15:06","159","","","UK Freephone","UKNFPH","1","0.000000","","","","","SIPD","Gamma","","","","","3194","","","","","C098A016ACB9E02B65EF8664C1721A357","GBP","+443332026365","DC2N17COP40785_A1","","","","","","","","","",""
"G","0","DC2N17GKP43397_A1","+441434700050","26/06/2017","15:17:46","56","","","UK HEXHAM","UKN","1","0.000000","","","","","SIPD","Gamma","","","","","3194","","","","","C5F72D66288A2E010041F682671607DB0","GBP","+443300538880","DC2N17GKP43397_A1","","","","","","","","","",""
"G","0","DC2N17COP40785_A1","+441455233944","26/06/2017","15:18:20","45","","","UK HINCKLEY","UKN","1","0.000000","","","","","SIPD","Gamma","","","","","3194","","","","","CE6AF90DFA30DB0A4F04C64DE46D91958","GBP","+443332026365","DC2N17COP40785_A1","","","","","","","","","",""
"V","0","DC2N17GKP43397_A1","+447741267127","26/06/2017","15:51:26","124","","","UK Mobile Vodafone","UKNFM5","1","0.000000","","","","","SIPD","Gamma","","","","","3194","","","","","CCE9F2FECD499831136608082CBA46527","GBP","+443300538880","DC2N17GKP43397_A1","","","","","","AddonDC2N17GKP43397_A1","SIP to Mobile AYCE","72000000","",""
"V","0","DC2N17GKP43397_A1","+447971451933","26/06/2017","16:15:01","88","","","UK Mobile T Mobile","UKNFM3","1","0.000000","","","","","SIPD","Gamma","","","","","3194","","","","","C5D5B823F6BCE1F83D17A9329A323FE71","GBP","+443300538880","DC2N17GKP43397_A1","","","","","","AddonDC2N17GKP43397_A1","SIP to Mobile AYCE","72000000","",""
"G","0","DC2N17GKP43397_A1","+441432882167","26/06/2017","16:17:25","128","","","UK HEREFORD","UKN","1","0.000000","","","","","SIPD","Gamma","","","","","3194","","","","","C24D1061C0F1570C2FCB4DE8B9C07F3C3","GBP","+443300538880","DC2N17GKP43397_A1","","","","","","","","","",""
"V","0","DC2N17GKP43397_A1","+447971451933","26/06/2017","16:18:34","37","","","UK Mobile T Mobile","UKNFM3","1","0.000000","","","","","SIPD","Gamma","","","","","3194","","","","","CD232F9297F84488EEA4EEED6C3E7D418","GBP","+443300538880","DC2N17GKP43397_A1","","","","","","AddonDC2N17GKP43397_A1","SIP to Mobile AYCE","72000000","",""
