"Call Type","Call Cause Definition Required","Customer Identifier","Non-Charged Party","Call Date","Call Time","Duration","Bytes Transmitted","Bytes Received","Description","Chargecode","Time Band","Salesprice","Salesprice (Pre-Bundle)","Extension","DDI","Grouping ID","Call Class (Feature)","Carrier","Recording","VAT","Country of Origin","Network","Retail Tariff Code","Remote Network","APN","Diverted Number","Ring time","Record ID","Currency","Caller Line Identity","Network Access Reference","NGCS Access Charge","NGCS Service Charge","Total Bytes Transferred","User ID","Onward Billing Reference","Contract Name","Bundle Name","Bundle Allowance","Discount Reference","Routing Code"
"N","0","+443300538880","+447557xxxxxx","23/08/2017","08:24:23","15","","","UK STOKE-ON-TRENT","UKN","1","0.002000","","","","","NT03","Gamma","","","","","3194","","","+441782898004","","S44F9BE17CFEEEF8F42226632116B6A00","GBP","+443300538880","","","","","","","","","","",""
"N","0","+443300538880","+447971xxxxxx","23/08/2017","08:43:03","16","","","UK STOKE-ON-TRENT","UKN","1","0.002000","","","","","NT03","Gamma","","","","","3194","","","+441782898004","","S4A14A9438B1D06CA61B85B758E7EEA66","GBP","+443300538880","","","","","","","","","","",""
"N","0","+443300538880","+447741xxxxxx","23/08/2017","09:08:01","183","","","UK STOKE-ON-TRENT","UKN","1","0.022000","","","","","NT03","Gamma","","","","","3194","","","+441782898004","","SE7AB77AAFD3814C7A0DB18D9C43CC765","GBP","+443300538880","","","","","","","","","","",""
"N","0","+443300538880","+447787xxxxxx","23/08/2017","09:24:49","114","","","UK STOKE-ON-TRENT","UKN","1","0.014000","","","","","NT03","Gamma","","","","","3194","","","+441782898004","","S990D6A2FDCE967CDB9961211528760DA","GBP","+443300538880","","","","","","","","","","",""
"N","0","+443300539660","+447904xxxxxx","23/08/2017","09:38:59","65","","","UK LEICESTER","UKN","1","0.008000","","","","","NT03","Gamma","","","","","3194","","","+441162690770","","SDFF76BEBE4D542ABA472BFCE7F47ABA9","GBP","+443300539660","","","","","","","","","","",""
"N","0","+443300539660","+441234xxxxxx","23/08/2017","09:44:44","135","","","UK LEICESTER","UKN","1","0.017000","","","","","NT03","Gamma","","","","","3194","","","+441162690770","","S9C5D36F46DA2565A6E28BF94127B8367","GBP","+443300539660","","","","","","","","","","",""
"N","0","+443300539660","+447949xxxxxx","23/08/2017","09:48:30","177","","","UK LEICESTER","UKN","1","0.022000","","","","","NT03","Gamma","","","","","3194","","","+441162690770","","S6283F11BE6E475D96512A4F3E467F580","GBP","+443300539660","","","","","","","","","","",""
"N","0","+443300539660","+441489xxxxxx","23/08/2017","11:08:52","37","","","UK LEICESTER","UKN","1","0.005000","","","","","NT03","Gamma","","","","","3194","","","+441162690770","","Sed16d8107acd83724c644012dff65c35","GBP","+443300539660","","","","","","","","","","",""
"N","0","+443300539660","+441489xxxxxx","23/08/2017","11:10:59","127","","","UK LEICESTER","UKN","1","0.016000","","","","","NT03","Gamma","","","","","3194","","","+441162690770","","Sedfab76e605d729955f0a806696e8e9d","GBP","+443300539660","","","","","","","","","","",""
"N","0","+443300539660","+441873xxxxxx","23/08/2017","11:48:31","14","","","UK LEICESTER","UKN","1","0.002000","","","","","NT03","Gamma","","","","","3194","","","+441162690770","","S62507C7A5A18670AEFD3B072891C1E2D","GBP","+443300539660","","","","","","","","","","",""
"N","0","+443300538880","+441844xxxxxx","23/08/2017","12:12:19","147","","","UK STOKE-ON-TRENT","UKN","1","0.018000","","","","","NT03","Gamma","","","","","3194","","","+441782898004","","SD9CB78FC7C5944032F63BFB0A2AD4467","GBP","+443300538880","","","","","","","","","","",""
"N","0","+443300538880","+441531xxxxxx","23/08/2017","12:16:28","74","","","UK STOKE-ON-TRENT","UKN","1","0.009000","","","","","NT03","Gamma","","","","","3194","","","+441782898004","","S508DA3B23B2A516AD92BEE34EC7BC5F1","GBP","+443300538880","","","","","","","","","","",""
"N","0","+443300538880","+447495xxxxxx","23/08/2017","12:18:26","175","","","UK STOKE-ON-TRENT","UKN","1","0.021000","","","","","NT03","Gamma","","","","","3194","","","+441782898004","","S84D11B785ABEC492D3BDB85CB93EC2E7","GBP","+443300538880","","","","","","","","","","",""
"N","0","+443300538880","+447779xxxxxx","23/08/2017","12:25:42","102","","","UK STOKE-ON-TRENT","UKN","1","0.013000","","","","","NT03","Gamma","","","","","3194","","","+441782898004","","SD8364BF84C7696256FC3DBEF8981AC2E","GBP","+443300538880","","","","","","","","","","",""
"N","0","+443300538880","+441782xxxxxx","23/08/2017","13:10:07","280","","","UK STOKE-ON-TRENT","UKN","1","0.034000","","","","","NT03","Gamma","","","","","3194","","","+441782898004","","SE3EC2C2DC0717A9F536602199A2879F9","GBP","+443300538880","","","","","","","","","","",""
"N","0","+443300539660","+447539xxxxxx","23/08/2017","13:11:18","19","","","UK LEICESTER","UKN","1","0.003000","","","","","NT03","Gamma","","","","","3194","","","+441162690770","","SC699373F1582080FC296C1EDA1B8C7B4","GBP","+443300539660","","","","","","","","","","",""
"N","0","+443300539660","+447539xxxxxx","23/08/2017","13:12:01","114","","","UK LEICESTER","UKN","1","0.014000","","","","","NT03","Gamma","","","","","3194","","","+441162690770","","S00B0D34254AC79EBA047033DBB530B41","GBP","+443300539660","","","","","","","","","","",""
"N","0","+443300538880","+441782xxxxxx","23/08/2017","13:27:19","173","","","UK STOKE-ON-TRENT","UKN","1","0.021000","","","","","NT03","Gamma","","","","","3194","","","+441782898004","","S4CD3E051446ACC3854D3F2EEBF28CCD4","GBP","+443300538880","","","","","","","","","","",""
"N","0","+443300538880","+447495xxxxxx","23/08/2017","13:33:02","163","","","UK STOKE-ON-TRENT","UKN","1","0.020000","","","","","NT03","Gamma","","","","","3194","","","+441782898004","","S00B590A3E6865A9C1F99E041AE726B3D","GBP","+443300538880","","","","","","","","","","",""
"N","0","+443300538880","+441908xxxxxx","23/08/2017","13:44:44","199","","","UK STOKE-ON-TRENT","UKN","1","0.024000","","","","","NT03","Gamma","","","","","3194","","","+441782898004","","SB5AF2ADE20622737E682DBA7FF0BD1E4","GBP","+443300538880","","","","","","","","","","",""
"N","0","+443300538880","+441617xxxxxx","23/08/2017","14:24:45","69","","","UK STOKE-ON-TRENT","UKN","1","0.009000","","","","","NT03","Gamma","","","","","3194","","","+441782898004","","S27902A72F945429CD095951D2EBC0CF5","GBP","+443300538880","","","","","","","","","","",""
"N","0","+443300539660","+441934xxxxxx","23/08/2017","14:32:31","67","","","UK LEICESTER","UKN","1","0.009000","","","","","NT03","Gamma","","","","","3194","","","+441162690770","","SAF57399A57C08AF9F92577DD39717F58","GBP","+443300539660","","","","","","","","","","",""
"N","0","+443300538880","+441617xxxxxx","23/08/2017","14:48:01","59","","","UK STOKE-ON-TRENT","UKN","1","0.008000","","","","","NT03","Gamma","","","","","3194","","","+441782898004","","SD512DA175F799EA2C679D3A99162B66B","GBP","+443300538880","","","","","","","","","","",""
"N","0","+443300538880","+442033xxxxxx","23/08/2017","14:52:49","67","","","UK STOKE-ON-TRENT","UKN","1","0.009000","","","","","NT03","Gamma","","","","","3194","","","+441782898004","","Saa4af9f21526688a079faa922ca3712c","GBP","+443300538880","","","","","","","","","","",""
"N","0","+443300539660","+441825xxxxxx","23/08/2017","15:09:09","161","","","UK LEICESTER","UKN","1","0.020000","","","","","NT03","Gamma","","","","","3194","","","+441162690770","","S25DE24EBD0706CAA745314D832402309","GBP","+443300539660","","","","","","","","","","",""
"N","0","+443300538880","+441617xxxxxx","23/08/2017","15:11:58","141","","","UK STOKE-ON-TRENT","UKN","1","0.017000","","","","","NT03","Gamma","","","","","3194","","","+441782898004","","SF4CB4DA23F32165BF4CA9CB44674C3D4","GBP","+443300538880","","","","","","","","","","",""
"N","0","+443300538880","+441302xxxxxx","23/08/2017","16:01:02","225","","","UK STOKE-ON-TRENT","UKN","1","0.027000","","","","","NT03","Gamma","","","","","3194","","","+441782898004","","S4032cae24b344dfc4c571e591bc39395","GBP","+443300538880","","","","","","","","","","",""
"N","0","+443300538880","+447971xxxxxx","23/08/2017","16:22:22","56","","","UK STOKE-ON-TRENT","UKN","1","0.007000","","","","","NT03","Gamma","","","","","3194","","","+441782898004","","S62AADACF9388B094E96422412073CE05","GBP","+443300538880","","","","","","","","","","",""
"N","0","+443300539660","+447747xxxxxx","23/08/2017","16:26:30","162","","","UK LEICESTER","UKN","1","0.020000","","","","","NT03","Gamma","","","","","3194","","","+441162690770","","S28DDA9E78486742C446032A30C7B4159","GBP","+443300539660","","","","","","","","","","",""
"N","0","+443300538880","+443332xxxxxx","23/08/2017","17:02:19","13","","","UK STOKE-ON-TRENT","UKN","1","0.002000","","","","","NT03","Gamma","","","","","3194","","","+441782898004","","S0B10DD41E09B146AEAED6FC9AF5A4D9F","GBP","+443300538880","","","","","","","","","","",""
"N","0","+443300538880","+443332xxxxxx","23/08/2017","17:17:12","19","","","UK STOKE-ON-TRENT","UKN","1","0.003000","","","","","NT03","Gamma","","","","","3194","","","+441782898004","","S5C575DC0AEC93D0E8491EFE356E82133","GBP","+443300538880","","","","","","","","","","",""
"N","0","+443300538880","+443332xxxxxx","23/08/2017","17:19:55","11","","","UK STOKE-ON-TRENT","UKN","1","0.002000","","","","","NT03","Gamma","","","","","3194","","","+441782898004","","S6A0EF4DE120139B1F279644352FEC9DF","GBP","+443300538880","","","","","","","","","","",""
"N","0","+443300539660","+447598xxxxxx","23/08/2017","18:07:25","7","","","UK LEICESTER","UKN","2","0.001000","","","","","NT03","Gamma","","","","","3194","","","+441162690770","","S030488806084066B3FA07F92D94DE8A3","GBP","+443300539660","","","","","","","","","","",""
