"Call Type","Call Cause Definition Required","Customer Identifier","Non-Charged Party","Call Date","Call Time","Duration","Bytes Transmitted","Bytes Received","Description","Chargecode","Time Band","Salesprice","Salesprice (Pre-Bundle)","Extension","DDI","Grouping ID","Call Class (Feature)","Carrier","Recording","VAT","Country of Origin","Network","Retail Tariff Code","Remote Network","APN","Diverted Number","Ring time","Record ID","Currency","Caller Line Identity","Network Access Reference","NGCS Access Charge","NGCS Service Charge","Total Bytes Transferred","User ID","Onward Billing Reference","Contract Name","Bundle Name","Bundle Allowance","Discount Reference","Routing Code"
"N","0","+443300538880","+441697xxxxxx","26/09/2017","08:33:13","84","","","UK STOKE-ON-TRENT","UKN","1","0.011000","","","","","NT03","Gamma","","","","","3194","","","+441782898004","","S28d2475b161ae863bb364803eb4dc57f","GBP","+443300538880","","","","","","","","","","",""
"N","0","+443300538880","+447979xxxxxx","26/09/2017","08:45:33","753","","","UK STOKE-ON-TRENT","UKN","1","0.091000","","","","","NT03","Gamma","","","","","3194","","","+441782898004","","S2170AAADD33947B740997F4A9DC08CE1","GBP","+443300538880","","","","","","","","","","",""
"N","0","+443300538880","+447831xxxxxx","26/09/2017","08:58:27","100","","","UK STOKE-ON-TRENT","UKN","1","0.012000","","","","","NT03","Gamma","","","","","3194","","","+441782898004","","SA065DFE9706DEE939FA8DB2DECCC4EA9","GBP","+443300538880","","","","","","","","","","",""
"N","0","+443300538880","+447557xxxxxx","26/09/2017","09:05:24","137","","","UK STOKE-ON-TRENT","UKN","1","0.017000","","","","","NT03","Gamma","","","","","3194","","","+441782898004","","S43E80985F638E7F9CA398D19884E40F1","GBP","+443300538880","","","","","","","","","","",""
"N","0","+443300538880","+447741xxxxxx","26/09/2017","09:20:32","59","","","UK STOKE-ON-TRENT","UKN","1","0.008000","","","","","NT03","Gamma","","","","","3194","","","+441782898004","","SA8CC403E0BDEDEF979BFCF6F9C47B31F","GBP","+443300538880","","","","","","","","","","",""
"N","0","+443300538880","+441286xxxxxx","26/09/2017","09:36:41","363","","","UK STOKE-ON-TRENT","UKN","1","0.044000","","","","","NT03","Gamma","","","","","3194","","","+441782898004","","SF8E159CEE85FC6A5C0BC28942B962B45","GBP","+443300538880","","","","","","","","","","",""
"N","0","+443300538880","+441213xxxxxx","26/09/2017","09:38:06","47","","","UK STOKE-ON-TRENT","UKN","1","0.006000","","","","","NT03","Gamma","","","","","3194","","","+441782898004","","SFFFF3EEE078ECD8FEB4356ABF1C73EEA","GBP","+443300538880","","","","","","","","","","",""
"N","0","+443300539660","+441873xxxxxx","26/09/2017","09:41:45","214","","","UK LEICESTER","UKN","1","0.026000","","","","","NT03","Gamma","","","","","3194","","","+441162690770","","S5F3C7D5C250F7A0BF1582387FA020D97","GBP","+443300539660","","","","","","","","","","",""
"N","0","+443300538880","+441305xxxxxx","26/09/2017","09:49:31","147","","","UK STOKE-ON-TRENT","UKN","1","0.018000","","","","","NT03","Gamma","","","","","3194","","","+441782898004","","S3ed7115283fa14ae8c97f466e29cd0d7","GBP","+443300538880","","","","","","","","","","",""
"N","0","+443300538880","+447764xxxxxx","26/09/2017","09:57:54","78","","","UK STOKE-ON-TRENT","UKN","1","0.010000","","","","","NT03","Gamma","","","","","3194","","","+441782898004","","S5BE6F0E2D413A1817C4151C23CB4B072","GBP","+443300538880","","","","","","","","","","",""
"N","0","+443300538880","+447979xxxxxx","26/09/2017","10:02:04","500","","","UK STOKE-ON-TRENT","UKN","1","0.060000","","","","","NT03","Gamma","","","","","3194","","","+441782898004","","S74E11D85F2A1E1626D2CAC9768502CF6","GBP","+443300538880","","","","","","","","","","",""
"N","0","+443300538880","+441782xxxxxx","26/09/2017","10:06:25","182","","","UK STOKE-ON-TRENT","UKN","1","0.022000","","","","","NT03","Gamma","","","","","3194","","","+441782898004","","S98D6AD936B01E44AD88EDFAF64D99913","GBP","+443300538880","","","","","","","","","","",""
"N","0","+443300538880","+447741xxxxxx","26/09/2017","10:06:30","213","","","UK STOKE-ON-TRENT","UKN","1","0.026000","","","","","NT03","Gamma","","","","","3194","","","+441782898004","","S66F2F314252A21D648490872D20806B3","GBP","+443300538880","","","","","","","","","","",""
"N","0","+443300538880","+447889xxxxxx","26/09/2017","10:14:13","213","","","UK STOKE-ON-TRENT","UKN","1","0.026000","","","","","NT03","Gamma","","","","","3194","","","+441782898004","","SC3A55F35C15B5EEB1C650116929B17EC","GBP","+443300538880","","","","","","","","","","",""
"N","0","+443300539660","+447989xxxxxx","26/09/2017","10:45:57","122","","","UK LEICESTER","UKN","1","0.015000","","","","","NT03","Gamma","","","","","3194","","","+441162690770","","S495A3B6201D7F79BB433676C14571C03","GBP","+443300539660","","","","","","","","","","",""
"N","0","+443300538880","+447771xxxxxx","26/09/2017","10:48:54","129","","","UK STOKE-ON-TRENT","UKN","1","0.016000","","","","","NT03","Gamma","","","","","3194","","","+441782898004","","SE2BC6D6D0E31D530FDEA223F6D0E473E","GBP","+443300538880","","","","","","","","","","",""
"N","0","+443300538880","+441709xxxxxx","26/09/2017","11:05:05","40","","","UK STOKE-ON-TRENT","UKN","1","0.005000","","","","","NT03","Gamma","","","","","3194","","","+441782898004","","S241D2FBA68D93B172C4797DD18EAD9E6","GBP","+443300538880","","","","","","","","","","",""
"N","0","+443300538880","+447754xxxxxx","26/09/2017","11:10:55","246","","","UK STOKE-ON-TRENT","UKN","1","0.030000","","","","","NT03","Gamma","","","","","3194","","","+441782898004","","S2EB8212EB86EA62632F262A732B3F30B","GBP","+443300538880","","","","","","","","","","",""
"N","0","+443300539660","+441376xxxxxx","26/09/2017","11:13:16","33","","","UK LEICESTER","UKN","1","0.004000","","","","","NT03","Gamma","","","","","3194","","","+441162690770","","S12c1f991dd0677f12d2f3711343fac34","GBP","+443300539660","","","","","","","","","","",""
"N","0","+443300539660","+441227xxxxxx","26/09/2017","12:24:29","108","","","UK LEICESTER","UKN","1","0.013000","","","","","NT03","Gamma","","","","","3194","","","+441162690770","","S40AF995D4490C59FC294B5652F571933","GBP","+443300539660","","","","","","","","","","",""
"N","0","+443300538880","+441743xxxxxx","26/09/2017","12:28:14","63","","","UK STOKE-ON-TRENT","UKN","1","0.008000","","","","","NT03","Gamma","","","","","3194","","","+441782898004","","Sa650a17e1f892de7eb99efc919f0f53b","GBP","+443300538880","","","","","","","","","","",""
"N","0","+443300538880","+441309xxxxxx","26/09/2017","12:39:37","65","","","UK STOKE-ON-TRENT","UKN","1","0.008000","","","","","NT03","Gamma","","","","","3194","","","+441782898004","","S289F910E19CECB8286EA8837F54C226B","GBP","+443300538880","","","","","","","","","","",""
"N","0","+443300538880","+441743xxxxxx","26/09/2017","13:20:23","111","","","UK STOKE-ON-TRENT","UKN","1","0.014000","","","","","NT03","Gamma","","","","","3194","","","+441782898004","","Sa6f97a0b326a5d437c3f945421186d18","GBP","+443300538880","","","","","","","","","","",""
"N","0","+443300538880","+441480xxxxxx","26/09/2017","13:54:14","174","","","UK STOKE-ON-TRENT","UKN","1","0.021000","","","","","NT03","Gamma","","","","","3194","","","+441782898004","","S44CEB3B46FE2E8F40D9E055E0060D506","GBP","+443300538880","","","","","","","","","","",""
"N","0","+443300538880","+447979xxxxxx","26/09/2017","14:09:36","88","","","UK STOKE-ON-TRENT","UKN","1","0.011000","","","","","NT03","Gamma","","","","","3194","","","+441782898004","","SF43C9D71D07424B73123509AF9541EF3","GBP","+443300538880","","","","","","","","","","",""
"N","0","+443300539660","+441633xxxxxx","26/09/2017","14:10:27","45","","","UK LEICESTER","UKN","1","0.006000","","","","","NT03","Gamma","","","","","3194","","","+441162690770","","S1d99c72330273424eadb63aa9c07048c","GBP","+443300539660","","","","","","","","","","",""
"N","0","+443300538880","+441372xxxxxx","26/09/2017","14:27:45","224","","","UK STOKE-ON-TRENT","UKN","1","0.027000","","","","","NT03","Gamma","","","","","3194","","","+441782898004","","S4B75655D6628BC236B6719B0B961F8C2","GBP","+443300538880","","","","","","","","","","",""
"N","0","+443300538880","+447557xxxxxx","26/09/2017","14:40:22","89","","","UK STOKE-ON-TRENT","UKN","1","0.011000","","","","","NT03","Gamma","","","","","3194","","","+441782898004","","S755BAB5B662ED949528766225FF201F7","GBP","+443300538880","","","","","","","","","","",""
"N","0","+443300538880","+441372xxxxxx","26/09/2017","14:42:44","335","","","UK STOKE-ON-TRENT","UKN","1","0.041000","","","","","NT03","Gamma","","","","","3194","","","+441782898004","","S21E7B068C5CB3C2211B92A124BBF6F5A","GBP","+443300538880","","","","","","","","","","",""
"N","0","+443300538880","+441372xxxxxx","26/09/2017","14:48:24","130","","","UK STOKE-ON-TRENT","UKN","1","0.016000","","","","","NT03","Gamma","","","","","3194","","","+441782898004","","S4E8D9B488AA04DB7BE19ACD2E5BCDDB1","GBP","+443300538880","","","","","","","","","","",""
"N","0","+443300538880","+447971xxxxxx","26/09/2017","15:03:19","28","","","UK STOKE-ON-TRENT","UKN","1","0.004000","","","","","NT03","Gamma","","","","","3194","","","+441782898004","","S32AD90C989D169D99E052E11C335884B","GBP","+443300538880","","","","","","","","","","",""
"N","0","+443300538880","+447979xxxxxx","26/09/2017","15:05:08","81","","","UK STOKE-ON-TRENT","UKN","1","0.010000","","","","","NT03","Gamma","","","","","3194","","","+441782898004","","S4643632B3003C60445AFDA62AA3A9DF2","GBP","+443300538880","","","","","","","","","","",""
"N","0","+443300539660","+447900xxxxxx","26/09/2017","15:10:14","64","","","UK LEICESTER","UKN","1","0.008000","","","","","NT03","Gamma","","","","","3194","","","+441162690770","","S5E5E065AB93BFE27062432FA63D0E225","GBP","+443300539660","","","","","","","","","","",""
"N","0","+443300538880","+447734xxxxxx","26/09/2017","15:59:37","87","","","UK STOKE-ON-TRENT","UKN","1","0.011000","","","","","NT03","Gamma","","","","","3194","","","+441782898004","","S65EB850973E0EDA8B593701134A8DCAF","GBP","+443300538880","","","","","","","","","","",""
"N","0","+443300538880","+447971xxxxxx","26/09/2017","16:13:12","127","","","UK STOKE-ON-TRENT","UKN","1","0.016000","","","","","NT03","Gamma","","","","","3194","","","+441782898004","","S07E070D8BD6DBEB6777647951190B77C","GBP","+443300538880","","","","","","","","","","",""
"N","0","+443300538880","+447487xxxxxx","26/09/2017","16:25:16","1","","","UK STOKE-ON-TRENT","UKN","1","0.001000","","","","","NT03","Gamma","","","","","3194","","","+441782898004","","SA7EE45F7BB5BEBE109235DD6B98E0A09","GBP","+443300538880","","","","","","","","","","",""
