"Call Type","Call Cause Definition Required","Customer Identifier","Non-Charged Party","Call Date","Call Time","Duration","Bytes Transmitted","Bytes Received","Description","Chargecode","Time Band","Salesprice","Salesprice (Pre-Bundle)","Extension","DDI","Grouping ID","Call Class (Feature)","Carrier","Recording","VAT","Country of Origin","Network","Retail Tariff Code","Remote Network","APN","Diverted Number","Ring time","Record ID","Currency","Caller Line Identity","Network Access Reference","NGCS Access Charge","NGCS Service Charge","Total Bytes Transferred","User ID","Onward Billing Reference","Contract Name","Bundle Name","Bundle Allowance","Discount Reference","Routing Code"
"N","0","+443300539660","+447825xxxxxx","29/09/2017","08:41:30","56","","","UK LEICESTER","UKN","1","0.007000","","","","","NT03","Gamma","","","","","3194","","","+441162690770","","S29501D5300521CCE9937E22C95D99046","GBP","+443300539660","","","","","","","","","","",""
"N","0","+443300538880","+441386xxxxxx","29/09/2017","08:57:53","66","","","UK STOKE-ON-TRENT","UKN","1","0.008000","","","","","NT03","Gamma","","","","","3194","","","+441782898004","","SABF6492443713C6D95BED52B4FBD7E96","GBP","+443300538880","","","","","","","","","","",""
"N","0","+443300538880","+447968xxxxxx","29/09/2017","10:02:32","253","","","UK STOKE-ON-TRENT","UKN","1","0.031000","","","","","NT03","Gamma","","","","","3194","","","+441782898004","","S2364fece31420758c9b6df73f701bca0","GBP","+443300538880","","","","","","","","","","",""
"N","0","+443300538880","+441302xxxxxx","29/09/2017","10:37:58","215","","","UK STOKE-ON-TRENT","UKN","1","0.026000","","","","","NT03","Gamma","","","","","3194","","","+441782898004","","SB435D98BDF3D6D2F7FADBF87DC763889","GBP","+443300538880","","","","","","","","","","",""
"N","0","+443300538880","+447487xxxxxx","29/09/2017","10:40:33","4","","","UK STOKE-ON-TRENT","UKN","1","0.001000","","","","","NT03","Gamma","","","","","3194","","","+441782898004","","S7FE1B80CB756FAFCED6323A034F72931","GBP","+443300538880","","","","","","","","","","",""
"N","0","+443300538880","+447487xxxxxx","29/09/2017","10:40:50","6","","","UK STOKE-ON-TRENT","UKN","1","0.001000","","","","","NT03","Gamma","","","","","3194","","","+441782898004","","S26C509755010C3750483B02753704947","GBP","+443300538880","","","","","","","","","","",""
"N","0","+443300538880","+447487xxxxxx","29/09/2017","10:41:20","139","","","UK STOKE-ON-TRENT","UKN","1","0.017000","","","","","NT03","Gamma","","","","","3194","","","+441782898004","","SCBA4A789A492BB7FD3A98D729E8039C0","GBP","+443300538880","","","","","","","","","","",""
"N","0","+443300538880","+441482xxxxxx","29/09/2017","10:48:06","24","","","UK STOKE-ON-TRENT","UKN","1","0.003000","","","","","NT03","Gamma","","","","","3194","","","+441782898004","","S771F85ACC92D7A965FAE846B0ED128A8","GBP","+443300538880","","","","","","","","","","",""
"N","0","+443300538880","+441482xxxxxx","29/09/2017","10:48:51","134","","","UK STOKE-ON-TRENT","UKN","1","0.017000","","","","","NT03","Gamma","","","","","3194","","","+441782898004","","S32B97012057B155D7ED7D90FE65B410D","GBP","+443300538880","","","","","","","","","","",""
"N","0","+443300539660","+447927xxxxxx","29/09/2017","10:54:27","152","","","UK LEICESTER","UKN","1","0.019000","","","","","NT03","Gamma","","","","","3194","","","+441162690770","","SF564989D9089E28601F457E7D1296992","GBP","+443300539660","","","","","","","","","","",""
"N","0","+443300538880","+441386xxxxxx","29/09/2017","11:27:45","41","","","UK STOKE-ON-TRENT","UKN","1","0.005000","","","","","NT03","Gamma","","","","","3194","","","+441782898004","","SA0E7BB90D0BBC4D724AE1A931745D986","GBP","+443300538880","","","","","","","","","","",""
"N","0","+443300538880","+447736xxxxxx","29/09/2017","11:48:37","190","","","UK STOKE-ON-TRENT","UKN","1","0.023000","","","","","NT03","Gamma","","","","","3194","","","+441782898004","","SD04680514915CC6A968BEA316C998245","GBP","+443300538880","","","","","","","","","","",""
"N","0","+443300539660","+447833xxxxxx","29/09/2017","12:00:04","30","","","UK LEICESTER","UKN","1","0.004000","","","","","NT03","Gamma","","","","","3194","","","+441162690770","","S7A4FD658FA6CE13893E938F2DA6DF3AB","GBP","+443300539660","","","","","","","","","","",""
"N","0","+443300539660","+447833xxxxxx","29/09/2017","12:06:15","32","","","UK LEICESTER","UKN","1","0.004000","","","","","NT03","Gamma","","","","","3194","","","+441162690770","","SFDBB838D64C3F4DCC66E23F9B94DECEF","GBP","+443300539660","","","","","","","","","","",""
"N","0","+443300539660","+447833xxxxxx","29/09/2017","12:06:54","44","","","UK LEICESTER","UKN","1","0.006000","","","","","NT03","Gamma","","","","","3194","","","+441162690770","","S46C8F72A9FA7EEE788A0767D35D5A07C","GBP","+443300539660","","","","","","","","","","",""
"N","0","+443300539660","+447833xxxxxx","29/09/2017","12:07:44","666","","","UK LEICESTER","UKN","1","0.080000","","","","","NT03","Gamma","","","","","3194","","","+441162690770","","SE45E4AB4EF6B65B70F45B91746A61A93","GBP","+443300539660","","","","","","","","","","",""
"N","0","+443300538880","+441482xxxxxx","29/09/2017","12:11:57","71","","","UK STOKE-ON-TRENT","UKN","1","0.009000","","","","","NT03","Gamma","","","","","3194","","","+441782898004","","SF8467FBFC475F327AC2510E9F184523F","GBP","+443300538880","","","","","","","","","","",""
"N","0","+443300538880","+441617xxxxxx","29/09/2017","12:18:48","45","","","UK STOKE-ON-TRENT","UKN","1","0.006000","","","","","NT03","Gamma","","","","","3194","","","+441782898004","","S9CCBDCF41F207056E6CE2413C9D77D9B","GBP","+443300538880","","","","","","","","","","",""
"N","0","+443300539660","+447833xxxxxx","29/09/2017","12:21:38","59","","","UK LEICESTER","UKN","1","0.008000","","","","","NT03","Gamma","","","","","3194","","","+441162690770","","SC54ECB5DC5E4F41857392136AB267428","GBP","+443300539660","","","","","","","","","","",""
"N","0","+443300538880","+447973xxxxxx","29/09/2017","12:22:49","410","","","UK STOKE-ON-TRENT","UKN","1","0.050000","","","","","NT03","Gamma","","","","","3194","","","+441782898004","","S12FF8D76235E6C06FE0BEBAB44742579","GBP","+443300538880","","","","","","","","","","",""
"N","0","+443300538880","+441305xxxxxx","29/09/2017","12:33:50","220","","","UK STOKE-ON-TRENT","UKN","1","0.027000","","","","","NT03","Gamma","","","","","3194","","","+441782898004","","S5B9A9CF8C5D79624633CC383018719CA","GBP","+443300538880","","","","","","","","","","",""
"N","0","+443300538880","+447487xxxxxx","29/09/2017","12:40:53","151","","","UK STOKE-ON-TRENT","UKN","1","0.019000","","","","","NT03","Gamma","","","","","3194","","","+441782898004","","S8ED01095B764162C2CFEF22D280C5DA0","GBP","+443300538880","","","","","","","","","","",""
"N","0","+443300538880","+447715xxxxxx","29/09/2017","12:42:01","74","","","UK STOKE-ON-TRENT","UKN","1","0.009000","","","","","NT03","Gamma","","","","","3194","","","+441782898004","","S6622EF391D4AF90D5342ACEE28B8F4AA","GBP","+443300538880","","","","","","","","","","",""
"N","0","+443300538880","+441386xxxxxx","29/09/2017","12:50:29","143","","","UK STOKE-ON-TRENT","UKN","1","0.018000","","","","","NT03","Gamma","","","","","3194","","","+441782898004","","SEAC3D587E736672DFA35B3CA0F79A9D9","GBP","+443300538880","","","","","","","","","","",""
"N","0","+443300538880","+441617xxxxxx","29/09/2017","12:51:30","164","","","UK STOKE-ON-TRENT","UKN","1","0.020000","","","","","NT03","Gamma","","","","","3194","","","+441782898004","","S5BE252997D13E5B39704CE28626ED720","GBP","+443300538880","","","","","","","","","","",""
"N","0","+443300538880","+441617xxxxxx","29/09/2017","12:58:20","85","","","UK STOKE-ON-TRENT","UKN","1","0.011000","","","","","NT03","Gamma","","","","","3194","","","+441782898004","","S7D0988BAB520192833827992B9DBB15E","GBP","+443300538880","","","","","","","","","","",""
"N","0","+443300538880","+447748xxxxxx","29/09/2017","12:58:25","95","","","UK STOKE-ON-TRENT","UKN","1","0.012000","","","","","NT03","Gamma","","","","","3194","","","+441782898004","","SF052FC86834C0F2CC75963378CD5FAFF","GBP","+443300538880","","","","","","","","","","",""
"N","0","+443300539660","+441905xxxxxx","29/09/2017","13:02:20","58","","","UK LEICESTER","UKN","1","0.007000","","","","","NT03","Gamma","","","","","3194","","","+441162690770","","S4E7BBDE266B798781AD9CDA711E1E018","GBP","+443300539660","","","","","","","","","","",""
"N","0","+443300538880","+441412xxxxxx","29/09/2017","13:04:43","223","","","UK STOKE-ON-TRENT","UKN","1","0.027000","","","","","NT03","Gamma","","","","","3194","","","+441782898004","","SCE1B42615B6DB6C1C8D5A14D3E7A0B7E","GBP","+443300538880","","","","","","","","","","",""
"N","0","+443300538880","+447748xxxxxx","29/09/2017","13:12:24","218","","","UK STOKE-ON-TRENT","UKN","1","0.027000","","","","","NT03","Gamma","","","","","3194","","","+441782898004","","SD7EEA3258B28CF260F6E85EB184A6587","GBP","+443300538880","","","","","","","","","","",""
"N","0","+443300539660","+441905xxxxxx","29/09/2017","13:13:20","39","","","UK LEICESTER","UKN","1","0.005000","","","","","NT03","Gamma","","","","","3194","","","+441162690770","","S1E18C7B77FCE824176346039002FD375","GBP","+443300539660","","","","","","","","","","",""
"N","0","+443300538880","+447984xxxxxx","29/09/2017","13:30:05","76","","","UK STOKE-ON-TRENT","UKN","1","0.010000","","","","","NT03","Gamma","","","","","3194","","","+441782898004","","S578414B2939B85CE6807DB5AC81FA5D8","GBP","+443300538880","","","","","","","","","","",""
"N","0","+443300538880","+441302xxxxxx","29/09/2017","13:34:59","121","","","UK STOKE-ON-TRENT","UKN","1","0.015000","","","","","NT03","Gamma","","","","","3194","","","+441782898004","","SB230412FE303893C6DF2A11EBDF2146E","GBP","+443300538880","","","","","","","","","","",""
"N","0","+443300538880","+447884xxxxxx","29/09/2017","13:35:11","143","","","UK STOKE-ON-TRENT","UKN","1","0.018000","","","","","NT03","Gamma","","","","","3194","","","+441782898004","","S52D771C06192FC938D8A4A189CE324F3","GBP","+443300538880","","","","","","","","","","",""
"N","0","+443300538880","+447884xxxxxx","29/09/2017","13:39:19","196","","","UK STOKE-ON-TRENT","UKN","1","0.024000","","","","","NT03","Gamma","","","","","3194","","","+441782898004","","S3382072695B09A465D6A653CDFD8701A","GBP","+443300538880","","","","","","","","","","",""
"N","0","+443300538880","+441432xxxxxx","29/09/2017","13:53:41","258","","","UK STOKE-ON-TRENT","UKN","1","0.031000","","","","","NT03","Gamma","","","","","3194","","","+441782898004","","S44AD9AF2612D2B9AAE3E28A332613CF6","GBP","+443300538880","","","","","","","","","","",""
"N","0","+443300538880","+442477xxxxxx","29/09/2017","14:08:50","66","","","UK STOKE-ON-TRENT","UKN","1","0.008000","","","","","NT03","Gamma","","","","","3194","","","+441782898004","","S0C59FF6CE70AD959C06EE6F68658B029","GBP","+443300538880","","","","","","","","","","",""
"N","0","+443300538880","+447487xxxxxx","29/09/2017","14:20:07","157","","","UK STOKE-ON-TRENT","UKN","1","0.019000","","","","","NT03","Gamma","","","","","3194","","","+441782898004","","SF6DAE16ECF00E62A80275B8622B3C06D","GBP","+443300538880","","","","","","","","","","",""
"N","0","+443300538880","+447515xxxxxx","29/09/2017","14:26:26","326","","","UK STOKE-ON-TRENT","UKN","1","0.040000","","","","","NT03","Gamma","","","","","3194","","","+441782898004","","S4B9FFD24EE0F5780531F04CF1A95D2C1","GBP","+443300538880","","","","","","","","","","",""
"N","0","+443300537060","+447854xxxxxx","29/09/2017","14:28:53","273","","","UK LEICESTER","UKN","1","0.033000","","","","","NT03","Gamma","","","","","3194","","","+441164787428","","SB5295F6D8EE96F83B5BF15AFF366ED60","GBP","+443300537060","","","","","","","","","","",""
"N","0","+443300538880","+447983xxxxxx","29/09/2017","15:02:43","102","","","UK STOKE-ON-TRENT","UKN","1","0.013000","","","","","NT03","Gamma","","","","","3194","","","+441782898004","","SC6DF1DC875EFC480B7ADBF99A0F048A4","GBP","+443300538880","","","","","","","","","","",""
"N","0","+443300538880","+447971xxxxxx","29/09/2017","15:39:16","69","","","UK STOKE-ON-TRENT","UKN","1","0.009000","","","","","NT03","Gamma","","","","","3194","","","+441782898004","","SB41AC075169292D8AF9B90B3F9E8F8BE","GBP","+443300538880","","","","","","","","","","",""
"N","0","+443300538880","+447971xxxxxx","29/09/2017","15:41:11","22","","","UK STOKE-ON-TRENT","UKN","1","0.003000","","","","","NT03","Gamma","","","","","3194","","","+441782898004","","S372DE30A0D65EB6D3942A6D6655ECD34","GBP","+443300538880","","","","","","","","","","",""
"N","0","+443300538880","+447971xxxxxx","29/09/2017","15:41:39","59","","","UK STOKE-ON-TRENT","UKN","1","0.008000","","","","","NT03","Gamma","","","","","3194","","","+441782898004","","S9AE6BB240D6510DE4D76913FD29EB06A","GBP","+443300538880","","","","","","","","","","",""
"N","0","+443300538880","+447983xxxxxx","29/09/2017","15:49:36","345","","","UK STOKE-ON-TRENT","UKN","1","0.042000","","","","","NT03","Gamma","","","","","3194","","","+441782898004","","S104DF05FFEBC27376B28E8A7501D688C","GBP","+443300538880","","","","","","","","","","",""
"N","0","+443300538880","+447785xxxxxx","29/09/2017","16:11:59","81","","","UK STOKE-ON-TRENT","UKN","1","0.010000","","","","","NT03","Gamma","","","","","3194","","","+441782898004","","SB5F2CBB1F8C88B94E16D9539AD41B129","GBP","+443300538880","","","","","","","","","","",""
"N","0","+443300538880","+447971xxxxxx","29/09/2017","16:37:29","58","","","UK STOKE-ON-TRENT","UKN","1","0.007000","","","","","NT03","Gamma","","","","","3194","","","+441782898004","","SEF896E537B988497CB1842D98A23CD8A","GBP","+443300538880","","","","","","","","","","",""
