"Call Type","Call Cause Definition Required","Customer Identifier","Non-Charged Party","Call Date","Call Time","Duration","Bytes Transmitted","Bytes Received","Description","Chargecode","Time Band","Salesprice","Salesprice (Pre-Bundle)","Extension","DDI","Grouping ID","Call Class (Feature)","Carrier","Recording","VAT","Country of Origin","Network","Retail Tariff Code","Remote Network","APN","Diverted Number","Ring time","Record ID","Currency","Caller Line Identity","Network Access Reference","NGCS Access Charge","NGCS Service Charge","Total Bytes Transferred","User ID","Onward Billing Reference","Contract Name","Bundle Name","Bundle Allowance","Discount Reference","Routing Code"
"N","0","+443300538880","+447590xxxxxx","31/05/2017","11:34:10","96","","","UK STOKE-ON-TRENT","UKN","1","0.012000","","","","","NT03","Gamma","","","","","3194","","","+441782898004","","S0D2508BF4D34A6EFC7F8837484DE2B0F","GBP","+443300538880","","","","","","","","","","",""
"N","0","+443300538880","+447557xxxxxx","31/05/2017","11:32:31","191","","","UK STOKE-ON-TRENT","UKN","1","0.023000","","","","","NT03","Gamma","","","","","3194","","","+441782898004","","SDAF7636281F15252D3A5E7F9FE3B6798","GBP","+443300538880","","","","","","","","","","",""
"N","0","+443300538880","+447495xxxxxx","31/05/2017","10:50:42","211","","","UK STOKE-ON-TRENT","UKN","1","0.026000","","","","","NT03","Gamma","","","","","3194","","","+441782898004","","S38BC363412DAC95D62FF829AFEC59043","GBP","+443300538880","","","","","","","","","","",""
"N","0","+443300538880","+447487xxxxxx","31/05/2017","09:57:20","10","","","UK STOKE-ON-TRENT","UKN","1","0.002000","","","","","NT03","Gamma","","","","","3194","","","+441782898004","","S87D165B7FB998EA36E3E89D8D95A4C3F","GBP","+443300538880","","","","","","","","","","",""
"N","0","+443300538880","+441622xxxxxx","31/05/2017","09:20:57","79","","","UK STOKE-ON-TRENT","UKN","1","0.010000","","","","","NT03","Gamma","","","","","3194","","","+441782898004","","SFF67E2692E13E81D8D326538D06E161A","GBP","+443300538880","","","","","","","","","","",""
"N","0","+443300537080","+441313xxxxxx","10/05/2017","10:37:41","2","","","UK LEICESTER","UKN","1","0.001000","","","","","NT03","Gamma","","","","","3194","","","+441164787427","","SBB9FB44CB072E84950C692216494B58E","GBP","+443300537080","","","","","","","","","","",""
"N","0","+443300537080","+441313xxxxxx","10/05/2017","10:37:57","2","","","UK LEICESTER","UKN","1","0.001000","","","","","NT03","Gamma","","","","","3194","","","+441164787427","","SC191CB2BE894DC8A6237CD7C69252807","GBP","+443300537080","","","","","","","","","","",""
"N","0","+443300537080","+441313xxxxxx","10/05/2017","10:37:52","2","","","UK LEICESTER","UKN","1","0.001000","","","","","NT03","Gamma","","","","","3194","","","+441164787427","","S3C0227BA8F659A4A865361A9AB7A6EBD","GBP","+443300537080","","","","","","","","","","",""
"N","0","+443300537080","+441313xxxxxx","10/05/2017","10:37:46","1","","","UK LEICESTER","UKN","1","0.001000","","","","","NT03","Gamma","","","","","3194","","","+441164787427","","SEFC34C96E321A03E49DA4A5416609E82","GBP","+443300537080","","","","","","","","","","",""
"N","0","+443300538880","+463212xxxxxx","15/05/2017","08:26:39","10","","","UK STOKE-ON-TRENT","UKN","1","0.002000","","","","","NT03","Gamma","","","","","3194","","","+441782898004","","SE655321FA6FCDF8D498D6F4A105C992D","GBP","+443300538880","","","","","","","","","","",""
"N","0","+443300538880","+463212xxxxxx","15/05/2017","08:27:30","18","","","UK STOKE-ON-TRENT","UKN","1","0.003000","","","","","NT03","Gamma","","","","","3194","","","+441782898004","","SA61672E651EAF3265AE7095BF1DADBF4","GBP","+443300538880","","","","","","","","","","",""
"N","0","+443300538880","+447415xxxxxx","15/05/2017","11:42:37","37","","","UK STOKE-ON-TRENT","UKN","1","0.005000","","","","","NT03","Gamma","","","","","3194","","","+441782898004","","S6BDD0B43FFECD96725DC135AD6DC790E","GBP","+443300538880","","","","","","","","","","",""
"N","0","+443300538880","+447415xxxxxx","15/05/2017","11:41:50","41","","","UK STOKE-ON-TRENT","UKN","1","0.005000","","","","","NT03","Gamma","","","","","3194","","","+441782898004","","S3D5B75A42D267D8816FF051E2FBE3497","GBP","+443300538880","","","","","","","","","","",""
"N","0","+443300538880","+447415xxxxxx","15/05/2017","11:40:51","43","","","UK STOKE-ON-TRENT","UKN","1","0.006000","","","","","NT03","Gamma","","","","","3194","","","+441782898004","","S6CF33D8F4E07E82AE1FC5B830B4BEC3F","GBP","+443300538880","","","","","","","","","","",""
"N","0","+443300538880","+447415xxxxxx","15/05/2017","11:39:44","8","","","UK STOKE-ON-TRENT","UKN","1","0.001000","","","","","NT03","Gamma","","","","","3194","","","+441782898004","","S05767720126A0DD6FDCA2E27789A1F06","GBP","+443300538880","","","","","","","","","","",""
"N","0","+443300538880","+463212xxxxxx","15/05/2017","09:01:37","13","","","UK STOKE-ON-TRENT","UKN","1","0.002000","","","","","NT03","Gamma","","","","","3194","","","+441782898004","","SC32244AB14B9DEBA0A41D63FF4783514","GBP","+443300538880","","","","","","","","","","",""
"N","0","+443300538880","+463212xxxxxx","15/05/2017","08:36:42","22","","","UK STOKE-ON-TRENT","UKN","1","0.003000","","","","","NT03","Gamma","","","","","3194","","","+441782898004","","S88EB608234F59FC19EF9C3C98A312AB3","GBP","+443300538880","","","","","","","","","","",""
"N","0","+443300538880","+463212xxxxxx","15/05/2017","08:28:51","29","","","UK STOKE-ON-TRENT","UKN","1","0.004000","","","","","NT03","Gamma","","","","","3194","","","+441782898004","","S7E2682D45A01EBBA17D044F797441193","GBP","+443300538880","","","","","","","","","","",""
"N","0","+443300538880","+463212xxxxxx","15/05/2017","08:28:08","16","","","UK STOKE-ON-TRENT","UKN","1","0.002000","","","","","NT03","Gamma","","","","","3194","","","+441782898004","","SA4B6178EA3C7343B1EF1A2EF09EEAFCC","GBP","+443300538880","","","","","","","","","","",""
"N","0","+443300538880","+447557xxxxxx","16/05/2017","12:25:39","43","","","UK STOKE-ON-TRENT","UKN","1","0.006000","","","","","NT03","Gamma","","","","","3194","","","+441782898004","","S423AEE78A4D7B18030C99CCC962402B0","GBP","+443300538880","","","","","","","","","","",""
"N","0","+443300538880","+441948xxxxxx","16/05/2017","16:01:14","25","","","UK STOKE-ON-TRENT","UKN","1","0.003000","","","","","NT03","Gamma","","","","","3194","","","+441782898004","","SE0AAF8984AC052CBBC109590EE77C6B4","GBP","+443300538880","","","","","","","","","","",""
"N","0","+443300538880","+447415xxxxxx","16/05/2017","12:24:03","38","","","UK STOKE-ON-TRENT","UKN","1","0.005000","","","","","NT03","Gamma","","","","","3194","","","+441782898004","","SCEA8669550CB4583EC20330A57097ECF","GBP","+443300538880","","","","","","","","","","",""
"N","0","+443300538880","+447415xxxxxx","16/05/2017","09:45:50","25","","","UK STOKE-ON-TRENT","UKN","1","0.003000","","","","","NT03","Gamma","","","","","3194","","","+441782898004","","S082899A9E3675097FADFDFE56F0A1B79","GBP","+443300538880","","","","","","","","","","",""
"N","0","+443300538880","+447415xxxxxx","17/05/2017","08:49:39","6","","","UK STOKE-ON-TRENT","UKN","1","0.001000","","","","","NT03","Gamma","","","","","3194","","","+441782898004","","SF1677F568947085573F6D4689155A6F1","GBP","+443300538880","","","","","","","","","","",""
"N","0","+443300538880","+441489xxxxxx","17/05/2017","10:54:07","113","","","UK STOKE-ON-TRENT","UKN","1","0.014000","","","","","NT03","Gamma","","","","","3194","","","+441782898004","","SE1064AA763B408FA528A197D1690A350","GBP","+443300538880","","","","","","","","","","",""
"N","0","+443300538880","+447741xxxxxx","17/05/2017","11:06:13","120","","","UK STOKE-ON-TRENT","UKN","1","0.015000","","","","","NT03","Gamma","","","","","3194","","","+441782898004","","S3FEB21B9868C6B537322ED75CBB1A7DE","GBP","+443300538880","","","","","","","","","","",""
"N","0","+443300538880","+441373xxxxxx","17/05/2017","12:16:32","44","","","UK STOKE-ON-TRENT","UKN","1","0.006000","","","","","NT03","Gamma","","","","","3194","","","+441782898004","","SC65B99EB15C79B27C56A5E12A4C8CD8D","GBP","+443300538880","","","","","","","","","","",""
"N","0","+443300538880","+447958xxxxxx","17/05/2017","13:12:39","236","","","UK STOKE-ON-TRENT","UKN","1","0.029000","","","","","NT03","Gamma","","","","","3194","","","+441782898004","","SCF1197E3B32F5CD87EF12219C4107CDF","GBP","+443300538880","","","","","","","","","","",""
"N","0","+443300538880","+447980xxxxxx","17/05/2017","15:19:35","211","","","UK STOKE-ON-TRENT","UKN","1","0.026000","","","","","NT03","Gamma","","","","","3194","","","+441782898004","","S59D23BD516C98E9D6D3026459552A22D","GBP","+443300538880","","","","","","","","","","",""
"N","0","+443300538880","+447741xxxxxx","17/05/2017","15:33:03","316","","","UK STOKE-ON-TRENT","UKN","1","0.038000","","","","","NT03","Gamma","","","","","3194","","","+441782898004","","S6B63578A98B7FBE9FF3625C812F7F487","GBP","+443300538880","","","","","","","","","","",""
"N","0","+443300538880","+447958xxxxxx","17/05/2017","17:00:16","13","","","UK STOKE-ON-TRENT","UKN","1","0.002000","","","","","NT03","Gamma","","","","","3194","","","+441782898004","","S1D309B561E5D01F4464D8D3AF899B273","GBP","+443300538880","","","","","","","","","","",""
"N","0","+443300538880","+447487xxxxxx","17/05/2017","15:49:51","107","","","UK STOKE-ON-TRENT","UKN","1","0.013000","","","","","NT03","Gamma","","","","","3194","","","+441782898004","","S8E8D28C3090DDE44DC5D1B8A424699BF","GBP","+443300538880","","","","","","","","","","",""
"N","0","+443300538880","+447884xxxxxx","17/05/2017","15:41:04","451","","","UK STOKE-ON-TRENT","UKN","1","0.055000","","","","","NT03","Gamma","","","","","3194","","","+441782898004","","S4801B6BD233EB23116C9FCDE774A6D21","GBP","+443300538880","","","","","","","","","","",""
"N","0","+443300538880","+447884xxxxxx","17/05/2017","15:40:57","2","","","UK STOKE-ON-TRENT","UKN","1","0.001000","","","","","NT03","Gamma","","","","","3194","","","+441782898004","","SFD3277C159728954C8240002B1F7C11C","GBP","+443300538880","","","","","","","","","","",""
"N","0","+443300538880","+441283xxxxxx","17/05/2017","11:21:01","84","","","UK STOKE-ON-TRENT","UKN","1","0.011000","","","","","NT03","Gamma","","","","","3194","","","+441782898004","","S7EB916386B13BC66BBF6E98ED3DDE027","GBP","+443300538880","","","","","","","","","","",""
"N","0","+443300538880","+441489xxxxxx","17/05/2017","11:12:36","30","","","UK STOKE-ON-TRENT","UKN","1","0.004000","","","","","NT03","Gamma","","","","","3194","","","+441782898004","","S3A21231D37E593B730DCCFDEEF67CB09","GBP","+443300538880","","","","","","","","","","",""
"N","0","+443300538880","+441617xxxxxx","17/05/2017","11:07:04","74","","","UK STOKE-ON-TRENT","UKN","1","0.009000","","","","","NT03","Gamma","","","","","3194","","","+441782898004","","S139C9754AD1F56F7FAEACBF2C9614378","GBP","+443300538880","","","","","","","","","","",""
"N","0","+443300538880","+447741xxxxxx","17/05/2017","10:36:20","216","","","UK STOKE-ON-TRENT","UKN","1","0.026000","","","","","NT03","Gamma","","","","","3194","","","+441782898004","","S9B473EE30D0ABD7BFF4D9C37C58F42EC","GBP","+443300538880","","","","","","","","","","",""
"N","0","+443300538880","+441489xxxxxx","17/05/2017","09:50:36","93","","","UK STOKE-ON-TRENT","UKN","1","0.012000","","","","","NT03","Gamma","","","","","3194","","","+441782898004","","S9DBE17405BC811B763BD87199C4C31EF","GBP","+443300538880","","","","","","","","","","",""
"N","0","+443300538880","+447557xxxxxx","17/05/2017","08:45:09","5","","","UK STOKE-ON-TRENT","UKN","1","0.001000","","","","","NT03","Gamma","","","","","3194","","","+441782898004","","SB5B573D90C29A22169794C5EB794FA96","GBP","+443300538880","","","","","","","","","","",""
"N","0","+443300538880","+443332xxxxxx","18/05/2017","08:17:50","11","","","UK STOKE-ON-TRENT","UKN","1","0.002000","","","","","NT03","Gamma","","","","","3194","","","+441782898004","","S5313E46845DC713B08BFBB5FBA558869","GBP","+443300538880","","","","","","","","","","",""
"N","0","+443300538880","+443332xxxxxx","18/05/2017","08:21:51","4","","","UK STOKE-ON-TRENT","UKN","1","0.001000","","","","","NT03","Gamma","","","","","3194","","","+441782898004","","SC3808F436D96C2C923E0062FF1B56F2B","GBP","+443300538880","","","","","","","","","","",""
"N","0","+443300538880","+443332xxxxxx","18/05/2017","08:25:50","5","","","UK STOKE-ON-TRENT","UKN","1","0.001000","","","","","NT03","Gamma","","","","","3194","","","+441782898004","","S3B938947BE27F589C032BAE1B0A7E0B2","GBP","+443300538880","","","","","","","","","","",""
"N","0","+443300538880","+443332xxxxxx","18/05/2017","08:39:23","574","","","UK STOKE-ON-TRENT","UKN","1","0.069000","","","","","NT03","Gamma","","","","","3194","","","+441782898004","","S4B04BE9B915F6045CF4A89442CB35EF6","GBP","+443300538880","","","","","","","","","","",""
"N","0","+443300538880","+443332xxxxxx","18/05/2017","08:49:38","113","","","UK STOKE-ON-TRENT","UKN","1","0.014000","","","","","NT03","Gamma","","","","","3194","","","+441782898004","","S20A3490C424157A5A7D37951B55F1031","GBP","+443300538880","","","","","","","","","","",""
"N","0","+443300538880","+447958xxxxxx","18/05/2017","08:58:22","49","","","UK STOKE-ON-TRENT","UKN","1","0.006000","","","","","NT03","Gamma","","","","","3194","","","+441782898004","","S6F4CBA9ED82F3D9ADD3C24E81A6D6049","GBP","+443300538880","","","","","","","","","","",""
"N","0","+443300538880","+447741xxxxxx","18/05/2017","09:10:10","136","","","UK STOKE-ON-TRENT","UKN","1","0.017000","","","","","NT03","Gamma","","","","","3194","","","+441782898004","","S7B81FF76BF9537378BFCCB3903BA22B6","GBP","+443300538880","","","","","","","","","","",""
"N","0","+443300538880","+443332xxxxxx","18/05/2017","09:16:14","74","","","UK STOKE-ON-TRENT","UKN","1","0.009000","","","","","NT03","Gamma","","","","","3194","","","+441782898004","","S7AD007516B361D2703B8B3E96499B455","GBP","+443300538880","","","","","","","","","","",""
"N","0","+443300538880","+441270xxxxxx","18/05/2017","09:26:01","129","","","UK STOKE-ON-TRENT","UKN","1","0.016000","","","","","NT03","Gamma","","","","","3194","","","+441782898004","","S98C4DC75D4CCB99F394C27C1E742EEC4","GBP","+443300538880","","","","","","","","","","",""
"N","0","+443300538880","+443332xxxxxx","18/05/2017","09:37:18","56","","","UK STOKE-ON-TRENT","UKN","1","0.007000","","","","","NT03","Gamma","","","","","3194","","","+441782898004","","S720C49B18FDEA7706A5E976CA638DD14","GBP","+443300538880","","","","","","","","","","",""
"N","0","+443300538880","+441782xxxxxx","18/05/2017","09:40:59","57","","","UK STOKE-ON-TRENT","UKN","1","0.007000","","","","","NT03","Gamma","","","","","3194","","","+441782898004","","SD7C6C41D97162EDD9CFB9C55554A6891","GBP","+443300538880","","","","","","","","","","",""
"N","0","+443300538880","+447557xxxxxx","18/05/2017","10:17:56","107","","","UK STOKE-ON-TRENT","UKN","1","0.013000","","","","","NT03","Gamma","","","","","3194","","","+441782898004","","S61217B9D406040D6989D6512A1541435","GBP","+443300538880","","","","","","","","","","",""
"N","0","+443300538880","+447487xxxxxx","18/05/2017","11:09:49","172","","","UK STOKE-ON-TRENT","UKN","1","0.021000","","","","","NT03","Gamma","","","","","3194","","","+441782898004","","S5A5BFF37558B42D2BAA101AF3A8973E7","GBP","+443300538880","","","","","","","","","","",""
"N","0","+443300538880","+443332xxxxxx","18/05/2017","12:12:25","287","","","UK STOKE-ON-TRENT","UKN","1","0.035000","","","","","NT03","Gamma","","","","","3194","","","+441782898004","","SD52E6C99A49AC249EF1CADF83CA98D4A","GBP","+443300538880","","","","","","","","","","",""
"N","0","+443300538880","+447990xxxxxx","18/05/2017","12:22:46","40","","","UK STOKE-ON-TRENT","UKN","1","0.005000","","","","","NT03","Gamma","","","","","3194","","","+441782898004","","S6C44699543FF5D85207E5C566C3C0DCC","GBP","+443300538880","","","","","","","","","","",""
"N","0","+443300538880","+447990xxxxxx","18/05/2017","12:23:41","145","","","UK STOKE-ON-TRENT","UKN","1","0.018000","","","","","NT03","Gamma","","","","","3194","","","+441782898004","","SEFC8AECE914FE61C097BB4E4FD81177C","GBP","+443300538880","","","","","","","","","","",""
"N","0","+443300538880","+441270xxxxxx","18/05/2017","12:58:40","80","","","UK STOKE-ON-TRENT","UKN","1","0.010000","","","","","NT03","Gamma","","","","","3194","","","+441782898004","","SDA04B1F4B8EBA44E6F21D89D053E69CA","GBP","+443300538880","","","","","","","","","","",""
"N","0","+443300538880","+441270xxxxxx","18/05/2017","13:12:13","73","","","UK STOKE-ON-TRENT","UKN","1","0.009000","","","","","NT03","Gamma","","","","","3194","","","+441782898004","","S088FFB4E9CBF7546436C4456616468B7","GBP","+443300538880","","","","","","","","","","",""
"N","0","+443300538880","+447487xxxxxx","18/05/2017","13:51:50","133","","","UK STOKE-ON-TRENT","UKN","1","0.016000","","","","","NT03","Gamma","","","","","3194","","","+441782898004","","S37CC1C08561ABAE9514A44EA3BCF3C98","GBP","+443300538880","","","","","","","","","","",""
"N","0","+443300538880","+441515xxxxxx","18/05/2017","15:14:03","104","","","UK STOKE-ON-TRENT","UKN","1","0.013000","","","","","NT03","Gamma","","","","","3194","","","+441782898004","","S446f75c3e5b8309ddbd3c5b0eb3bf083","GBP","+443300538880","","","","","","","","","","",""
"N","0","+443300538880","+441635xxxxxx","18/05/2017","15:46:57","61","","","UK STOKE-ON-TRENT","UKN","1","0.008000","","","","","NT03","Gamma","","","","","3194","","","+441782898004","","SF0AA553C710777AEAB6096DCDCBBA522","GBP","+443300538880","","","","","","","","","","",""
"N","0","+443300538880","+441515xxxxxx","18/05/2017","16:30:43","1","","","UK STOKE-ON-TRENT","UKN","1","0.001000","","","","","NT03","Gamma","","","","","3194","","","+441782898004","","Sbf4462b7d6f8f1f1b30f67ab24b38a35","GBP","+443300538880","","","","","","","","","","",""
"N","0","+443300538880","+447958xxxxxx","18/05/2017","16:56:57","25","","","UK STOKE-ON-TRENT","UKN","1","0.003000","","","","","NT03","Gamma","","","","","3194","","","+441782898004","","S3E9B12207CC8F9C884312E57123C08AA","GBP","+443300538880","","","","","","","","","","",""
"N","0","+443300538880","+447741xxxxxx","18/05/2017","16:50:11","58","","","UK STOKE-ON-TRENT","UKN","1","0.007000","","","","","NT03","Gamma","","","","","3194","","","+441782898004","","SBF7DAB8994D3AF0FB876DEC7148888E4","GBP","+443300538880","","","","","","","","","","",""
"N","0","+443300538880","+441515xxxxxx","18/05/2017","16:30:53","178","","","UK STOKE-ON-TRENT","UKN","1","0.022000","","","","","NT03","Gamma","","","","","3194","","","+441782898004","","S831edb6d603c4f645b7cf719212e4e29","GBP","+443300538880","","","","","","","","","","",""
"N","0","+443300538880","+441635xxxxxx","18/05/2017","15:22:54","267","","","UK STOKE-ON-TRENT","UKN","1","0.033000","","","","","NT03","Gamma","","","","","3194","","","+441782898004","","SD81492B3326ABA2DAD0822F4AFFBF481","GBP","+443300538880","","","","","","","","","","",""
"N","0","+443300538880","+441635xxxxxx","18/05/2017","15:14:46","134","","","UK STOKE-ON-TRENT","UKN","1","0.017000","","","","","NT03","Gamma","","","","","3194","","","+441782898004","","SA3F0161D1E88BE668937767227718AF0","GBP","+443300538880","","","","","","","","","","",""
"N","0","+443300538880","+441948xxxxxx","18/05/2017","14:37:36","121","","","UK STOKE-ON-TRENT","UKN","1","0.015000","","","","","NT03","Gamma","","","","","3194","","","+441782898004","","S765AB4E24DDAAEF446099BA56F03471D","GBP","+443300538880","","","","","","","","","","",""
"N","0","+443300538880","+447909xxxxxx","18/05/2017","13:58:51","141","","","UK STOKE-ON-TRENT","UKN","1","0.017000","","","","","NT03","Gamma","","","","","3194","","","+441782898004","","S6EA97977AD86466DCBE5429EA784357F","GBP","+443300538880","","","","","","","","","","",""
"N","0","+443300538880","+441270xxxxxx","18/05/2017","13:07:03","167","","","UK STOKE-ON-TRENT","UKN","1","0.021000","","","","","NT03","Gamma","","","","","3194","","","+441782898004","","S5EB5C0BBDE1B7EF92A0908001877F224","GBP","+443300538880","","","","","","","","","","",""
"N","0","+443300538880","+441782xxxxxx","18/05/2017","11:51:35","53","","","UK STOKE-ON-TRENT","UKN","1","0.007000","","","","","NT03","Gamma","","","","","3194","","","+441782898004","","S4586434073541D4BA5BE87C20016A71A","GBP","+443300538880","","","","","","","","","","",""
"N","0","+443300538880","+447487xxxxxx","18/05/2017","11:13:51","52","","","UK STOKE-ON-TRENT","UKN","1","0.007000","","","","","NT03","Gamma","","","","","3194","","","+441782898004","","S1839B3046E0AA5C1944B8B513B8E86F0","GBP","+443300538880","","","","","","","","","","",""
"N","0","+443300538880","+447557xxxxxx","18/05/2017","11:09:07","69","","","UK STOKE-ON-TRENT","UKN","1","0.009000","","","","","NT03","Gamma","","","","","3194","","","+441782898004","","S5FBA7CC09DED09216759504B1FD19418","GBP","+443300538880","","","","","","","","","","",""
"N","0","+443300538880","+447557xxxxxx","18/05/2017","11:06:21","60","","","UK STOKE-ON-TRENT","UKN","1","0.008000","","","","","NT03","Gamma","","","","","3194","","","+441782898004","","S9F15DE843CCE4BEA6296B32FB0869C99","GBP","+443300538880","","","","","","","","","","",""
"N","0","+443300538880","+443332xxxxxx","18/05/2017","09:44:33","58","","","UK STOKE-ON-TRENT","UKN","1","0.007000","","","","","NT03","Gamma","","","","","3194","","","+441782898004","","S9D8D899672A7C9AF3ABE61E6B0D54119","GBP","+443300538880","","","","","","","","","","",""
"N","0","+443300538880","+447741xxxxxx","18/05/2017","09:39:28","72","","","UK STOKE-ON-TRENT","UKN","1","0.009000","","","","","NT03","Gamma","","","","","3194","","","+441782898004","","S6A5D07AB454A0BFD92589F702CC7AF14","GBP","+443300538880","","","","","","","","","","",""
"N","0","+443300538880","+447958xxxxxx","18/05/2017","08:55:20","110","","","UK STOKE-ON-TRENT","UKN","1","0.014000","","","","","NT03","Gamma","","","","","3194","","","+441782898004","","S86CEABD1BEDE067FD8A4309A569069BD","GBP","+443300538880","","","","","","","","","","",""
"N","0","+443300538880","+443332xxxxxx","18/05/2017","08:49:27","7","","","UK STOKE-ON-TRENT","UKN","1","0.001000","","","","","NT03","Gamma","","","","","3194","","","+441782898004","","S779476F7A7FC707415652BBC51B97786","GBP","+443300538880","","","","","","","","","","",""
"N","0","+443300538880","+443332xxxxxx","18/05/2017","08:26:22","7","","","UK STOKE-ON-TRENT","UKN","1","0.001000","","","","","NT03","Gamma","","","","","3194","","","+441782898004","","S8C2FF699D6751ACA60680C60421DE266","GBP","+443300538880","","","","","","","","","","",""
"N","0","+443300538880","+443332xxxxxx","18/05/2017","08:25:29","3","","","UK STOKE-ON-TRENT","UKN","1","0.001000","","","","","NT03","Gamma","","","","","3194","","","+441782898004","","S97A4622A0E5CCBE9AA523F56A50B9F6F","GBP","+443300538880","","","","","","","","","","",""
"N","0","+443300538880","+443332xxxxxx","18/05/2017","08:25:10","3","","","UK STOKE-ON-TRENT","UKN","1","0.001000","","","","","NT03","Gamma","","","","","3194","","","+441782898004","","S43B9154F664D21BC511FDDAF2F176FF4","GBP","+443300538880","","","","","","","","","","",""
"N","0","+443300538880","+443332xxxxxx","18/05/2017","08:23:32","6","","","UK STOKE-ON-TRENT","UKN","1","0.001000","","","","","NT03","Gamma","","","","","3194","","","+441782898004","","S73D559B39D0B2A843C73976248F9A57C","GBP","+443300538880","","","","","","","","","","",""
"N","0","+443300538880","+443332xxxxxx","18/05/2017","08:22:54","3","","","UK STOKE-ON-TRENT","UKN","1","0.001000","","","","","NT03","Gamma","","","","","3194","","","+441782898004","","S333AB891ACA01D09F81311128F7E7A08","GBP","+443300538880","","","","","","","","","","",""
"N","0","+443300538880","+447557xxxxxx","19/05/2017","09:04:27","130","","","UK STOKE-ON-TRENT","UKN","1","0.016000","","","","","NT03","Gamma","","","","","3194","","","+441782898004","","SBAF21A34C71ECA4BA5C8D81E767EEB82","GBP","+443300538880","","","","","","","","","","",""
"N","0","+443300538880","+447969xxxxxx","19/05/2017","09:23:33","18","","","UK STOKE-ON-TRENT","UKN","1","0.003000","","","","","NT03","Gamma","","","","","3194","","","+441782898004","","S06048999EA7E2606CD6E1FE932753077","GBP","+443300538880","","","","","","","","","","",""
"N","0","+443300538880","+441617xxxxxx","19/05/2017","11:05:58","177","","","UK STOKE-ON-TRENT","UKN","1","0.022000","","","","","NT03","Gamma","","","","","3194","","","+441782898004","","S59F61C05DEEC314DAB4F81322FC2579E","GBP","+443300538880","","","","","","","","","","",""
"N","0","+443300538880","+441254xxxxxx","19/05/2017","11:33:48","164","","","UK STOKE-ON-TRENT","UKN","1","0.020000","","","","","NT03","Gamma","","","","","3194","","","+441782898004","","SC3D3D0E9F019464B21C97D60C98609AA","GBP","+443300538880","","","","","","","","","","",""
"N","0","+443300538880","+447487xxxxxx","19/05/2017","12:01:58","318","","","UK STOKE-ON-TRENT","UKN","1","0.039000","","","","","NT03","Gamma","","","","","3194","","","+441782898004","","S21782EDC055A668FD84321B95F4DB8DF","GBP","+443300538880","","","","","","","","","","",""
"N","0","+443300538880","+447557xxxxxx","19/05/2017","12:10:03","92","","","UK STOKE-ON-TRENT","UKN","1","0.012000","","","","","NT03","Gamma","","","","","3194","","","+441782898004","","S346F801264B5129F020742E463A9F8EF","GBP","+443300538880","","","","","","","","","","",""
"N","0","+443300538880","+447557xxxxxx","19/05/2017","12:14:45","63","","","UK STOKE-ON-TRENT","UKN","1","0.008000","","","","","NT03","Gamma","","","","","3194","","","+441782898004","","S41F2407881E6171EC254B3B26C37C262","GBP","+443300538880","","","","","","","","","","",""
"N","0","+443300538880","+447884xxxxxx","19/05/2017","12:47:07","94","","","UK STOKE-ON-TRENT","UKN","1","0.012000","","","","","NT03","Gamma","","","","","3194","","","+441782898004","","S50D82112198BF793AB732B90F2668BB3","GBP","+443300538880","","","","","","","","","","",""
"N","0","+443300538880","+447557xxxxxx","19/05/2017","13:04:57","156","","","UK STOKE-ON-TRENT","UKN","1","0.019000","","","","","NT03","Gamma","","","","","3194","","","+441782898004","","S2005C74FAF44BAF21060FF4960CD895D","GBP","+443300538880","","","","","","","","","","",""
"N","0","+443300538880","+441413xxxxxx","19/05/2017","13:27:12","93","","","UK STOKE-ON-TRENT","UKN","1","0.012000","","","","","NT03","Gamma","","","","","3194","","","+441782898004","","S6FA75543A165884844D7F6E0F5C00E1C","GBP","+443300538880","","","","","","","","","","",""
"N","0","+443300538880","+447564xxxxxx","19/05/2017","13:53:51","290","","","UK STOKE-ON-TRENT","UKN","1","0.035000","","","","","NT03","Gamma","","","","","3194","","","+441782898004","","S16FA9C81BD32E7FF2CB860B8C6BF0869","GBP","+443300538880","","","","","","","","","","",""
"N","0","+443300538880","+447487xxxxxx","19/05/2017","13:58:51","59","","","UK STOKE-ON-TRENT","UKN","1","0.008000","","","","","NT03","Gamma","","","","","3194","","","+441782898004","","SC68103445F278FCCB43B17FDE44D8AB2","GBP","+443300538880","","","","","","","","","","",""
"N","0","+443300538880","+447487xxxxxx","19/05/2017","14:08:01","108","","","UK STOKE-ON-TRENT","UKN","1","0.013000","","","","","NT03","Gamma","","","","","3194","","","+441782898004","","SE1F91D6BF98DFFCAF272ED9FD2778FDF","GBP","+443300538880","","","","","","","","","","",""
"N","0","+443300538880","+441782xxxxxx","19/05/2017","14:40:39","43","","","UK STOKE-ON-TRENT","UKN","1","0.006000","","","","","NT03","Gamma","","","","","3194","","","+441782898004","","SCFBB1780E7E92F5DF76A74E88B153800","GBP","+443300538880","","","","","","","","","","",""
"N","0","+443300538880","+447854xxxxxx","19/05/2017","18:30:48","62","","","UK STOKE-ON-TRENT","UKN","2","0.004000","","","","","NT03","Gamma","","","","","3194","","","+441782898004","","SDF9CABFC2212BBFCDF3EEF690FD5627C","GBP","+443300538880","","","","","","","","","","",""
"N","0","+443300538880","+447557xxxxxx","19/05/2017","16:18:15","92","","","UK STOKE-ON-TRENT","UKN","1","0.012000","","","","","NT03","Gamma","","","","","3194","","","+441782898004","","SAC94CFD5D969D9455C1907C7763F1C0B","GBP","+443300538880","","","","","","","","","","",""
"N","0","+443300538880","+447886xxxxxx","19/05/2017","16:03:33","44","","","UK STOKE-ON-TRENT","UKN","1","0.006000","","","","","NT03","Gamma","","","","","3194","","","+441782898004","","S26A32593C59320957C4F667788B8D188","GBP","+443300538880","","","","","","","","","","",""
"N","0","+443300538880","+447487xxxxxx","19/05/2017","14:29:52","200","","","UK STOKE-ON-TRENT","UKN","1","0.024000","","","","","NT03","Gamma","","","","","3194","","","+441782898004","","SD2F4FACE643BA22AFE973CA0CC0F0F82","GBP","+443300538880","","","","","","","","","","",""
"N","0","+443300538880","+447487xxxxxx","19/05/2017","13:57:55","51","","","UK STOKE-ON-TRENT","UKN","1","0.007000","","","","","NT03","Gamma","","","","","3194","","","+441782898004","","SDF66970A9E1F594EE1E2F5DA475F64D4","GBP","+443300538880","","","","","","","","","","",""
"N","0","+443300538880","+441782xxxxxx","19/05/2017","13:46:05","245","","","UK STOKE-ON-TRENT","UKN","1","0.030000","","","","","NT03","Gamma","","","","","3194","","","+441782898004","","S72AD71AA94F9741ED84E3EA5B8C079DA","GBP","+443300538880","","","","","","","","","","",""
"N","0","+443300538880","+441413xxxxxx","19/05/2017","13:33:29","42","","","UK STOKE-ON-TRENT","UKN","1","0.006000","","","","","NT03","Gamma","","","","","3194","","","+441782898004","","S99BD4EA4DC1662E34709AB832030F6FF","GBP","+443300538880","","","","","","","","","","",""
"N","0","+443300538880","+447487xxxxxx","19/05/2017","13:04:59","160","","","UK STOKE-ON-TRENT","UKN","1","0.020000","","","","","NT03","Gamma","","","","","3194","","","+441782898004","","SF16A92A409881665015642E0F42BC26D","GBP","+443300538880","","","","","","","","","","",""
"N","0","+443300538880","+447487xxxxxx","19/05/2017","12:38:59","147","","","UK STOKE-ON-TRENT","UKN","1","0.018000","","","","","NT03","Gamma","","","","","3194","","","+441782898004","","SAD80EDC2DF4606D7569F1B158550DD3D","GBP","+443300538880","","","","","","","","","","",""
"N","0","+443300538880","+447557xxxxxx","19/05/2017","12:20:52","105","","","UK STOKE-ON-TRENT","UKN","1","0.013000","","","","","NT03","Gamma","","","","","3194","","","+441782898004","","SA1DFCCAB3C42293F5C6E586C0A8A90CB","GBP","+443300538880","","","","","","","","","","",""
"N","0","+443300538880","+441413xxxxxx","19/05/2017","12:08:10","269","","","UK STOKE-ON-TRENT","UKN","1","0.033000","","","","","NT03","Gamma","","","","","3194","","","+441782898004","","SA8B62808BA86E772FE64D8FDBBE55DCC","GBP","+443300538880","","","","","","","","","","",""
"N","0","+443300538880","+447557xxxxxx","19/05/2017","12:08:03","81","","","UK STOKE-ON-TRENT","UKN","1","0.010000","","","","","NT03","Gamma","","","","","3194","","","+441782898004","","S43A2C627CB7DF37BE232ABD825DD292F","GBP","+443300538880","","","","","","","","","","",""
"N","0","+443300538880","+441617xxxxxx","19/05/2017","12:06:50","51","","","UK STOKE-ON-TRENT","UKN","1","0.007000","","","","","NT03","Gamma","","","","","3194","","","+441782898004","","S74A78F2661F3F1FC8C57C26093D46727","GBP","+443300538880","","","","","","","","","","",""
"N","0","+443300538880","+441254xxxxxx","19/05/2017","11:44:46","36","","","UK STOKE-ON-TRENT","UKN","1","0.005000","","","","","NT03","Gamma","","","","","3194","","","+441782898004","","S7EE5F3332779967BB8656128D09A3B1A","GBP","+443300538880","","","","","","","","","","",""
"N","0","+443300538880","+447495xxxxxx","19/05/2017","11:16:40","46","","","UK STOKE-ON-TRENT","UKN","1","0.006000","","","","","NT03","Gamma","","","","","3194","","","+441782898004","","S9F38351E09654C4699D53D672327AC11","GBP","+443300538880","","","","","","","","","","",""
"N","0","+443300538880","+447557xxxxxx","19/05/2017","10:45:15","150","","","UK STOKE-ON-TRENT","UKN","1","0.018000","","","","","NT03","Gamma","","","","","3194","","","+441782898004","","S7728EDAA5861EC7F7E504DADF6146A4D","GBP","+443300538880","","","","","","","","","","",""
"N","0","+443300538880","+442088xxxxxx","19/05/2017","09:50:18","216","","","UK STOKE-ON-TRENT","UKN","1","0.026000","","","","","NT03","Gamma","","","","","3194","","","+441782898004","","S3E316687519641FF8E27081357465DE5","GBP","+443300538880","","","","","","","","","","",""
"N","0","+443300538880","+441132xxxxxx","19/05/2017","09:26:33","208","","","UK STOKE-ON-TRENT","UKN","1","0.025000","","","","","NT03","Gamma","","","","","3194","","","+441782898004","","Sd5eceebf6247b78a24c2eaa5fc45bc00","GBP","+443300538880","","","","","","","","","","",""
"N","0","+443300538880","+447969xxxxxx","19/05/2017","09:24:06","107","","","UK STOKE-ON-TRENT","UKN","1","0.013000","","","","","NT03","Gamma","","","","","3194","","","+441782898004","","S067EF4CA21D2F91E736E372194B64077","GBP","+443300538880","","","","","","","","","","",""
"N","0","+443300538880","+447854xxxxxx","20/05/2017","12:54:19","61","","","UK STOKE-ON-TRENT","UKN","3","0.004000","","","","","NT03","Gamma","","","","","3194","","","+441782898004","","S5B31EE36D52703F0D810C3E77C7EA942","GBP","+443300538880","","","","","","","","","","",""
"N","0","+443300538880","+447854xxxxxx","20/05/2017","12:55:27","60","","","UK STOKE-ON-TRENT","UKN","3","0.004000","","","","","NT03","Gamma","","","","","3194","","","+441782898004","","S657EAE068A86E38E5C9D654CCA2AE78D","GBP","+443300538880","","","","","","","","","","",""
"N","0","+443300538880","+447870xxxxxx","22/05/2017","09:55:09","89","","","UK STOKE-ON-TRENT","UKN","1","0.011000","","","","","NT03","Gamma","","","","","3194","","","+441782898004","","S01FBFD0EBA03B1E29D60127309778A06","GBP","+443300538880","","","","","","","","","","",""
"N","0","+443300538880","+447741xxxxxx","22/05/2017","12:18:30","105","","","UK STOKE-ON-TRENT","UKN","1","0.013000","","","","","NT03","Gamma","","","","","3194","","","+441782898004","","S84307D7230A4CBDCD2601CBAA2D99E90","GBP","+443300538880","","","","","","","","","","",""
"N","0","+443300538880","+441989xxxxxx","22/05/2017","13:17:31","203","","","UK STOKE-ON-TRENT","UKN","1","0.025000","","","","","NT03","Gamma","","","","","3194","","","+441782898004","","S3E4A2F49079C7829596334BFAC0F0A84","GBP","+443300538880","","","","","","","","","","",""
"N","0","+443300538880","+447487xxxxxx","22/05/2017","13:58:19","186","","","UK STOKE-ON-TRENT","UKN","1","0.023000","","","","","NT03","Gamma","","","","","3194","","","+441782898004","","S7AF9B03AE1462CEDCBF1ED07FA3429E9","GBP","+443300538880","","","","","","","","","","",""
"N","0","+443300538880","+447487xxxxxx","22/05/2017","14:19:50","367","","","UK STOKE-ON-TRENT","UKN","1","0.045000","","","","","NT03","Gamma","","","","","3194","","","+441782898004","","SFDB56329485600B4D7E27E00792AE1BC","GBP","+443300538880","","","","","","","","","","",""
"N","0","+443300538880","+447487xxxxxx","22/05/2017","15:07:53","54","","","UK STOKE-ON-TRENT","UKN","1","0.007000","","","","","NT03","Gamma","","","","","3194","","","+441782898004","","S030E399DD9EF43F70CBF8E0810B14172","GBP","+443300538880","","","","","","","","","","",""
"N","0","+443300538880","+441617xxxxxx","22/05/2017","15:19:37","109","","","UK STOKE-ON-TRENT","UKN","1","0.014000","","","","","NT03","Gamma","","","","","3194","","","+441782898004","","S54DD186BCF87D58436CA551C5F6A9223","GBP","+443300538880","","","","","","","","","","",""
"N","0","+443300538880","+441159xxxxxx","22/05/2017","16:24:00","112","","","UK STOKE-ON-TRENT","UKN","1","0.014000","","","","","NT03","Gamma","","","","","3194","","","+441782898004","","Sd24c17476d00e7157b773dbf1f2e325f","GBP","+443300538880","","","","","","","","","","",""
"N","0","+443300538880","+442086xxxxxx","22/05/2017","15:21:10","54","","","UK STOKE-ON-TRENT","UKN","1","0.007000","","","","","NT03","Gamma","","","","","3194","","","+441782898004","","SE0FFD9EFD425FF76CF4ACF1224F57E35","GBP","+443300538880","","","","","","","","","","",""
"N","0","+443300538880","+441782xxxxxx","23/05/2017","08:49:24","12","","","UK STOKE-ON-TRENT","UKN","1","0.002000","","","","","NT03","Gamma","","","","","3194","","","+441782898004","","S4F8F036AAECCC1D3ECD183DB4B01CE6B","GBP","+443300538880","","","","","","","","","","",""
"N","0","+443300538880","+447487xxxxxx","23/05/2017","08:55:55","223","","","UK STOKE-ON-TRENT","UKN","1","0.027000","","","","","NT03","Gamma","","","","","3194","","","+441782898004","","SD0BCEABB10ED523F2D2356B15D0E5449","GBP","+443300538880","","","","","","","","","","",""
"N","0","+443300538880","+447557xxxxxx","23/05/2017","09:46:51","82","","","UK STOKE-ON-TRENT","UKN","1","0.010000","","","","","NT03","Gamma","","","","","3194","","","+441782898004","","S3BFDC2DB94F5B209387AC367B1337532","GBP","+443300538880","","","","","","","","","","",""
"N","0","+443300538880","+447487xxxxxx","23/05/2017","09:48:24","186","","","UK STOKE-ON-TRENT","UKN","1","0.023000","","","","","NT03","Gamma","","","","","3194","","","+441782898004","","SC0F8E7AE37A19F5BE22156C36B86D51D","GBP","+443300538880","","","","","","","","","","",""
"N","0","+443300538880","+441509xxxxxx","23/05/2017","10:02:49","101","","","UK STOKE-ON-TRENT","UKN","1","0.013000","","","","","NT03","Gamma","","","","","3194","","","+441782898004","","SA3E4BDA63DB969AA63BB66910394B46E","GBP","+443300538880","","","","","","","","","","",""
"N","0","+443300538880","+441386xxxxxx","23/05/2017","11:06:04","47","","","UK STOKE-ON-TRENT","UKN","1","0.006000","","","","","NT03","Gamma","","","","","3194","","","+441782898004","","S7C4B4FE3A449B3B4659F539105EEC880","GBP","+443300538880","","","","","","","","","","",""
"N","0","+443300538880","+447884xxxxxx","23/05/2017","11:21:17","142","","","UK STOKE-ON-TRENT","UKN","1","0.018000","","","","","NT03","Gamma","","","","","3194","","","+441782898004","","SB640B93AA1DAE1E10724BA561B86C0D9","GBP","+443300538880","","","","","","","","","","",""
"N","0","+443300538880","+447703xxxxxx","23/05/2017","12:23:10","15","","","UK STOKE-ON-TRENT","UKN","1","0.002000","","","","","NT03","Gamma","","","","","3194","","","+441782898004","","S1ED8AD1A0B61F9F23516A812006C0AE2","GBP","+443300538880","","","","","","","","","","",""
"N","0","+443300538880","+447973xxxxxx","23/05/2017","12:53:31","651","","","UK STOKE-ON-TRENT","UKN","1","0.079000","","","","","NT03","Gamma","","","","","3194","","","+441782898004","","S335D3C79D711964233E3076296FA1500","GBP","+443300538880","","","","","","","","","","",""
"N","0","+443300538880","+447557xxxxxx","23/05/2017","13:00:35","159","","","UK STOKE-ON-TRENT","UKN","1","0.020000","","","","","NT03","Gamma","","","","","3194","","","+441782898004","","SB90F35C638B96FAD0953E26A8586AA2B","GBP","+443300538880","","","","","","","","","","",""
"N","0","+443300538880","+447703xxxxxx","23/05/2017","13:07:58","218","","","UK STOKE-ON-TRENT","UKN","1","0.027000","","","","","NT03","Gamma","","","","","3194","","","+441782898004","","S85E1C0A9A80F47092C7CA616A7063293","GBP","+443300538880","","","","","","","","","","",""
"N","0","+443300538880","+447879xxxxxx","23/05/2017","17:11:16","133","","","UK STOKE-ON-TRENT","UKN","1","0.016000","","","","","NT03","Gamma","","","","","3194","","","+441782898004","","S138A6A62B4E8D3DEF0A3181B7423C3AA","GBP","+443300538880","","","","","","","","","","",""
"N","0","+443300538880","+447971xxxxxx","23/05/2017","16:19:13","188","","","UK STOKE-ON-TRENT","UKN","1","0.023000","","","","","NT03","Gamma","","","","","3194","","","+441782898004","","S5AC8B13EFD514BD3F6074FA853CE4496","GBP","+443300538880","","","","","","","","","","",""
"N","0","+443300538880","+447943xxxxxx","23/05/2017","14:39:02","108","","","UK STOKE-ON-TRENT","UKN","1","0.013000","","","","","NT03","Gamma","","","","","3194","","","+441782898004","","S6A83ED43AAC69E80A3321A61A50F4AAF","GBP","+443300538880","","","","","","","","","","",""
"N","0","+443300538880","+447973xxxxxx","23/05/2017","13:20:45","116","","","UK STOKE-ON-TRENT","UKN","1","0.014000","","","","","NT03","Gamma","","","","","3194","","","+441782898004","","SDB49CFEC05986AE559E44DD8D2928D40","GBP","+443300538880","","","","","","","","","","",""
"N","0","+443300538880","+447525xxxxxx","24/05/2017","08:29:07","102","","","UK STOKE-ON-TRENT","UKN","1","0.013000","","","","","NT03","Gamma","","","","","3194","","","+441782898004","","S8A7C5474141DC0274940A71296C8DD59","GBP","+443300538880","","","","","","","","","","",""
"N","0","+443300538880","+447879xxxxxx","24/05/2017","08:49:33","241","","","UK STOKE-ON-TRENT","UKN","1","0.029000","","","","","NT03","Gamma","","","","","3194","","","+441782898004","","S07A418DA06CF30FCF1D5DC6F8CD828BE","GBP","+443300538880","","","","","","","","","","",""
"N","0","+443300538880","+447449xxxxxx","24/05/2017","09:30:27","73","","","UK STOKE-ON-TRENT","UKN","1","0.009000","","","","","NT03","Gamma","","","","","3194","","","+441782898004","","S9B5B0E87E4D3AF32661D0D88E7182851","GBP","+443300538880","","","","","","","","","","",""
"N","0","+443300538880","+441782xxxxxx","24/05/2017","10:24:21","290","","","UK STOKE-ON-TRENT","UKN","1","0.035000","","","","","NT03","Gamma","","","","","3194","","","+441782898004","","S75828710E55C28E96CCF978F3F567A5A","GBP","+443300538880","","","","","","","","","","",""
"N","0","+443300538880","+441212xxxxxx","24/05/2017","10:37:27","85","","","UK STOKE-ON-TRENT","UKN","1","0.011000","","","","","NT03","Gamma","","","","","3194","","","+441782898004","","SB280B7A70E88CE1E524D57019E2A3955","GBP","+443300538880","","","","","","","","","","",""
"N","0","+443300538880","+447557xxxxxx","24/05/2017","11:00:25","171","","","UK STOKE-ON-TRENT","UKN","1","0.021000","","","","","NT03","Gamma","","","","","3194","","","+441782898004","","S5617A65CF17C48068E65E02ADE672486","GBP","+443300538880","","","","","","","","","","",""
"N","0","+443300538880","+447487xxxxxx","24/05/2017","12:04:06","283","","","UK STOKE-ON-TRENT","UKN","1","0.034000","","","","","NT03","Gamma","","","","","3194","","","+441782898004","","SCC294E52516EA028FD3E999A193398DF","GBP","+443300538880","","","","","","","","","","",""
"N","0","+443300538880","+447487xxxxxx","24/05/2017","12:27:19","124","","","UK STOKE-ON-TRENT","UKN","1","0.015000","","","","","NT03","Gamma","","","","","3194","","","+441782898004","","SF54160467C3BE7E15BD64115C3BEEF69","GBP","+443300538880","","","","","","","","","","",""
"N","0","+443300538880","+447741xxxxxx","24/05/2017","13:18:48","95","","","UK STOKE-ON-TRENT","UKN","1","0.012000","","","","","NT03","Gamma","","","","","3194","","","+441782898004","","S95E4AFDB0E44E96833E66C04EA966F44","GBP","+443300538880","","","","","","","","","","",""
"N","0","+443300538880","+447741xxxxxx","24/05/2017","14:18:03","96","","","UK STOKE-ON-TRENT","UKN","1","0.012000","","","","","NT03","Gamma","","","","","3194","","","+441782898004","","SAEC8E34A7F3C38960D3905D75A94243F","GBP","+443300538880","","","","","","","","","","",""
"N","0","+443300538880","+447487xxxxxx","24/05/2017","15:53:27","107","","","UK STOKE-ON-TRENT","UKN","1","0.013000","","","","","NT03","Gamma","","","","","3194","","","+441782898004","","S2385F48B1CE9448D859DD05AD388F0D9","GBP","+443300538880","","","","","","","","","","",""
"N","0","+443300538880","+447557xxxxxx","24/05/2017","15:53:39","88","","","UK STOKE-ON-TRENT","UKN","1","0.011000","","","","","NT03","Gamma","","","","","3194","","","+441782898004","","SDBADACDBCDFC4A8E67B89BA8FFD952C9","GBP","+443300538880","","","","","","","","","","",""
"N","0","+443300538880","+447487xxxxxx","24/05/2017","16:38:33","43","","","UK STOKE-ON-TRENT","UKN","1","0.006000","","","","","NT03","Gamma","","","","","3194","","","+441782898004","","S0D3A1800D7561B0E7A8D9A0BAA880D91","GBP","+443300538880","","","","","","","","","","",""
"N","0","+443300538880","+447487xxxxxx","24/05/2017","15:59:55","36","","","UK STOKE-ON-TRENT","UKN","1","0.005000","","","","","NT03","Gamma","","","","","3194","","","+441782898004","","SFC5DE90F926F063FA5B76572E3A4A187","GBP","+443300538880","","","","","","","","","","",""
"N","0","+443300538880","+447990xxxxxx","24/05/2017","15:50:16","52","","","UK STOKE-ON-TRENT","UKN","1","0.007000","","","","","NT03","Gamma","","","","","3194","","","+441782898004","","SF08C377C9A1C571C997E984916BC89EA","GBP","+443300538880","","","","","","","","","","",""
"N","0","+443300538880","+441782xxxxxx","24/05/2017","14:19:59","65","","","UK STOKE-ON-TRENT","UKN","1","0.008000","","","","","NT03","Gamma","","","","","3194","","","+441782898004","","SAD9D86AA3A6FC5672546121BC714B8AC","GBP","+443300538880","","","","","","","","","","",""
"N","0","+443300538880","+441782xxxxxx","24/05/2017","13:16:20","92","","","UK STOKE-ON-TRENT","UKN","1","0.012000","","","","","NT03","Gamma","","","","","3194","","","+441782898004","","S556879651EE2226527D98C626E3D22CF","GBP","+443300538880","","","","","","","","","","",""
"N","0","+443300538880","+447487xxxxxx","24/05/2017","12:10:41","43","","","UK STOKE-ON-TRENT","UKN","1","0.006000","","","","","NT03","Gamma","","","","","3194","","","+441782898004","","S6D07C1BA4C2AE325DEE749F928416FF2","GBP","+443300538880","","","","","","","","","","",""
"N","0","+443300538880","+441782xxxxxx","25/05/2017","10:46:50","142","","","UK STOKE-ON-TRENT","UKN","1","0.018000","","","","","NT03","Gamma","","","","","3194","","","+441782898004","","SA05FF8B3540AA3B7BE2953B0D5DB16B5","GBP","+443300538880","","","","","","","","","","",""
"N","0","+443300538880","+447977xxxxxx","25/05/2017","11:03:04","129","","","UK STOKE-ON-TRENT","UKN","1","0.016000","","","","","NT03","Gamma","","","","","3194","","","+441782898004","","S9B57DB6D8818212924C6C55683ADC08A","GBP","+443300538880","","","","","","","","","","",""
"N","0","+443300538880","+447879xxxxxx","25/05/2017","11:20:21","61","","","UK STOKE-ON-TRENT","UKN","1","0.008000","","","","","NT03","Gamma","","","","","3194","","","+441782898004","","SD4F77D4BA7795BB7208B744223E7C42F","GBP","+443300538880","","","","","","","","","","",""
"N","0","+443300538880","+447980xxxxxx","25/05/2017","11:48:57","232","","","UK STOKE-ON-TRENT","UKN","1","0.028000","","","","","NT03","Gamma","","","","","3194","","","+441782898004","","S8AB94F27A539F823D0DEB037BEBE2EE2","GBP","+443300538880","","","","","","","","","","",""
"N","0","+443300538880","+441422xxxxxx","25/05/2017","11:54:33","52","","","UK STOKE-ON-TRENT","UKN","1","0.007000","","","","","NT03","Gamma","","","","","3194","","","+441782898004","","S26F6C7B11707372FB6D3A21716FC0F72","GBP","+443300538880","","","","","","","","","","",""
"N","0","+443300538880","+447879xxxxxx","25/05/2017","12:04:41","86","","","UK STOKE-ON-TRENT","UKN","1","0.011000","","","","","NT03","Gamma","","","","","3194","","","+441782898004","","SFD7C46A452916619F61F7C27FB73DB36","GBP","+443300538880","","","","","","","","","","",""
"N","0","+443300538880","+447879xxxxxx","25/05/2017","16:08:16","96","","","UK STOKE-ON-TRENT","UKN","1","0.012000","","","","","NT03","Gamma","","","","","3194","","","+441782898004","","S4468B2D3EDA4D0C60EBA23036BE13FA3","GBP","+443300538880","","","","","","","","","","",""
"N","0","+443300538880","+447741xxxxxx","25/05/2017","16:38:53","210","","","UK STOKE-ON-TRENT","UKN","1","0.026000","","","","","NT03","Gamma","","","","","3194","","","+441782898004","","SD7B30EAFDECAD127E895E2F072B03110","GBP","+443300538880","","","","","","","","","","",""
"N","0","+443300538880","+447741xxxxxx","25/05/2017","15:13:20","179","","","UK STOKE-ON-TRENT","UKN","1","0.022000","","","","","NT03","Gamma","","","","","3194","","","+441782898004","","S08C484AB9DCFBB7D63A917DD394BDEF7","GBP","+443300538880","","","","","","","","","","",""
"N","0","+443300538880","+447741xxxxxx","25/05/2017","12:38:18","80","","","UK STOKE-ON-TRENT","UKN","1","0.010000","","","","","NT03","Gamma","","","","","3194","","","+441782898004","","SC4440E55D6707044AA7B06264B7B4989","GBP","+443300538880","","","","","","","","","","",""
"N","0","+443300538880","+441516xxxxxx","25/05/2017","12:28:24","98","","","UK STOKE-ON-TRENT","UKN","1","0.012000","","","","","NT03","Gamma","","","","","3194","","","+441782898004","","Se5e1f7f88d2165330cb72c1a288b4785","GBP","+443300538880","","","","","","","","","","",""
"N","0","+443300538880","+441480xxxxxx","25/05/2017","12:08:09","199","","","UK STOKE-ON-TRENT","UKN","1","0.024000","","","","","NT03","Gamma","","","","","3194","","","+441782898004","","S00843236673777ADA0C76C6F4EDEE961","GBP","+443300538880","","","","","","","","","","",""
"N","0","+443300538880","+447741xxxxxx","25/05/2017","12:04:35","102","","","UK STOKE-ON-TRENT","UKN","1","0.013000","","","","","NT03","Gamma","","","","","3194","","","+441782898004","","S5231090FE23E9497BC37B8D9C1A33EC2","GBP","+443300538880","","","","","","","","","","",""
"N","0","+443300538880","+447741xxxxxx","25/05/2017","11:58:52","308","","","UK STOKE-ON-TRENT","UKN","1","0.037000","","","","","NT03","Gamma","","","","","3194","","","+441782898004","","S3FB3A5AB5996AB7F73028A1973D69D52","GBP","+443300538880","","","","","","","","","","",""
"N","0","+443300538880","+447741xxxxxx","25/05/2017","09:34:02","86","","","UK STOKE-ON-TRENT","UKN","1","0.011000","","","","","NT03","Gamma","","","","","3194","","","+441782898004","","S3A62DA63325917CD42B82569094501A2","GBP","+443300538880","","","","","","","","","","",""
"N","0","+443300538880","+447879xxxxxx","25/05/2017","09:22:59","71","","","UK STOKE-ON-TRENT","UKN","1","0.009000","","","","","NT03","Gamma","","","","","3194","","","+441782898004","","SB187EC8D7C2D89C6B9C725816163E886","GBP","+443300538880","","","","","","","","","","",""
"N","0","+443300538880","+447557xxxxxx","25/05/2017","08:51:58","32","","","UK STOKE-ON-TRENT","UKN","1","0.004000","","","","","NT03","Gamma","","","","","3194","","","+441782898004","","S783108378CC144B641FA4320DA574A7E","GBP","+443300538880","","","","","","","","","","",""
"N","0","+443300538880","+447741xxxxxx","26/05/2017","09:50:52","75","","","UK STOKE-ON-TRENT","UKN","1","0.009000","","","","","NT03","Gamma","","","","","3194","","","+441782898004","","S51DAF839F52DF7EBD576C34B4E8A0D2E","GBP","+443300538880","","","","","","","","","","",""
"N","0","+443300538880","+447487xxxxxx","26/05/2017","09:50:57","301","","","UK STOKE-ON-TRENT","UKN","1","0.037000","","","","","NT03","Gamma","","","","","3194","","","+441782898004","","S024D50BCBCEB9E684C4907D0AF4EA833","GBP","+443300538880","","","","","","","","","","",""
"N","0","+443300538880","+447487xxxxxx","26/05/2017","10:47:24","334","","","UK STOKE-ON-TRENT","UKN","1","0.041000","","","","","NT03","Gamma","","","","","3194","","","+441782898004","","S2D157086143CF43E4CC6B6812FA08233","GBP","+443300538880","","","","","","","","","","",""
"N","0","+443300538880","+353145xxxxxx","26/05/2017","11:14:00","140","","","UK STOKE-ON-TRENT","UKN","1","0.017000","","","","","NT03","Gamma","","","","","3194","","","+441782898004","","S30cfc79bad1945ca8d5a31156d04ebf0","GBP","+443300538880","","","","","","","","","","",""
"N","0","+443300538880","+353145xxxxxx","26/05/2017","11:58:53","500","","","UK STOKE-ON-TRENT","UKN","1","0.060000","","","","","NT03","Gamma","","","","","3194","","","+441782898004","","S353e335a11bf467068eec9e3b95ce585","GBP","+443300538880","","","","","","","","","","",""
"N","0","+443300538880","+447495xxxxxx","26/05/2017","13:10:02","113","","","UK STOKE-ON-TRENT","UKN","1","0.014000","","","","","NT03","Gamma","","","","","3194","","","+441782898004","","S9F985CE4718647AD9094EFE5CBAA82F6","GBP","+443300538880","","","","","","","","","","",""
"N","0","+443300538880","+441617xxxxxx","26/05/2017","13:59:20","56","","","UK STOKE-ON-TRENT","UKN","1","0.007000","","","","","NT03","Gamma","","","","","3194","","","+441782898004","","S4AD6D6F127221DD37AC5CFEA38B7A346","GBP","+443300538880","","","","","","","","","","",""
"N","0","+443300538880","+441617xxxxxx","26/05/2017","14:02:17","51","","","UK STOKE-ON-TRENT","UKN","1","0.007000","","","","","NT03","Gamma","","","","","3194","","","+441782898004","","S465458B33817E308D6F42FAD2EEDAF19","GBP","+443300538880","","","","","","","","","","",""
"N","0","+443300538880","+447741xxxxxx","26/05/2017","14:07:35","48","","","UK STOKE-ON-TRENT","UKN","1","0.006000","","","","","NT03","Gamma","","","","","3194","","","+441782898004","","S50018CF994E49557BB08E3A1381A4BB5","GBP","+443300538880","","","","","","","","","","",""
"N","0","+443300538880","+447741xxxxxx","26/05/2017","14:12:13","49","","","UK STOKE-ON-TRENT","UKN","1","0.006000","","","","","NT03","Gamma","","","","","3194","","","+441782898004","","S4BD1DE6AB021A78E1A9775DE8FB08B02","GBP","+443300538880","","","","","","","","","","",""
"N","0","+443300538880","+447487xxxxxx","26/05/2017","14:47:06","86","","","UK STOKE-ON-TRENT","UKN","1","0.011000","","","","","NT03","Gamma","","","","","3194","","","+441782898004","","S7A76A795A8E62B28139AFA089A480AEA","GBP","+443300538880","","","","","","","","","","",""
"N","0","+443300538880","+447487xxxxxx","26/05/2017","15:12:09","185","","","UK STOKE-ON-TRENT","UKN","1","0.023000","","","","","NT03","Gamma","","","","","3194","","","+441782898004","","S4DD977F95CE2B72A1635D24B2E8C37F8","GBP","+443300538880","","","","","","","","","","",""
"N","0","+443300538880","+447487xxxxxx","26/05/2017","15:17:14","49","","","UK STOKE-ON-TRENT","UKN","1","0.006000","","","","","NT03","Gamma","","","","","3194","","","+441782898004","","S97225A7608772EE0654D3706E614804A","GBP","+443300538880","","","","","","","","","","",""
"N","0","+443300538880","+441617xxxxxx","26/05/2017","15:33:23","113","","","UK STOKE-ON-TRENT","UKN","1","0.014000","","","","","NT03","Gamma","","","","","3194","","","+441782898004","","S3A550308590AB8E692DFC22CEC339639","GBP","+443300538880","","","","","","","","","","",""
"N","0","+443300538880","+447495xxxxxx","26/05/2017","15:38:45","185","","","UK STOKE-ON-TRENT","UKN","1","0.023000","","","","","NT03","Gamma","","","","","3194","","","+441782898004","","S80E8805ED606848BA01748E53873A650","GBP","+443300538880","","","","","","","","","","",""
"N","0","+443300538880","+447557xxxxxx","26/05/2017","16:43:09","198","","","UK STOKE-ON-TRENT","UKN","1","0.024000","","","","","NT03","Gamma","","","","","3194","","","+441782898004","","S8E77256CC5198B398DE503514F03A209","GBP","+443300538880","","","","","","","","","","",""
"N","0","+443300538880","+447487xxxxxx","26/05/2017","15:38:39","107","","","UK STOKE-ON-TRENT","UKN","1","0.013000","","","","","NT03","Gamma","","","","","3194","","","+441782898004","","S2EFA70B01592997CA7D4AD131145BAD7","GBP","+443300538880","","","","","","","","","","",""
"N","0","+443300538880","+447741xxxxxx","26/05/2017","14:49:16","101","","","UK STOKE-ON-TRENT","UKN","1","0.013000","","","","","NT03","Gamma","","","","","3194","","","+441782898004","","S9301291193D359524862A92968D9DA71","GBP","+443300538880","","","","","","","","","","",""
"N","0","+443300538880","+447741xxxxxx","26/05/2017","14:19:39","232","","","UK STOKE-ON-TRENT","UKN","1","0.028000","","","","","NT03","Gamma","","","","","3194","","","+441782898004","","S4617AE1B51330D6011A2192AC233773E","GBP","+443300538880","","","","","","","","","","",""
"N","0","+443300538880","+441782xxxxxx","26/05/2017","11:51:52","98","","","UK STOKE-ON-TRENT","UKN","1","0.012000","","","","","NT03","Gamma","","","","","3194","","","+441782898004","","S82EB1CCF295ADC9982DB0BD3E44408A7","GBP","+443300538880","","","","","","","","","","",""
"N","0","+443300538880","+441527xxxxxx","26/05/2017","11:49:54","100","","","UK STOKE-ON-TRENT","UKN","1","0.012000","","","","","NT03","Gamma","","","","","3194","","","+441782898004","","Sc12ae0c598ac127e37986c7175f909d6","GBP","+443300538880","","","","","","","","","","",""
"N","0","+443300538880","+441132xxxxxx","26/05/2017","11:35:51","136","","","UK STOKE-ON-TRENT","UKN","1","0.017000","","","","","NT03","Gamma","","","","","3194","","","+441782898004","","S90f49077444d4bec19fe3470a0818947","GBP","+443300538880","","","","","","","","","","",""
"N","0","+443300538880","+447557xxxxxx","26/05/2017","11:21:11","36","","","UK STOKE-ON-TRENT","UKN","1","0.005000","","","","","NT03","Gamma","","","","","3194","","","+441782898004","","SE5426187CEBFF2413CB3508F553043E5","GBP","+443300538880","","","","","","","","","","",""
"N","0","+443300538880","+447487xxxxxx","26/05/2017","09:24:27","118","","","UK STOKE-ON-TRENT","UKN","1","0.015000","","","","","NT03","Gamma","","","","","3194","","","+441782898004","","S9D7AD43A0F3A779821B678DC00AFA77E","GBP","+443300538880","","","","","","","","","","",""
"N","0","+443300538880","+447487xxxxxx","30/05/2017","09:01:26","353","","","UK STOKE-ON-TRENT","UKN","1","0.043000","","","","","NT03","Gamma","","","","","3194","","","+441782898004","","S82D2743BA308AB381E214EF78CE4BF65","GBP","+443300538880","","","","","","","","","","",""
"N","0","+443300538880","+447487xxxxxx","30/05/2017","09:20:06","126","","","UK STOKE-ON-TRENT","UKN","1","0.016000","","","","","NT03","Gamma","","","","","3194","","","+441782898004","","SC2DC12008ADBF07410441BF395B4B241","GBP","+443300538880","","","","","","","","","","",""
"N","0","+443300538880","+447495xxxxxx","30/05/2017","09:43:59","82","","","UK STOKE-ON-TRENT","UKN","1","0.010000","","","","","NT03","Gamma","","","","","3194","","","+441782898004","","SB7ECBBFE039F7FCFA194F67A886A62F2","GBP","+443300538880","","","","","","","","","","",""
"N","0","+443300538880","+447557xxxxxx","30/05/2017","10:40:40","96","","","UK STOKE-ON-TRENT","UKN","1","0.012000","","","","","NT03","Gamma","","","","","3194","","","+441782898004","","SBBBC6B889677B9BA1941D45683F01A70","GBP","+443300538880","","","","","","","","","","",""
"N","0","+443300538880","+447825xxxxxx","30/05/2017","13:43:30","480","","","UK STOKE-ON-TRENT","UKN","1","0.058000","","","","","NT03","Gamma","","","","","3194","","","+441782898004","","SCC6BB97F81C5DC1E11F9AF2B8ECDB64C","GBP","+443300538880","","","","","","","","","","",""
"N","0","+443300538880","+447557xxxxxx","30/05/2017","14:18:43","79","","","UK STOKE-ON-TRENT","UKN","1","0.010000","","","","","NT03","Gamma","","","","","3194","","","+441782898004","","S02F5099BAFDD28A0A00345313C79896B","GBP","+443300538880","","","","","","","","","","",""
"N","0","+443300538880","+447495xxxxxx","30/05/2017","14:19:54","57","","","UK STOKE-ON-TRENT","UKN","1","0.007000","","","","","NT03","Gamma","","","","","3194","","","+441782898004","","S3E002F9E510F2888EDB19A7DF3B9D8ED","GBP","+443300538880","","","","","","","","","","",""
"N","0","+443300538880","+447741xxxxxx","30/05/2017","15:33:17","62","","","UK STOKE-ON-TRENT","UKN","1","0.008000","","","","","NT03","Gamma","","","","","3194","","","+441782898004","","S415A6883656CF7C189D5BCEF18856CEA","GBP","+443300538880","","","","","","","","","","",""
"N","0","+443300538880","+447809xxxxxx","30/05/2017","16:04:49","133","","","UK STOKE-ON-TRENT","UKN","1","0.016000","","","","","NT03","Gamma","","","","","3194","","","+441782898004","","SA3A92D471E9257EFD828E9881E9327CB","GBP","+443300538880","","","","","","","","","","",""
"N","0","+443300538880","+447890xxxxxx","30/05/2017","16:47:02","52","","","UK STOKE-ON-TRENT","UKN","1","0.007000","","","","","NT03","Gamma","","","","","3194","","","+441782898004","","S0E4B3D9F6EF09641778760B7BB8B9632","GBP","+443300538880","","","","","","","","","","",""
"N","0","+443300538880","+441782xxxxxx","30/05/2017","16:36:49","102","","","UK STOKE-ON-TRENT","UKN","1","0.013000","","","","","NT03","Gamma","","","","","3194","","","+441782898004","","S4EFEA9420EA4F71401AFD1CDCBBAD180","GBP","+443300538880","","","","","","","","","","",""
"N","0","+443300538880","+447764xxxxxx","30/05/2017","14:08:27","82","","","UK STOKE-ON-TRENT","UKN","1","0.010000","","","","","NT03","Gamma","","","","","3194","","","+441782898004","","S6E9342553023D214484AEDC7A1894B2C","GBP","+443300538880","","","","","","","","","","",""
"N","0","+443300538880","+447487xxxxxx","30/05/2017","12:58:17","120","","","UK STOKE-ON-TRENT","UKN","1","0.015000","","","","","NT03","Gamma","","","","","3194","","","+441782898004","","S3AC55B0C6498C9638D19C73AFCD45392","GBP","+443300538880","","","","","","","","","","",""
"N","0","+443300538880","+447741xxxxxx","30/05/2017","11:32:41","589","","","UK STOKE-ON-TRENT","UKN","1","0.071000","","","","","NT03","Gamma","","","","","3194","","","+441782898004","","S981B658E36D844B63205659635E39934","GBP","+443300538880","","","","","","","","","","",""
"N","0","+443300538880","+447487xxxxxx","30/05/2017","09:27:36","145","","","UK STOKE-ON-TRENT","UKN","1","0.018000","","","","","NT03","Gamma","","","","","3194","","","+441782898004","","SA31A1F3CBEE5EC82C2A35156075971F0","GBP","+443300538880","","","","","","","","","","",""
"N","0","+443300538880","+447487xxxxxx","30/05/2017","09:24:09","55","","","UK STOKE-ON-TRENT","UKN","1","0.007000","","","","","NT03","Gamma","","","","","3194","","","+441782898004","","S1B863A0AEDD3A4FB6FCEEF92CC7BE6F7","GBP","+443300538880","","","","","","","","","","",""
"N","0","+443300538880","+390852xxxxxx","31/05/2017","08:24:30","16","","","UK STOKE-ON-TRENT","UKN","1","0.002000","","","","","NT03","Gamma","","","","","3194","","","+441782898004","","SC710CA060268090FDA864E8BE34132FC","GBP","+443300538880","","","","","","","","","","",""
"N","0","+443300538880","+390852xxxxxx","31/05/2017","08:25:20","64","","","UK STOKE-ON-TRENT","UKN","1","0.008000","","","","","NT03","Gamma","","","","","3194","","","+441782898004","","S8690A40C9CF885F099200A7FEE537258","GBP","+443300538880","","","","","","","","","","",""
"N","0","+443300538880","+447495xxxxxx","31/05/2017","09:01:48","148","","","UK STOKE-ON-TRENT","UKN","1","0.018000","","","","","NT03","Gamma","","","","","3194","","","+441782898004","","S619C45F3893860669237F3B46EAB780F","GBP","+443300538880","","","","","","","","","","",""
"N","0","+443300538880","+447741xxxxxx","31/05/2017","09:45:39","146","","","UK STOKE-ON-TRENT","UKN","1","0.018000","","","","","NT03","Gamma","","","","","3194","","","+441782898004","","S57852A0AD9AE3A3A43175A6E8D85B5F3","GBP","+443300538880","","","","","","","","","","",""
"N","0","+443300538880","+447487xxxxxx","31/05/2017","09:56:46","26","","","UK STOKE-ON-TRENT","UKN","1","0.004000","","","","","NT03","Gamma","","","","","3194","","","+441782898004","","S0EF85628F58A2E114FA8481F85547075","GBP","+443300538880","","","","","","","","","","",""
"N","0","+443300538880","+447487xxxxxx","31/05/2017","09:57:27","201","","","UK STOKE-ON-TRENT","UKN","1","0.025000","","","","","NT03","Gamma","","","","","3194","","","+441782898004","","S26DD9982013F0E2B6A2D8D019096AE88","GBP","+443300538880","","","","","","","","","","",""
"N","0","+443300538880","+447557xxxxxx","31/05/2017","10:35:43","58","","","UK STOKE-ON-TRENT","UKN","1","0.007000","","","","","NT03","Gamma","","","","","3194","","","+441782898004","","S687462404A2F2F3FF6D17DF80EE4D653","GBP","+443300538880","","","","","","","","","","",""
"N","0","+443300538880","+447487xxxxxx","31/05/2017","10:43:19","479","","","UK STOKE-ON-TRENT","UKN","1","0.058000","","","","","NT03","Gamma","","","","","3194","","","+441782898004","","S428B4315D9F02AEDC5E68D0A18D1BB15","GBP","+443300538880","","","","","","","","","","",""
"N","0","+443300538880","+441617xxxxxx","31/05/2017","11:36:05","38","","","UK STOKE-ON-TRENT","UKN","1","0.005000","","","","","NT03","Gamma","","","","","3194","","","+441782898004","","S621B322729548133215BBECD9407B9D8","GBP","+443300538880","","","","","","","","","","",""
"N","0","+443300538880","+447715xxxxxx","31/05/2017","12:59:23","188","","","UK STOKE-ON-TRENT","UKN","1","0.023000","","","","","NT03","Gamma","","","","","3194","","","+441782898004","","S6036C094F4471FEB57043DA64434E1AC","GBP","+443300538880","","","","","","","","","","",""
"N","0","+443300538880","+441608xxxxxx","31/05/2017","13:00:16","55","","","UK STOKE-ON-TRENT","UKN","1","0.007000","","","","","NT03","Gamma","","","","","3194","","","+441782898004","","SEA2EAFAF9EE5EBA78594558F39D2A958","GBP","+443300538880","","","","","","","","","","",""
"N","0","+443300538880","+447741xxxxxx","31/05/2017","13:33:52","101","","","UK STOKE-ON-TRENT","UKN","1","0.013000","","","","","NT03","Gamma","","","","","3194","","","+441782898004","","SC671C2BA8FBD7D4E118C9D9A841717E9","GBP","+443300538880","","","","","","","","","","",""
"N","0","+443300538880","+447741xxxxxx","31/05/2017","13:35:41","50","","","UK STOKE-ON-TRENT","UKN","1","0.006000","","","","","NT03","Gamma","","","","","3194","","","+441782898004","","S6237822908C3DDCB5A7EA3A9DA7A8248","GBP","+443300538880","","","","","","","","","","",""
"N","0","+443300538880","+448452xxxxxx","31/05/2017","14:02:39","114","","","UK STOKE-ON-TRENT","UKN","1","0.014000","","","","","NT03","Gamma","","","","","3194","","","+441782898004","","S240355E5138057B1B06B997142AE1A02","GBP","+443300538880","","","","","","","","","","",""
"N","0","+443300538880","+447487xxxxxx","31/05/2017","14:14:32","78","","","UK STOKE-ON-TRENT","UKN","1","0.010000","","","","","NT03","Gamma","","","","","3194","","","+441782898004","","SE7BB78CCD31B84504D25BF446448F26E","GBP","+443300538880","","","","","","","","","","",""
"N","0","+443300538880","+447741xxxxxx","31/05/2017","14:45:36","55","","","UK STOKE-ON-TRENT","UKN","1","0.007000","","","","","NT03","Gamma","","","","","3194","","","+441782898004","","SBF1A67E12F8C6B72B34EA7F194DC218D","GBP","+443300538880","","","","","","","","","","",""
"N","0","+443300538880","+447740xxxxxx","31/05/2017","16:10:27","119","","","UK STOKE-ON-TRENT","UKN","1","0.015000","","","","","NT03","Gamma","","","","","3194","","","+441782898004","","S3AA02825ED28E45B456B25AED01F080C","GBP","+443300538880","","","","","","","","","","",""
"N","0","+443300538880","+447487xxxxxx","31/05/2017","16:46:53","184","","","UK STOKE-ON-TRENT","UKN","1","0.023000","","","","","NT03","Gamma","","","","","3194","","","+441782898004","","SBF5F17E87C7D8219596770D95DA2B67E","GBP","+443300538880","","","","","","","","","","",""
"N","0","+443300538880","+441782xxxxxx","31/05/2017","16:39:01","80","","","UK STOKE-ON-TRENT","UKN","1","0.010000","","","","","NT03","Gamma","","","","","3194","","","+441782898004","","S5077178D6A8F67890AEF8746E3A2A61A","GBP","+443300538880","","","","","","","","","","",""
"N","0","+443300538880","+447487xxxxxx","31/05/2017","15:48:07","43","","","UK STOKE-ON-TRENT","UKN","1","0.006000","","","","","NT03","Gamma","","","","","3194","","","+441782898004","","S7DB73483025FF4AB6683DAEB0C1C404D","GBP","+443300538880","","","","","","","","","","",""
"N","0","+443300538880","+447487xxxxxx","31/05/2017","15:39:15","427","","","UK STOKE-ON-TRENT","UKN","1","0.052000","","","","","NT03","Gamma","","","","","3194","","","+441782898004","","SEE6C357BF1F1656847348BBC1BEB31B2","GBP","+443300538880","","","","","","","","","","",""
"N","0","+443300538880","+448452xxxxxx","31/05/2017","13:46:55","60","","","UK STOKE-ON-TRENT","UKN","1","0.008000","","","","","NT03","Gamma","","","","","3194","","","+441782898004","","S5AD6DD0192C5361426AC279C732E5D53","GBP","+443300538880","","","","","","","","","","",""
"N","0","+443300538880","+447557xxxxxx","31/05/2017","12:47:22","107","","","UK STOKE-ON-TRENT","UKN","1","0.013000","","","","","NT03","Gamma","","","","","3194","","","+441782898004","","S2D26A7528BECDBCE296C2965F31ED9F7","GBP","+443300538880","","","","","","","","","","",""
"N","0","+443300538880","+441617xxxxxx","31/05/2017","11:51:15","184","","","UK STOKE-ON-TRENT","UKN","1","0.023000","","","","","NT03","Gamma","","","","","3194","","","+441782898004","","S7116DF46096D4FB27AD1C523A4FEF7EE","GBP","+443300538880","","","","","","","","","","",""
