"Call Type","Call Cause Definition Required","Customer Identifier","Non-Charged Party","Call Date","Call Time","Duration","Bytes Transmitted","Bytes Received","Description","Chargecode","Time Band","Salesprice","Salesprice (Pre-Bundle)","Extension","DDI","Grouping ID","Call Class (Feature)","Carrier","Recording","VAT","Country of Origin","Network","Retail Tariff Code","Remote Network","APN","Diverted Number","Ring time","Record ID","Currency","Caller Line Identity","Network Access Reference","NGCS Access Charge","NGCS Service Charge","Total Bytes Transferred","User ID","Onward Billing Reference","Contract Name","Bundle Name","Bundle Allowance","Discount Reference","Routing Code"
"N","0","+443300538880","+447960xxxxxx","17/08/2017","07:56:09","10","","","UK STOKE-ON-TRENT","UKN","2","0.001000","","","","","NT03","Gamma","","","","","3194","","","+441782898004","","S172551B96FA5AA922E052F99998D09CC","GBP","+443300538880","","","","","","","","","","",""
"N","0","+443300538880","+441709xxxxxx","17/08/2017","08:02:45","12","","","UK STOKE-ON-TRENT","UKN","1","0.002000","","","","","NT03","Gamma","","","","","3194","","","+441782898004","","SC12F62A8FC7D84EAB5C3D2FDE410AFE3","GBP","+443300538880","","","","","","","","","","",""
"N","0","+443300538880","+447960xxxxxx","17/08/2017","09:00:15","50","","","UK STOKE-ON-TRENT","UKN","1","0.006000","","","","","NT03","Gamma","","","","","3194","","","+441782898004","","SFFB939EF89000518F6A27FFD5BFBF56D","GBP","+443300538880","","","","","","","","","","",""
"N","0","+443300538880","+441709xxxxxx","17/08/2017","09:09:01","70","","","UK STOKE-ON-TRENT","UKN","1","0.009000","","","","","NT03","Gamma","","","","","3194","","","+441782898004","","S6BA761B23857945BE2748188A47E8531","GBP","+443300538880","","","","","","","","","","",""
"N","0","+443300538880","+441617xxxxxx","17/08/2017","09:21:24","84","","","UK STOKE-ON-TRENT","UKN","1","0.011000","","","","","NT03","Gamma","","","","","3194","","","+441782898004","","SA47EF59288259234804174F7F06072B2","GBP","+443300538880","","","","","","","","","","",""
"N","0","+443300538880","+441283xxxxxx","17/08/2017","10:00:52","205","","","UK STOKE-ON-TRENT","UKN","1","0.025000","","","","","NT03","Gamma","","","","","3194","","","+441782898004","","S1D6220692888A4040CB20D4E93312BFB","GBP","+443300538880","","","","","","","","","","",""
"N","0","+443300538880","+447960xxxxxx","17/08/2017","10:13:24","50","","","UK STOKE-ON-TRENT","UKN","1","0.006000","","","","","NT03","Gamma","","","","","3194","","","+441782898004","","SD8AC74CE3AF2FB92D612693171AB258B","GBP","+443300538880","","","","","","","","","","",""
"N","0","+443300539660","+447555xxxxxx","17/08/2017","10:24:59","72","","","UK LEICESTER","UKN","1","0.009000","","","","","NT03","Gamma","","","","","3194","","","+441162690770","","SE782F68433FA0C1569B80C001A75BE7D","GBP","+443300539660","","","","","","","","","","",""
"N","0","+443300539660","+447555xxxxxx","17/08/2017","10:26:24","382","","","UK LEICESTER","UKN","1","0.046000","","","","","NT03","Gamma","","","","","3194","","","+441162690770","","S38D284A0A59843FD16E2A726086E5CAF","GBP","+443300539660","","","","","","","","","","",""
"N","0","+443300539660","+447555xxxxxx","17/08/2017","10:33:01","23","","","UK LEICESTER","UKN","1","0.003000","","","","","NT03","Gamma","","","","","3194","","","+441162690770","","SA72B09E1C0F84EF6C693D040EF0C67A3","GBP","+443300539660","","","","","","","","","","",""
"N","0","+443300539660","+447555xxxxxx","17/08/2017","10:33:32","40","","","UK LEICESTER","UKN","1","0.005000","","","","","NT03","Gamma","","","","","3194","","","+441162690770","","S5F4FF610FD09AE7F10F8DF43B35D3751","GBP","+443300539660","","","","","","","","","","",""
"N","0","+443300539660","+442087xxxxxx","17/08/2017","10:34:23","43","","","UK LEICESTER","UKN","1","0.006000","","","","","NT03","Gamma","","","","","3194","","","+441162690770","","SDB8A512C48D51BE93AA078BA5411F5A4","GBP","+443300539660","","","","","","","","","","",""
"N","0","+443300539660","+441159xxxxxx","17/08/2017","11:01:40","104","","","UK LEICESTER","UKN","1","0.013000","","","","","NT03","Gamma","","","","","3194","","","+441162690770","","SB68C3F08C745D0C9F6777715936A98B1","GBP","+443300539660","","","","","","","","","","",""
"N","0","+443300538880","+447779xxxxxx","17/08/2017","11:33:43","177","","","UK STOKE-ON-TRENT","UKN","1","0.022000","","","","","NT03","Gamma","","","","","3194","","","+441782898004","","SC4A2F46E748961E2B699F74CE0AE69BC","GBP","+443300538880","","","","","","","","","","",""
"N","0","+443300538880","+447590xxxxxx","17/08/2017","12:05:32","363","","","UK STOKE-ON-TRENT","UKN","1","0.044000","","","","","NT03","Gamma","","","","","3194","","","+441782898004","","S676A78BEA824588DF55C650DE07C5E02","GBP","+443300538880","","","","","","","","","","",""
"N","0","+443300539660","+441753xxxxxx","17/08/2017","12:31:58","13","","","UK LEICESTER","UKN","1","0.002000","","","","","NT03","Gamma","","","","","3194","","","+441162690770","","SE2E5C53C9D16FDA9489B37B749DAE241","GBP","+443300539660","","","","","","","","","","",""
"N","0","+443300538880","+441579xxxxxx","17/08/2017","12:35:36","249","","","UK STOKE-ON-TRENT","UKN","1","0.030000","","","","","NT03","Gamma","","","","","3194","","","+441782898004","","S0EF2DFFA281A38C71E254BDDA7E8A869","GBP","+443300538880","","","","","","","","","","",""
"N","0","+443300539660","+441233xxxxxx","17/08/2017","12:51:01","122","","","UK LEICESTER","UKN","1","0.015000","","","","","NT03","Gamma","","","","","3194","","","+441162690770","","S7B2F84AF38E8D607EA62E1F2575CAF12","GBP","+443300539660","","","","","","","","","","",""
"N","0","+443300538880","+441691xxxxxx","17/08/2017","12:55:41","155","","","UK STOKE-ON-TRENT","UKN","1","0.019000","","","","","NT03","Gamma","","","","","3194","","","+441782898004","","S92D9999020E0C1F1D60C044A08CCB916","GBP","+443300538880","","","","","","","","","","",""
"N","0","+443300538880","+447741xxxxxx","17/08/2017","12:57:09","65","","","UK STOKE-ON-TRENT","UKN","1","0.008000","","","","","NT03","Gamma","","","","","3194","","","+441782898004","","S5672501DE9DB122B31C6AAC2034157FB","GBP","+443300538880","","","","","","","","","","",""
"N","0","+443300539660","+447831xxxxxx","17/08/2017","13:13:58","116","","","UK LEICESTER","UKN","1","0.014000","","","","","NT03","Gamma","","","","","3194","","","+441162690770","","S6AAF3FF98DCCE65E75D2912EA61E30AB","GBP","+443300539660","","","","","","","","","","",""
"N","0","+443300538880","+441709xxxxxx","17/08/2017","13:15:01","122","","","UK STOKE-ON-TRENT","UKN","1","0.015000","","","","","NT03","Gamma","","","","","3194","","","+441782898004","","SDE3CF6E35C5EC533C9768DED63157C78","GBP","+443300538880","","","","","","","","","","",""
"N","0","+443300538880","+447960xxxxxx","17/08/2017","13:37:15","97","","","UK STOKE-ON-TRENT","UKN","1","0.012000","","","","","NT03","Gamma","","","","","3194","","","+441782898004","","S5CB8733271192C009A0AA2C14CB6662A","GBP","+443300538880","","","","","","","","","","",""
"N","0","+443300538880","+447498xxxxxx","17/08/2017","13:37:51","19","","","UK STOKE-ON-TRENT","UKN","1","0.003000","","","","","NT03","Gamma","","","","","3194","","","+441782898004","","S559F1968A5773E9962A216AEEFE00A3B","GBP","+443300538880","","","","","","","","","","",""
"N","0","+443300538880","+447498xxxxxx","17/08/2017","13:38:51","243","","","UK STOKE-ON-TRENT","UKN","1","0.030000","","","","","NT03","Gamma","","","","","3194","","","+441782898004","","SEA3BCA3B097E9B602CA5D77D7AB4AA85","GBP","+443300538880","","","","","","","","","","",""
"N","0","+443300538880","+441709xxxxxx","17/08/2017","13:39:42","157","","","UK STOKE-ON-TRENT","UKN","1","0.019000","","","","","NT03","Gamma","","","","","3194","","","+441782898004","","SF378BB797047A55909C3385600F7F256","GBP","+443300538880","","","","","","","","","","",""
"N","0","+443300538880","+447741xxxxxx","17/08/2017","13:40:45","48","","","UK STOKE-ON-TRENT","UKN","1","0.006000","","","","","NT03","Gamma","","","","","3194","","","+441782898004","","S0BE2CFD810091F22FFE80B636A40C602","GBP","+443300538880","","","","","","","","","","",""
"N","0","+443300538880","+441691xxxxxx","17/08/2017","13:43:59","69","","","UK STOKE-ON-TRENT","UKN","1","0.009000","","","","","NT03","Gamma","","","","","3194","","","+441782898004","","S64B15ACF1A70278C424752E916545BF6","GBP","+443300538880","","","","","","","","","","",""
"N","0","+443300539660","+441732xxxxxx","17/08/2017","13:45:51","167","","","UK LEICESTER","UKN","1","0.021000","","","","","NT03","Gamma","","","","","3194","","","+441162690770","","SAEE6722CBF6D30A41BD04734EE9D5968","GBP","+443300539660","","","","","","","","","","",""
"N","0","+443300538880","+441709xxxxxx","17/08/2017","13:49:20","143","","","UK STOKE-ON-TRENT","UKN","1","0.018000","","","","","NT03","Gamma","","","","","3194","","","+441782898004","","SD13C7A81206C289A2B714E59CD8E93D6","GBP","+443300538880","","","","","","","","","","",""
"N","0","+443300538880","+441709xxxxxx","17/08/2017","13:56:35","189","","","UK STOKE-ON-TRENT","UKN","1","0.023000","","","","","NT03","Gamma","","","","","3194","","","+441782898004","","SB7CAB7F8B888957C05E77EE67F368C48","GBP","+443300538880","","","","","","","","","","",""
"N","0","+443300538880","+441670xxxxxx","17/08/2017","13:57:22","487","","","UK STOKE-ON-TRENT","UKN","1","0.059000","","","","","NT03","Gamma","","","","","3194","","","+441782898004","","S382382416EC9693D67A74DCDFC4A75EF","GBP","+443300538880","","","","","","","","","","",""
"N","0","+443300538880","+441691xxxxxx","17/08/2017","14:06:16","37","","","UK STOKE-ON-TRENT","UKN","1","0.005000","","","","","NT03","Gamma","","","","","3194","","","+441782898004","","SA6D06D341C7EC52B24E040691047B384","GBP","+443300538880","","","","","","","","","","",""
"N","0","+443300538880","+441709xxxxxx","17/08/2017","14:11:14","124","","","UK STOKE-ON-TRENT","UKN","1","0.015000","","","","","NT03","Gamma","","","","","3194","","","+441782898004","","SF027DD5C23E3B3EBABD2C3181D9D6BD1","GBP","+443300538880","","","","","","","","","","",""
"N","0","+443300539660","+447471xxxxxx","17/08/2017","14:55:11","188","","","UK LEICESTER","UKN","1","0.023000","","","","","NT03","Gamma","","","","","3194","","","+441162690770","","S567A2E82C2A7F0E68E51DDC40636F723","GBP","+443300539660","","","","","","","","","","",""
"N","0","+443300539660","+447788xxxxxx","17/08/2017","14:58:32","19","","","UK LEICESTER","UKN","1","0.003000","","","","","NT03","Gamma","","","","","3194","","","+441162690770","","S35E5C6404D95435AA70E94C9040A9ABF","GBP","+443300539660","","","","","","","","","","",""
"N","0","+443300539660","+447788xxxxxx","17/08/2017","14:59:03","110","","","UK LEICESTER","UKN","1","0.014000","","","","","NT03","Gamma","","","","","3194","","","+441162690770","","SB2CE66D4891B5B5F709B712327B7FD1B","GBP","+443300539660","","","","","","","","","","",""
"N","0","+443300538880","+441558xxxxxx","17/08/2017","15:09:38","153","","","UK STOKE-ON-TRENT","UKN","1","0.019000","","","","","NT03","Gamma","","","","","3194","","","+441782898004","","SAEDD9F0A6A7594FD6221326A48D660DA","GBP","+443300538880","","","","","","","","","","",""
"N","0","+443300538880","+447741xxxxxx","17/08/2017","15:29:53","460","","","UK STOKE-ON-TRENT","UKN","1","0.056000","","","","","NT03","Gamma","","","","","3194","","","+441782898004","","S91CBF80A2E776119EE6C50C1C7601703","GBP","+443300538880","","","","","","","","","","",""
"N","0","+443300539660","+441912xxxxxx","17/08/2017","16:38:16","41","","","UK LEICESTER","UKN","1","0.005000","","","","","NT03","Gamma","","","","","3194","","","+441162690770","","S045238B25D20BF7F2148021981598821","GBP","+443300539660","","","","","","","","","","",""
