"Call Type","Call Cause Definition Required","Customer Identifier","Non-Charged Party","Call Date","Call Time","Duration","Bytes Transmitted","Bytes Received","Description","Chargecode","Time Band","Salesprice","Salesprice (Pre-Bundle)","Extension","DDI","Grouping ID","Call Class (Feature)","Carrier","Recording","VAT","Country of Origin","Network","Retail Tariff Code","Remote Network","APN","Diverted Number","Ring time","Record ID","Currency","Caller Line Identity","Network Access Reference","NGCS Access Charge","NGCS Service Charge","Total Bytes Transferred","User ID","Onward Billing Reference","Contract Name","Bundle Name","Bundle Allowance","Discount Reference","Routing Code"
"V","0","+441162893308","+448080044549","25/09/2017","08:55:15","12","","","UK Freephone","UKNFPH","1","0.000000","","","+441162893308","","CPS","Gamma","","","","","3194","","","","","C140559D2223FC191CB57D17900CF6BF7","GBP","+441162893308","","","","","","","","","","",""
"V","0","+441162893308","+448080044549","25/09/2017","09:08:43","12","","","UK Freephone","UKNFPH","1","0.000000","","","+441162893308","","CPS","Gamma","","","","","3194","","","","","CCE76409398EDE552866528C072AC26B6","GBP","+441162893308","","","","","","","","","","",""
"V","0","+441162893308","+448080044549","25/09/2017","09:10:44","12","","","UK Freephone","UKNFPH","1","0.000000","","","+441162893308","","CPS","Gamma","","","","","3194","","","","","C05576E315A073229F541B08138DE8ADE","GBP","+441162893308","","","","","","","","","","",""
"V","0","+441162893308","+448080044549","25/09/2017","09:12:42","12","","","UK Freephone","UKNFPH","1","0.000000","","","+441162893308","","CPS","Gamma","","","","","3194","","","","","C8C815EE07E9DBB718AF829D87D30D895","GBP","+441162893308","","","","","","","","","","",""
"V","0","+441162893308","+448080044549","25/09/2017","09:14:20","12","","","UK Freephone","UKNFPH","1","0.000000","","","+441162893308","","CPS","Gamma","","","","","3194","","","","","CE52D8D3A4C226EDD7E53E60346ECE950","GBP","+441162893308","","","","","","","","","","",""
"V","0","+441162893308","+448080044549","25/09/2017","09:15:58","13","","","UK Freephone","UKNFPH","1","0.000000","","","+441162893308","","CPS","Gamma","","","","","3194","","","","","C137A29E6AF8042DB4586275C39E1AEE7","GBP","+441162893308","","","","","","","","","","",""
"V","0","+441162893308","+448009520280","25/09/2017","09:17:09","14","","","UK Freephone","UKNFPH","1","0.000000","","","+441162893308","","CPS","Gamma","","","","","3194","","","","","C0EDD8425425E514AEE23D818D6703939","GBP","+441162893308","","","","","","","","","","",""
"V","0","+441162893308","+448009520281","25/09/2017","09:17:38","13","","","UK Freephone","UKNFPH","1","0.000000","","","+441162893308","","CPS","Gamma","","","","","3194","","","","","CEEFB684469A5358B45778ED32EECDA06","GBP","+441162893308","","","","","","","","","","",""
"V","0","+441162893308","+448080044549","25/09/2017","09:18:05","12","","","UK Freephone","UKNFPH","1","0.000000","","","+441162893308","","CPS","Gamma","","","","","3194","","","","","CC9A8F98712A75DA3CB39C31B47B31CDB","GBP","+441162893308","","","","","","","","","","",""
"V","0","+441162893308","+448080044549","25/09/2017","09:32:06","12","","","UK Freephone","UKNFPH","1","0.000000","","","+441162893308","","CPS","Gamma","","","","","3194","","","","","C91FABCC418E03769BBCBE83A6201C27D","GBP","+441162893308","","","","","","","","","","",""
"V","0","+441162893308","+448080044549","25/09/2017","09:46:10","12","","","UK Freephone","UKNFPH","1","0.000000","","","+441162893308","","CPS","Gamma","","","","","3194","","","","","C3ED3CC8BF42B00C6819B9C8291DB7124","GBP","+441162893308","","","","","","","","","","",""
"V","0","+441162893308","+448080044549","25/09/2017","10:00:13","12","","","UK Freephone","UKNFPH","1","0.000000","","","+441162893308","","CPS","Gamma","","","","","3194","","","","","C948451DB9284F04FCBEA24FA3AB154F4","GBP","+441162893308","","","","","","","","","","",""
"V","0","+441162893308","+448080044549","25/09/2017","10:14:17","12","","","UK Freephone","UKNFPH","1","0.000000","","","+441162893308","","CPS","Gamma","","","","","3194","","","","","CE39615A7BBDD86E8355C5059ADABA29C","GBP","+441162893308","","","","","","","","","","",""
"V","0","+441162893308","+448080044549","25/09/2017","10:28:20","12","","","UK Freephone","UKNFPH","1","0.000000","","","+441162893308","","CPS","Gamma","","","","","3194","","","","","C3BD52901721443154984DD05A24E3544","GBP","+441162893308","","","","","","","","","","",""
"V","0","+441162893308","+448080044549","25/09/2017","10:42:23","12","","","UK Freephone","UKNFPH","1","0.000000","","","+441162893308","","CPS","Gamma","","","","","3194","","","","","CAB1C4E02C82080A49924FCD2DA293D30","GBP","+441162893308","","","","","","","","","","",""
"V","0","+441162893308","+448080044549","25/09/2017","10:56:27","12","","","UK Freephone","UKNFPH","1","0.000000","","","+441162893308","","CPS","Gamma","","","","","3194","","","","","CAB57B38FE8FB4C8E206DF1B525016196","GBP","+441162893308","","","","","","","","","","",""
"V","0","+441162893308","+448080044549","25/09/2017","11:10:30","12","","","UK Freephone","UKNFPH","1","0.000000","","","+441162893308","","CPS","Gamma","","","","","3194","","","","","C39114F4C1DDF44BA6EDE36DF9760EBEB","GBP","+441162893308","","","","","","","","","","",""
"V","0","+441162893308","+448080044549","25/09/2017","11:24:33","12","","","UK Freephone","UKNFPH","1","0.000000","","","+441162893308","","CPS","Gamma","","","","","3194","","","","","C13C5E3D505E4D56214C6D90AB8A481DA","GBP","+441162893308","","","","","","","","","","",""
"V","0","+441162893308","+448080044549","25/09/2017","11:38:37","12","","","UK Freephone","UKNFPH","1","0.000000","","","+441162893308","","CPS","Gamma","","","","","3194","","","","","CEC11A49E76EDD7E5BDE6007B123AF776","GBP","+441162893308","","","","","","","","","","",""
"V","0","+441162893308","+448009520280","25/09/2017","12:09:46","14","","","UK Freephone","UKNFPH","1","0.000000","","","+441162893308","","CPS","Gamma","","","","","3194","","","","","CA8360A3C4A58F055650026F62623D6A2","GBP","+441162893308","","","","","","","","","","",""
"V","0","+441162893308","+448009520280","25/09/2017","12:11:05","13","","","UK Freephone","UKNFPH","1","0.000000","","","+441162893308","","CPS","Gamma","","","","","3194","","","","","C9462D5894786A4D6BEC7046FE56D996A","GBP","+441162893308","","","","","","","","","","",""
