"Call Type","Call Cause Definition Required","Customer Identifier","Non-Charged Party","Call Date","Call Time","Duration","Bytes Transmitted","Bytes Received","Description","Chargecode","Time Band","Salesprice","Salesprice (Pre-Bundle)","Extension","DDI","Grouping ID","Call Class (Feature)","Carrier","Recording","VAT","Country of Origin","Network","Retail Tariff Code","Remote Network","APN","Diverted Number","Ring time","Record ID","Currency","Caller Line Identity","Network Access Reference","NGCS Access Charge","NGCS Service Charge","Total Bytes Transferred","User ID","Onward Billing Reference","Contract Name","Bundle Name","Bundle Allowance","Discount Reference","Routing Code"
"V","0","+441162893308","+448080044549","04/06/2017","16:52:31","12","","","UK Freephone","UKNFPH","3","0.000000","","","+441162893308","","CPS","Gamma","","","","","3194","","","","","C53326E5EF324F3E50F6421B7C8F9E2C2","GBP","+441162893308","","","","","","","","","","",""
"V","0","+441162893308","+448080044549","04/06/2017","16:54:31","12","","","UK Freephone","UKNFPH","3","0.000000","","","+441162893308","","CPS","Gamma","","","","","3194","","","","","CE4803E4918E232954DD0295FCFD1819B","GBP","+441162893308","","","","","","","","","","",""
"V","0","+441162893308","+448080044549","04/06/2017","16:56:29","1","","","UK Freephone","UKNFPH","3","0.000000","","","+441162893308","","CPS","Gamma","","","","","3194","","","","","C13B6C53DA9FC335E59AC83CB78B8690B","GBP","+441162893308","","","","","","","","","","",""
"V","0","+441162893308","+448080044549","04/06/2017","17:00:08","12","","","UK Freephone","UKNFPH","3","0.000000","","","+441162893308","","CPS","Gamma","","","","","3194","","","","","C283814BE3AE05BEFB5E54950A2B636BB","GBP","+441162893308","","","","","","","","","","",""
"V","0","+441162893308","+448080044549","04/06/2017","17:11:47","12","","","UK Freephone","UKNFPH","3","0.000000","","","+441162893308","","CPS","Gamma","","","","","3194","","","","","C818EAC8ED6D94A2A297F7377420B5AB0","GBP","+441162893308","","","","","","","","","","",""
"V","0","+441162893308","+448080044549","04/06/2017","17:13:08","1","","","UK Freephone","UKNFPH","3","0.000000","","","+441162893308","","CPS","Gamma","","","","","3194","","","","","C9A6E25E76D1C9A08274743B6BFF7AB29","GBP","+441162893308","","","","","","","","","","",""
"V","0","+441162893308","+448080044550","04/06/2017","17:15:10","17","","","UK Freephone","UKNFPH","3","0.000000","","","+441162893308","","CPS","Gamma","","","","","3194","","","","","C0E0630814BAFBDED9B94A70449C193AF","GBP","+441162893308","","","","","","","","","","",""
"V","0","+441162893308","+448009520280","04/06/2017","17:16:10","13","","","UK Freephone","UKNFPH","3","0.000000","","","+441162893308","","CPS","Gamma","","","","","3194","","","","","C533B3D683170947021B7A800B8A3919F","GBP","+441162893308","","","","","","","","","","",""
"V","0","+441162893308","+448080044550","04/06/2017","17:16:37","16","","","UK Freephone","UKNFPH","3","0.000000","","","+441162893308","","CPS","Gamma","","","","","3194","","","","","C6B614A88F04FB415A672AE383CAABA51","GBP","+441162893308","","","","","","","","","","",""
"V","0","+441162893308","+448080044550","04/06/2017","17:42:38","16","","","UK Freephone","UKNFPH","3","0.000000","","","+441162893308","","CPS","Gamma","","","","","3194","","","","","C9911C84C11A308CC07EDD972B83199F4","GBP","+441162893308","","","","","","","","","","",""
"V","0","+441162893308","+448080044550","04/06/2017","18:09:10","16","","","UK Freephone","UKNFPH","3","0.000000","","","+441162893308","","CPS","Gamma","","","","","3194","","","","","CFB66E5D70AB1905BB11A1F0766331A11","GBP","+441162893308","","","","","","","","","","",""
"V","0","+441162893308","+448080044550","04/06/2017","18:34:23","16","","","UK Freephone","UKNFPH","3","0.000000","","","+441162893308","","CPS","Gamma","","","","","3194","","","","","C631C38E1BC79246606A0355158D61558","GBP","+441162893308","","","","","","","","","","",""
"V","0","+441162893308","+448080044550","04/06/2017","19:00:14","16","","","UK Freephone","UKNFPH","3","0.000000","","","+441162893308","","CPS","Gamma","","","","","3194","","","","","C4FEAF82A7B791D1A002957DDB642AB27","GBP","+441162893308","","","","","","","","","","",""
"V","0","+441162893308","+448080044550","04/06/2017","19:25:12","16","","","UK Freephone","UKNFPH","3","0.000000","","","+441162893308","","CPS","Gamma","","","","","3194","","","","","CFC304B87A2653C9EC030D0F89708643A","GBP","+441162893308","","","","","","","","","","",""
"V","0","+441162893308","+448080044550","04/06/2017","19:50:27","16","","","UK Freephone","UKNFPH","3","0.000000","","","+441162893308","","CPS","Gamma","","","","","3194","","","","","CC8E9863EDDA9CC3FBA2771D4EF28B0C1","GBP","+441162893308","","","","","","","","","","",""
"V","0","+441162893308","+448080044550","04/06/2017","20:15:32","16","","","UK Freephone","UKNFPH","3","0.000000","","","+441162893308","","CPS","Gamma","","","","","3194","","","","","C9140826251433E129AD3966779693071","GBP","+441162893308","","","","","","","","","","",""
"V","0","+441162893308","+448080044550","04/06/2017","20:41:15","16","","","UK Freephone","UKNFPH","3","0.000000","","","+441162893308","","CPS","Gamma","","","","","3194","","","","","CBFD18EE8699ECD2A63E9B0A2C02175AD","GBP","+441162893308","","","","","","","","","","",""
"V","0","+441162893308","+448080044550","04/06/2017","21:06:10","16","","","UK Freephone","UKNFPH","3","0.000000","","","+441162893308","","CPS","Gamma","","","","","3194","","","","","CB32CE9AFDFDE66FD6589CD8663B3DCCE","GBP","+441162893308","","","","","","","","","","",""
"V","0","+441162893308","+448080044550","04/06/2017","21:31:22","16","","","UK Freephone","UKNFPH","3","0.000000","","","+441162893308","","CPS","Gamma","","","","","3194","","","","","C6D0902CDC187B33CCFF4F6A78C8D8201","GBP","+441162893308","","","","","","","","","","",""
"V","0","+441162893308","+448080044550","04/06/2017","21:56:01","16","","","UK Freephone","UKNFPH","3","0.000000","","","+441162893308","","CPS","Gamma","","","","","3194","","","","","C9CE61760B77039B359224AAAF5C9B18F","GBP","+441162893308","","","","","","","","","","",""
"V","0","+441162893308","+448080044550","04/06/2017","22:21:50","16","","","UK Freephone","UKNFPH","3","0.000000","","","+441162893308","","CPS","Gamma","","","","","3194","","","","","C4B5E6EB04D74E7387BC283008CFA50E9","GBP","+441162893308","","","","","","","","","","",""
"V","0","+441162893308","+448080044550","04/06/2017","22:47:28","16","","","UK Freephone","UKNFPH","3","0.000000","","","+441162893308","","CPS","Gamma","","","","","3194","","","","","CF8CC655616FF76553ECD464F1D3C45FE","GBP","+441162893308","","","","","","","","","","",""
"V","0","+441162893308","+448080044550","04/06/2017","23:12:55","16","","","UK Freephone","UKNFPH","3","0.000000","","","+441162893308","","CPS","Gamma","","","","","3194","","","","","C15E7E686032CA27B76E0034AA3741F6D","GBP","+441162893308","","","","","","","","","","",""
"V","0","+441162893308","+448080044550","04/06/2017","23:38:33","16","","","UK Freephone","UKNFPH","3","0.000000","","","+441162893308","","CPS","Gamma","","","","","3194","","","","","C4BDE9A98E01FBB73DBF7A952100FB8CE","GBP","+441162893308","","","","","","","","","","",""
