"Call Type","Call Cause Definition Required","Customer Identifier","Non-Charged Party","Call Date","Call Time","Duration","Bytes Transmitted","Bytes Received","Description","Chargecode","Time Band","Salesprice","Salesprice (Pre-Bundle)","Extension","DDI","Grouping ID","Call Class (Feature)","Carrier","Recording","VAT","Country of Origin","Network","Retail Tariff Code","Remote Network","APN","Diverted Number","Ring time","Record ID","Currency","Caller Line Identity","Network Access Reference","NGCS Access Charge","NGCS Service Charge","Total Bytes Transferred","User ID","Onward Billing Reference","Contract Name","Bundle Name","Bundle Allowance","Discount Reference","Routing Code"
"N","0","+443300538880","+441617xxxxxx","22/08/2017","08:49:42","48","","","UK STOKE-ON-TRENT","UKN","1","0.006000","","","","","NT03","Gamma","","","","","3194","","","+441782898004","","S5919D26C7A01E08BC365DE6EA2056F70","GBP","+443300538880","","","","","","","","","","",""
"N","0","+443300538880","+447807xxxxxx","22/08/2017","09:03:32","18","","","UK STOKE-ON-TRENT","UKN","1","0.003000","","","","","NT03","Gamma","","","","","3194","","","+441782898004","","S2b1f1508d47da391377649d0454fc0f9","GBP","+443300538880","","","","","","","","","","",""
"N","0","+443300538880","+447807xxxxxx","22/08/2017","09:03:55","177","","","UK STOKE-ON-TRENT","UKN","1","0.022000","","","","","NT03","Gamma","","","","","3194","","","+441782898004","","S02eab65155afccdf146d76f6407b80e8","GBP","+443300538880","","","","","","","","","","",""
"N","0","+443300538880","+447557xxxxxx","22/08/2017","09:24:21","65","","","UK STOKE-ON-TRENT","UKN","1","0.008000","","","","","NT03","Gamma","","","","","3194","","","+441782898004","","SB0FFBCBCCF2FCC0F24F8B4C5FDF35365","GBP","+443300538880","","","","","","","","","","",""
"N","0","+443300539660","+447872xxxxxx","22/08/2017","09:24:37","521","","","UK LEICESTER","UKN","1","0.063000","","","","","NT03","Gamma","","","","","3194","","","+441162690770","","SA5F1100897D4A5DFC7737B035996D8B1","GBP","+443300539660","","","","","","","","","","",""
"N","0","+443300539660","+441925xxxxxx","22/08/2017","09:35:41","92","","","UK LEICESTER","UKN","1","0.012000","","","","","NT03","Gamma","","","","","3194","","","+441162690770","","S0EE634FB1D6C7D519DD60AA5DCC702B3","GBP","+443300539660","","","","","","","","","","",""
"N","0","+443300538880","+441768xxxxxx","22/08/2017","09:42:05","232","","","UK STOKE-ON-TRENT","UKN","1","0.028000","","","","","NT03","Gamma","","","","","3194","","","+441782898004","","S8A56BE50DEF11CB505D9AB3FDDEFF0BE","GBP","+443300538880","","","","","","","","","","",""
"N","0","+443300538880","+441223xxxxxx","22/08/2017","09:57:10","69","","","UK STOKE-ON-TRENT","UKN","1","0.009000","","","","","NT03","Gamma","","","","","3194","","","+441782898004","","S9fc16ca71907f45f83fc7935023ec10a","GBP","+443300538880","","","","","","","","","","",""
"N","0","+443300539660","+447716xxxxxx","22/08/2017","10:25:23","225","","","UK LEICESTER","UKN","1","0.027000","","","","","NT03","Gamma","","","","","3194","","","+441162690770","","S77464306671985059F154E0E89DE284C","GBP","+443300539660","","","","","","","","","","",""
"N","0","+443300538880","+447487xxxxxx","22/08/2017","10:50:36","30","","","UK STOKE-ON-TRENT","UKN","1","0.004000","","","","","NT03","Gamma","","","","","3194","","","+441782898004","","SAA2AA5B8D42C0CA6686FFEF7CEF0C6B0","GBP","+443300538880","","","","","","","","","","",""
"N","0","+443300538880","+441237xxxxxx","22/08/2017","10:59:05","241","","","UK STOKE-ON-TRENT","UKN","1","0.029000","","","","","NT03","Gamma","","","","","3194","","","+441782898004","","S61E7681A0D7140AF31841D3603378547","GBP","+443300538880","","","","","","","","","","",""
"N","0","+443300538880","+447741xxxxxx","22/08/2017","11:19:16","147","","","UK STOKE-ON-TRENT","UKN","1","0.018000","","","","","NT03","Gamma","","","","","3194","","","+441782898004","","S46B08B8E4F5E1939208171CA9802AA9A","GBP","+443300538880","","","","","","","","","","",""
"N","0","+443300539660","+441162xxxxxx","22/08/2017","11:23:39","38","","","UK LEICESTER","UKN","1","0.005000","","","","","NT03","Gamma","","","","","3194","","","+441162690770","","SBE00266EE175105B877D06CA1A5E4386","GBP","+443300539660","","","","","","","","","","",""
"N","0","+443300539660","+441162xxxxxx","22/08/2017","11:24:30","151","","","UK LEICESTER","UKN","1","0.019000","","","","","NT03","Gamma","","","","","3194","","","+441162690770","","SBFDA19296ADF9D860C130741DCFE0EBA","GBP","+443300539660","","","","","","","","","","",""
"N","0","+443300539660","+447828xxxxxx","22/08/2017","11:30:01","106","","","UK LEICESTER","UKN","1","0.013000","","","","","NT03","Gamma","","","","","3194","","","+441162690770","","SD1ACE78BD1FBE407D69A6A30F72AF08C","GBP","+443300539660","","","","","","","","","","",""
"N","0","+443300538880","+447495xxxxxx","22/08/2017","11:35:33","74","","","UK STOKE-ON-TRENT","UKN","1","0.009000","","","","","NT03","Gamma","","","","","3194","","","+441782898004","","S4C1F3F0FF4595D4E6DEA8BC334575CEC","GBP","+443300538880","","","","","","","","","","",""
"N","0","+443300539660","+447720xxxxxx","22/08/2017","11:53:30","54","","","UK LEICESTER","UKN","1","0.007000","","","","","NT03","Gamma","","","","","3194","","","+441162690770","","SB57B56C2BE78E4D61C6215553ABE0739","GBP","+443300539660","","","","","","","","","","",""
"N","0","+443300538880","+441617xxxxxx","22/08/2017","11:57:44","29","","","UK STOKE-ON-TRENT","UKN","1","0.004000","","","","","NT03","Gamma","","","","","3194","","","+441782898004","","S169A61EE2200BA532DBDA8D6DCB91595","GBP","+443300538880","","","","","","","","","","",""
"N","0","+443300538880","+441709xxxxxx","22/08/2017","12:05:27","154","","","UK STOKE-ON-TRENT","UKN","1","0.019000","","","","","NT03","Gamma","","","","","3194","","","+441782898004","","S08F90760A6C9984C7C22F577EEAC2D6A","GBP","+443300538880","","","","","","","","","","",""
"N","0","+443300539660","+447813xxxxxx","22/08/2017","12:15:42","43","","","UK LEICESTER","UKN","1","0.006000","","","","","NT03","Gamma","","","","","3194","","","+441162690770","","S596B59CFD84ACCD6F6459C483307CD53","GBP","+443300539660","","","","","","","","","","",""
"N","0","+443300538880","+447487xxxxxx","22/08/2017","12:56:24","551","","","UK STOKE-ON-TRENT","UKN","1","0.067000","","","","","NT03","Gamma","","","","","3194","","","+441782898004","","S028D9003766C6C417229D3F05CD835FE","GBP","+443300538880","","","","","","","","","","",""
"N","0","+443300538880","+441763xxxxxx","22/08/2017","13:06:14","65","","","UK STOKE-ON-TRENT","UKN","1","0.008000","","","","","NT03","Gamma","","","","","3194","","","+441782898004","","S476E18AC288E58794DA04B0CEB001B2D","GBP","+443300538880","","","","","","","","","","",""
"N","0","+443300538880","+442033xxxxxx","22/08/2017","13:46:54","456","","","UK STOKE-ON-TRENT","UKN","1","0.055000","","","","","NT03","Gamma","","","","","3194","","","+441782898004","","Sb0f7dc6bce4dcfd105ddd58c7a0ca2b6","GBP","+443300538880","","","","","","","","","","",""
"N","0","+443300538880","+447741xxxxxx","22/08/2017","13:49:47","227","","","UK STOKE-ON-TRENT","UKN","1","0.028000","","","","","NT03","Gamma","","","","","3194","","","+441782898004","","S27616D29D7CDEE4D010212F28C2949BE","GBP","+443300538880","","","","","","","","","","",""
"N","0","+443300538880","+447792xxxxxx","22/08/2017","14:00:05","464","","","UK STOKE-ON-TRENT","UKN","1","0.056000","","","","","NT03","Gamma","","","","","3194","","","+441782898004","","S0C34A30CA9EF7A6CA9F92DF97D3360E5","GBP","+443300538880","","","","","","","","","","",""
"N","0","+443300538880","+447789xxxxxx","22/08/2017","14:50:32","347","","","UK STOKE-ON-TRENT","UKN","1","0.042000","","","","","NT03","Gamma","","","","","3194","","","+441782898004","","S569A91F01EC916FF1C3FBE00FBB30EAB","GBP","+443300538880","","","","","","","","","","",""
"N","0","+443300538880","+441617xxxxxx","22/08/2017","15:05:15","73","","","UK STOKE-ON-TRENT","UKN","1","0.009000","","","","","NT03","Gamma","","","","","3194","","","+441782898004","","S030D875045F49CE94A9D82CC575CA8DC","GBP","+443300538880","","","","","","","","","","",""
"N","0","+443300538880","+441617xxxxxx","22/08/2017","15:20:32","55","","","UK STOKE-ON-TRENT","UKN","1","0.007000","","","","","NT03","Gamma","","","","","3194","","","+441782898004","","S4e8ee8725d1e811b2828c5bb60b9d174","GBP","+443300538880","","","","","","","","","","",""
"N","0","+443300539660","+447966xxxxxx","22/08/2017","15:33:16","78","","","UK LEICESTER","UKN","1","0.010000","","","","","NT03","Gamma","","","","","3194","","","+441162690770","","SF4CFB88BB3C327B81874BFF6EAC06813","GBP","+443300539660","","","","","","","","","","",""
"N","0","+443300538880","+442033xxxxxx","22/08/2017","16:04:51","70","","","UK STOKE-ON-TRENT","UKN","1","0.009000","","","","","NT03","Gamma","","","","","3194","","","+441782898004","","SCEB169091B81573D1E209CA1AEF2DADF","GBP","+443300538880","","","","","","","","","","",""
"N","0","+443300538880","+441635xxxxxx","22/08/2017","16:13:04","249","","","UK STOKE-ON-TRENT","UKN","1","0.030000","","","","","NT03","Gamma","","","","","3194","","","+441782898004","","S57F37C1E65C20082394270B3549077E6","GBP","+443300538880","","","","","","","","","","",""
"N","0","+443300539660","+441273xxxxxx","22/08/2017","17:03:26","5","","","UK LEICESTER","UKN","1","0.001000","","","","","NT03","Gamma","","","","","3194","","","+441162690770","","S10B7EB617D01A0667713C9565FB3B43C","GBP","+443300539660","","","","","","","","","","",""
