"Call Type","Call Cause Definition Required","Customer Identifier","Non-Charged Party","Call Date","Call Time","Duration","Bytes Transmitted","Bytes Received","Description","Chargecode","Time Band","Salesprice","Salesprice (Pre-Bundle)","Extension","DDI","Grouping ID","Call Class (Feature)","Carrier","Recording","VAT","Country of Origin","Network","Retail Tariff Code","Remote Network","APN","Diverted Number","Ring time","Record ID","Currency","Caller Line Identity","Network Access Reference","NGCS Access Charge","NGCS Service Charge","Total Bytes Transferred","User ID","Onward Billing Reference","Contract Name","Bundle Name","Bundle Allowance","Discount Reference","Routing Code"
"N","0","+443300538880","+441413xxxxxx","03/07/2017","09:04:13","52","","","UK STOKE-ON-TRENT","UKN","1","0.007000","","","","","NT03","Gamma","","","","","3194","","","+441782898004","","SBF0E6FC8BF9EF81803DCFEB5B782E5F0","GBP","+443300538880","","","","","","","","","","",""
"N","0","+443300538880","+447487xxxxxx","03/07/2017","10:00:01","10","","","UK STOKE-ON-TRENT","UKN","1","0.002000","","","","","NT03","Gamma","","","","","3194","","","+441782898004","","S5AADDE2905A90F892406AAFCC968CC67","GBP","+443300538880","","","","","","","","","","",""
"N","0","+443300538880","+447487xxxxxx","03/07/2017","10:15:32","140","","","UK STOKE-ON-TRENT","UKN","1","0.017000","","","","","NT03","Gamma","","","","","3194","","","+441782898004","","S664ECD14AEA1495270D0762B8171B2B1","GBP","+443300538880","","","","","","","","","","",""
"N","0","+443300538880","+447530xxxxxx","03/07/2017","10:45:04","92","","","UK STOKE-ON-TRENT","UKN","1","0.012000","","","","","NT03","Gamma","","","","","3194","","","+441782898004","","SC7704D234BCD3E9A430BE68E63A70552","GBP","+443300538880","","","","","","","","","","",""
"N","0","+443300538880","+447500xxxxxx","03/07/2017","10:45:35","96","","","UK STOKE-ON-TRENT","UKN","1","0.012000","","","","","NT03","Gamma","","","","","3194","","","+441782898004","","S39C00A87E3B35A0B55014848BBC7AD1E","GBP","+443300538880","","","","","","","","","","",""
"N","0","+443300538880","+447939xxxxxx","03/07/2017","12:40:32","208","","","UK STOKE-ON-TRENT","UKN","1","0.025000","","","","","NT03","Gamma","","","","","3194","","","+441782898004","","S9CF4A2CBDC7678712893540C8F492839","GBP","+443300538880","","","","","","","","","","",""
"N","0","+443300538880","+447891xxxxxx","03/07/2017","14:01:18","68","","","UK STOKE-ON-TRENT","UKN","1","0.009000","","","","","NT03","Gamma","","","","","3194","","","+441782898004","","S6FA626D6294E001C10CACB639A6D01DD","GBP","+443300538880","","","","","","","","","","",""
"N","0","+443300538880","+447741xxxxxx","03/07/2017","14:11:33","102","","","UK STOKE-ON-TRENT","UKN","1","0.013000","","","","","NT03","Gamma","","","","","3194","","","+441782898004","","S95102C6DEB2206CAB81CB2F514DAA1BC","GBP","+443300538880","","","","","","","","","","",""
"N","0","+443300538880","+447557xxxxxx","03/07/2017","14:30:03","221","","","UK STOKE-ON-TRENT","UKN","1","0.027000","","","","","NT03","Gamma","","","","","3194","","","+441782898004","","S66940CC2082CE04607F9AE5449021068","GBP","+443300538880","","","","","","","","","","",""
"N","0","+443300538880","+447487xxxxxx","03/07/2017","14:31:29","59","","","UK STOKE-ON-TRENT","UKN","1","0.008000","","","","","NT03","Gamma","","","","","3194","","","+441782898004","","S5A5B80CB947BE4E2D1024AF320B322E8","GBP","+443300538880","","","","","","","","","","",""
"N","0","+443300538880","+447487xxxxxx","03/07/2017","14:59:54","109","","","UK STOKE-ON-TRENT","UKN","1","0.014000","","","","","NT03","Gamma","","","","","3194","","","+441782898004","","S97EFCE633B248863F1D4A02E077B417D","GBP","+443300538880","","","","","","","","","","",""
"N","0","+443300538880","+447487xxxxxx","03/07/2017","15:17:09","146","","","UK STOKE-ON-TRENT","UKN","1","0.018000","","","","","NT03","Gamma","","","","","3194","","","+441782898004","","S015BEEE967F6231D57B0DE39FE8C316C","GBP","+443300538880","","","","","","","","","","",""
"N","0","+443300538880","+447495xxxxxx","03/07/2017","15:39:14","162","","","UK STOKE-ON-TRENT","UKN","1","0.020000","","","","","NT03","Gamma","","","","","3194","","","+441782898004","","S4847402F573988CB4BECD12B810B1DDB","GBP","+443300538880","","","","","","","","","","",""
"N","0","+443300538880","+447741xxxxxx","03/07/2017","16:04:11","112","","","UK STOKE-ON-TRENT","UKN","1","0.014000","","","","","NT03","Gamma","","","","","3194","","","+441782898004","","SEEBE492B0EA04DB4B0AB498828C49428","GBP","+443300538880","","","","","","","","","","",""
"N","0","+443300538880","+447487xxxxxx","03/07/2017","16:19:27","151","","","UK STOKE-ON-TRENT","UKN","1","0.019000","","","","","NT03","Gamma","","","","","3194","","","+441782898004","","SB9A5591C2AE70D35095D7619150E0F5D","GBP","+443300538880","","","","","","","","","","",""
