"Call Type","Call Cause Definition Required","Customer Identifier","Non-Charged Party","Call Date","Call Time","Duration","Bytes Transmitted","Bytes Received","Description","Chargecode","Time Band","Salesprice","Salesprice (Pre-Bundle)","Extension","DDI","Grouping ID","Call Class (Feature)","Carrier","Recording","VAT","Country of Origin","Network","Retail Tariff Code","Remote Network","APN","Diverted Number","Ring time","Record ID","Currency","Caller Line Identity","Network Access Reference","NGCS Access Charge","NGCS Service Charge","Total Bytes Transferred","User ID","Onward Billing Reference","Contract Name","Bundle Name","Bundle Allowance","Discount Reference","Routing Code"
"G","0","DC2N17GKP43397_A1","+441889272180","10/07/2017","08:53:54","74","","","UK RUGELY","UKN","1","0.000000","","","","","SIPD","Gamma","","","","","3194","","","","","CF3933E35D687782A5F0AB38CC68E9FFE","GBP","+443300538880","DC2N17GKP43397_A1","","","","","","","","","",""
"G","0","DC2N17GKP43397_A1","+441617777422","10/07/2017","09:10:49","49","","","UK MANCHESTER","UKN","1","0.000000","","","","","SIPD","Gamma","","","","","3194","","","","","C905522CDD637AF64D7FFA91A900DB971","GBP","+443300538880","DC2N17GKP43397_A1","","","","","","","","","",""
"G","0","DC2N17GKP43397_A1","+441530888631","10/07/2017","09:12:57","4","","","UK COALVILLE","UKN","1","0.000000","","","","","SIPD","Gamma","","","","","3194","","","","","CB9B863EB580AB83A66FC648FB9DE8A93","GBP","+443300538880","DC2N17GKP43397_A1","","","","","","","","","",""
"V","0","DC2N17GKP43397_A1","+447741267127","10/07/2017","10:33:20","85","","","UK Mobile Vodafone","UKNFM5","1","0.000000","","","","","SIPD","Gamma","","","","","3194","","","","","C84628B60F17100556A5154E20E903F04","GBP","+443300538880","DC2N17GKP43397_A1","","","","","","AddonDC2N17GKP43397_A1","SIP to Mobile AYCE","72000000","",""
"V","0","DC2N17GKP43397_A1","+447741267127","10/07/2017","11:11:42","103","","","UK Mobile Vodafone","UKNFM5","1","0.000000","","","","","SIPD","Gamma","","","","","3194","","","","","CB47332BA8B59217ECB8C882427004C08","GBP","+443300538880","DC2N17GKP43397_A1","","","","","","AddonDC2N17GKP43397_A1","SIP to Mobile AYCE","72000000","",""
"V","0","DC2N17GKP43397_A1","+447487695173","10/07/2017","11:15:04","55","","","UK Mobile Orange","UKNFM4","1","0.000000","","","","","SIPD","Gamma","","","","","3194","","","","","C065115B3418762A6DEFB5E7DB0DE75D5","GBP","+443300538880","DC2N17GKP43397_A1","","","","","","AddonDC2N17GKP43397_A1","SIP to Mobile AYCE","72000000","",""
"V","0","DC2N17GKP43397_A1","+447557339201","10/07/2017","11:16:26","58","","","UK Mobile Vodafone","UKNFM5","1","0.000000","","","","","SIPD","Gamma","","","","","3194","","","","","C82EA14F9AE439B5F9D9282F1806991FE","GBP","+443300538880","DC2N17GKP43397_A1","","","","","","AddonDC2N17GKP43397_A1","SIP to Mobile AYCE","72000000","",""
"G","0","DC2N17GKP43397_A1","+441213277771","10/07/2017","11:21:39","74","","","UK BIRMINGHAM","UKN","1","0.000000","","","","","SIPD","Gamma","","","","","3194","","","","","C62D915D8E54183F891BE244B27C46DA7","GBP","+443300538880","DC2N17GKP43397_A1","","","","","","","","","",""
"V","0","DC2N17GKP43397_A1","+448708502755","10/07/2017","11:40:24","83","","","UK NGCS SC002 (1ppm)","UKNSC002","1","0.030000","","","","","SIPD","Gamma","","","","","3194","","","","","C6CC00DEE4B8F5004059CAB5D756212DA","GBP","+443300538880","DC2N17GKP43397_A1","0.018000","0.012000","","","","","","","",""
"G","0","DC2N17GKP43397_A1","+441217429123","10/07/2017","11:44:55","57","","","UK BIRMINGHAM","UKN","1","0.000000","","","","","SIPD","Gamma","","","","","3194","","","","","CDDE6236112F9D29E6608C5605447DCC3","GBP","+443300538880","DC2N17GKP43397_A1","","","","","","","","","",""
"G","0","DC2N17GKP43397_A1","+441782660061","10/07/2017","12:23:13","5","","","UK STOKE-ON-TRENT","UKN","1","0.000000","","","","","SIPD","Gamma","","","","","3194","","","","","CFD594A857FFC1B374D3176BC4A0097B1","GBP","+443300538880","DC2N17GKP43397_A1","","","","","","","","","",""
"V","0","DC2N17GKP43397_A1","+447831418573","10/07/2017","12:23:57","28","","","UK Mobile Vodafone","UKNFM5","1","0.000000","","","","","SIPD","Gamma","","","","","3194","","","","","C55DECF7910B4316379A8783990E4A6C8","GBP","+443300538880","DC2N17GKP43397_A1","","","","","","AddonDC2N17GKP43397_A1","SIP to Mobile AYCE","72000000","",""
"G","0","DC2N17GKP43397_A1","+441269604946","10/07/2017","12:37:50","12","","","UK AMMANFORD","UKN","1","0.000000","","","","","SIPD","Gamma","","","","","3194","","","","","C838526B04E1F7FAB9E159290A255B2CB","GBP","+443300538880","DC2N17GKP43397_A1","","","","","","","","","",""
"G","0","DC2N17COP40785_A1","+441162556022","10/07/2017","13:04:37","177","","","UK LEICESTER","UKN","1","0.000000","","","","","SIPD","Gamma","","","","","3194","","","","","C77FEE9E5451C0BC6D0A9DE2A77FF7BCD","GBP","+443332026365","DC2N17COP40785_A1","","","","","","","","","",""
"G","0","DC2N17COP40785_A1","+443719733000","10/07/2017","13:27:10","236","","","UK National Non Geographic","UKNNNG","1","0.000000","","","","","SIPD","Gamma","","","","","3194","","","","","C4F86C5B3E3D6D4A011D6A67FAE84F8B0","GBP","+443332026365","DC2N17COP40785_A1","","","","","","","","","",""
"G","0","DC2N17COP40785_A1","+441256788333","10/07/2017","13:32:06","344","","","UK BASINGSTOKE","UKN","1","0.000000","","","","","SIPD","Gamma","","","","","3194","","","","","CAD802279165B1B674427DA014FC88646","GBP","+443332026365","DC2N17COP40785_A1","","","","","","","","","",""
"G","0","DC2N17COP40785_A1","+441162701516","10/07/2017","13:41:53","183","","","UK LEICESTER","UKN","1","0.000000","","","","","SIPD","Gamma","","","","","3194","","","","","CB6DA5D938571F3DA664C1BAC86F61232","GBP","+443332026365","DC2N17COP40785_A1","","","","","","","","","",""
"V","0","DC2N17GKP43397_A1","+447943066328","10/07/2017","14:08:51","172","","","UK Mobile T Mobile","UKNFM3","1","0.000000","","","","","SIPD","Gamma","","","","","3194","","","","","C1054117B166C0DDF357C3A038A3329BF","GBP","+443300538880","DC2N17GKP43397_A1","","","","","","AddonDC2N17GKP43397_A1","SIP to Mobile AYCE","72000000","",""
"V","0","DC2N17GKP43397_A1","+447487695173","10/07/2017","14:12:43","68","","","UK Mobile Orange","UKNFM4","1","0.000000","","","","","SIPD","Gamma","","","","","3194","","","","","C53E712C01FEA1A600CE8E3B8062946AE","GBP","+443300538880","DC2N17GKP43397_A1","","","","","","AddonDC2N17GKP43397_A1","SIP to Mobile AYCE","72000000","",""
"G","0","DC2N17GKP43397_A1","+441489779068","10/07/2017","14:23:14","79","","","UK BISHOPS WALTHAM","UKN","1","0.000000","","","","","SIPD","Gamma","","","","","3194","","","","","C693BEB1F75A46BCCD646566D23CF370E","GBP","+443300538880","DC2N17GKP43397_A1","","","","","","","","","",""
"G","0","DC2N17GKP43397_A1","+441765605350","10/07/2017","14:29:15","75","","","UK RIPON","UKN","1","0.000000","","","","","SIPD","Gamma","","","","","3194","","","","","C8A2A1EFAE13A5350F82582AC38A480CE","GBP","+443300538880","DC2N17GKP43397_A1","","","","","","","","","",""
"G","0","DC2N17COP40785_A1","+441215536846","10/07/2017","14:47:31","201","","","UK BIRMINGHAM","UKN","1","0.000000","","","","","SIPD","Gamma","","","","","3194","","","","","C0B990DE146A250193AD9E655E7BB15E9","GBP","+443332026365","DC2N17COP40785_A1","","","","","","","","","",""
"G","0","DC2N17COP40785_A1","+441162776363","10/07/2017","14:53:53","70","","","UK LEICESTER","UKN","1","0.000000","","","","","SIPD","Gamma","","","","","3194","","","","","C8C43667324460589945F34867339594C","GBP","+443332026365","DC2N17COP40785_A1","","","","","","","","","",""
"G","0","DC2N17COP40785_A1","+441162444999","10/07/2017","15:00:47","91","","","UK LEICESTER","UKN","1","0.000000","","","","","SIPD","Gamma","","","","","3194","","","","","CF8393C1B159B7A8444B9874643A69BE2","GBP","+443332026365","DC2N17COP40785_A1","","","","","","","","","",""
"G","0","DC2N17GKP43397_A1","+441617777422","10/07/2017","15:04:46","60","","","UK MANCHESTER","UKN","1","0.000000","","","","","SIPD","Gamma","","","","","3194","","","","","C4C9E04A75ABEDCD594858E8CFF8FB46F","GBP","+443300538880","DC2N17GKP43397_A1","","","","","","","","","",""
"V","0","DC2N17GKP43397_A1","+448081686339","10/07/2017","15:07:36","61","","","UK Freephone","UKNFPH","1","0.000000","","","+443300538880","","SIPD","Gamma","","","","","3194","","","","","C3B02D1D744DA0D4E93581388CE61A59A","GBP","+443300538880","DC2N17GKP43397_A1","","","","","","","","","",""
"G","0","DC2N17COP40785_A1","+443719733000","10/07/2017","15:08:56","746","","","UK National Non Geographic","UKNNNG","1","0.000000","","","","","SIPD","Gamma","","","","","3194","","","","","C0FBCCA8B9CCE2D0F4561C908A24F5030","GBP","+443332026365","DC2N17COP40785_A1","","","","","","","","","",""
"G","0","DC2N17GKP43397_A1","+443332026365","10/07/2017","15:28:51","334","","","UK National Non Geographic","UKNNNG","1","0.000000","","","","","SIPD","Gamma","","","","","3194","","","","","C2E44AD5D6DB1A40CB005E0BAC58E80CE","GBP","+443300538880","DC2N17GKP43397_A1","","","","","","","","","",""
"G","0","DC2N17COP40785_A1","+443457606060","10/07/2017","16:32:01","484","","","UK National Non Geographic","UKNNNG","1","0.000000","","","","","SIPD","Gamma","","","","","3194","","","","","C174F7190A915271B63B54FF393711AB4","GBP","+443332026365","DC2N17COP40785_A1","","","","","","","","","",""
"V","0","DC2N17GKP43397_A1","+447572826729","10/07/2017","16:41:13","72","","","UK Mobile T Mobile","UKNFM3","1","0.000000","","","","","SIPD","Gamma","","","","","3194","","","","","C85DEDCACE9081AE9130F1F70CC479667","GBP","+443300538880","DC2N17GKP43397_A1","","","","","","AddonDC2N17GKP43397_A1","SIP to Mobile AYCE","72000000","",""
"V","0","DC2N17GKP43397_A1","+447495722011","10/07/2017","16:42:01","63","","","UK Mobile T Mobile","UKNFM3","1","0.000000","","","","","SIPD","Gamma","","","","","3194","","","","","C21057FE0EE23B2C16361A776B1C535DF","GBP","+443300538880","DC2N17GKP43397_A1","","","","","","AddonDC2N17GKP43397_A1","SIP to Mobile AYCE","72000000","",""
"V","0","DC2N17GKP43397_A1","+447487695173","10/07/2017","16:45:39","61","","","UK Mobile Orange","UKNFM4","1","0.000000","","","","","SIPD","Gamma","","","","","3194","","","","","C84403640BEB25BAD816651E058681728","GBP","+443300538880","DC2N17GKP43397_A1","","","","","","AddonDC2N17GKP43397_A1","SIP to Mobile AYCE","72000000","",""
"V","0","DC2N17COP40785_A1","+447904093018","10/07/2017","17:13:20","1364","","","UK Mobile T Mobile","UKNFM3","1","0.000000","","","","","SIPD","Gamma","","","","","3194","","","","","C315CF80719F339E1097C50CEA86664B9","GBP","+443332026365","DC2N17COP40785_A1","","","","","","AddonDC2N17COP40785_A1","SIP to Mobile AYCE","72000000","",""
