"Call Type","Call Cause Definition Required","Customer Identifier","Non-Charged Party","Call Date","Call Time","Duration","Bytes Transmitted","Bytes Received","Description","Chargecode","Time Band","Salesprice","Salesprice (Pre-Bundle)","Extension","DDI","Grouping ID","Call Class (Feature)","Carrier","Recording","VAT","Country of Origin","Network","Retail Tariff Code","Remote Network","APN","Diverted Number","Ring time","Record ID","Currency","Caller Line Identity","Network Access Reference","NGCS Access Charge","NGCS Service Charge","Total Bytes Transferred","User ID","Onward Billing Reference","Contract Name","Bundle Name","Bundle Allowance","Discount Reference","Routing Code"
"N","0","+443300538880","+447557xxxxxx","27/07/2017","09:17:38","398","","","UK STOKE-ON-TRENT","UKN","1","0.048000","","","","","NT03","Gamma","","","","","3194","","","+441782898004","","S6ECA201C8CB09D673133295CD542DC7B","GBP","+443300538880","","","","","","","","","","",""
"N","0","+443300539660","+441625xxxxxx","27/07/2017","09:36:07","37","","","UK LEICESTER","UKN","1","0.005000","","","","","NT03","Gamma","","","","","3194","","","+441162690770","","S59B277D87B914628FB4A131D978F4E5F","GBP","+443300539660","","","","","","","","","","",""
"N","0","+443300538880","+447495xxxxxx","27/07/2017","09:38:53","7","","","UK STOKE-ON-TRENT","UKN","1","0.001000","","","","","NT03","Gamma","","","","","3194","","","+441782898004","","SBEF7DE167A3AD31EA13448B2EFA6ED34","GBP","+443300538880","","","","","","","","","","",""
"N","0","+443300538880","+447495xxxxxx","27/07/2017","09:39:35","101","","","UK STOKE-ON-TRENT","UKN","1","0.013000","","","","","NT03","Gamma","","","","","3194","","","+441782898004","","S6195D29DC58B05C2CB97961EE210AC43","GBP","+443300538880","","","","","","","","","","",""
"N","0","+443300539660","+447446xxxxxx","27/07/2017","10:12:57","245","","","UK LEICESTER","UKN","1","0.030000","","","","","NT03","Gamma","","","","","3194","","","+441162690770","","SD23D3F1D0AD82D88BB7A280AB5A4FA61","GBP","+443300539660","","","","","","","","","","",""
"N","0","+443300539660","+447950xxxxxx","27/07/2017","10:14:24","53","","","UK LEICESTER","UKN","1","0.007000","","","","","NT03","Gamma","","","","","3194","","","+441162690770","","SBA7859DBBDCCADD3EE7F3F0707449DED","GBP","+443300539660","","","","","","","","","","",""
"N","0","+443300539660","+447950xxxxxx","27/07/2017","10:15:29","170","","","UK LEICESTER","UKN","1","0.021000","","","","","NT03","Gamma","","","","","3194","","","+441162690770","","S3E5DC8F6F3CAE839525A4F6D0E4FF5E7","GBP","+443300539660","","","","","","","","","","",""
"N","0","+443300538880","+441889xxxxxx","27/07/2017","10:26:50","100","","","UK STOKE-ON-TRENT","UKN","1","0.012000","","","","","NT03","Gamma","","","","","3194","","","+441782898004","","S6DCE777575DB6D8F3B8DF65EECB883BD","GBP","+443300538880","","","","","","","","","","",""
"N","0","+443300538880","+441246xxxxxx","27/07/2017","10:30:50","230","","","UK STOKE-ON-TRENT","UKN","1","0.028000","","","","","NT03","Gamma","","","","","3194","","","+441782898004","","SFD62693D7207D89E48863437721C43E6","GBP","+443300538880","","","","","","","","","","",""
"N","0","+443300539660","+447950xxxxxx","27/07/2017","10:31:21","300","","","UK LEICESTER","UKN","1","0.036000","","","","","NT03","Gamma","","","","","3194","","","+441162690770","","S53CCDFFE5516495F9882355B0043CDC1","GBP","+443300539660","","","","","","","","","","",""
"N","0","+443300538880","+441942xxxxxx","27/07/2017","10:33:49","179","","","UK STOKE-ON-TRENT","UKN","1","0.022000","","","","","NT03","Gamma","","","","","3194","","","+441782898004","","Saccfcf21ca03e2d4ea8f5c60857deeaa","GBP","+443300538880","","","","","","","","","","",""
"N","0","+443300539660","+442084xxxxxx","27/07/2017","10:54:32","123","","","UK LEICESTER","UKN","1","0.015000","","","","","NT03","Gamma","","","","","3194","","","+441162690770","","S7FCC4D8A94EC9178909655C56BB2CB81","GBP","+443300539660","","","","","","","","","","",""
"N","0","+443300538880","+447741xxxxxx","27/07/2017","12:00:21","37","","","UK STOKE-ON-TRENT","UKN","1","0.005000","","","","","NT03","Gamma","","","","","3194","","","+441782898004","","SA066B5B186C80F96788C59B3AE1384DF","GBP","+443300538880","","","","","","","","","","",""
"N","0","+443300538880","+447824xxxxxx","27/07/2017","12:00:39","109","","","UK STOKE-ON-TRENT","UKN","1","0.014000","","","","","NT03","Gamma","","","","","3194","","","+441782898004","","SDFAB6D5AFD74B971E8359A707F533D4B","GBP","+443300538880","","","","","","","","","","",""
"N","0","+443300538880","+447487xxxxxx","27/07/2017","12:02:49","175","","","UK STOKE-ON-TRENT","UKN","1","0.021000","","","","","NT03","Gamma","","","","","3194","","","+441782898004","","S70756B72C8A25ACAA68E3CB019837071","GBP","+443300538880","","","","","","","","","","",""
"N","0","+443300539660","+441162xxxxxx","27/07/2017","12:03:13","176","","","UK LEICESTER","UKN","1","0.022000","","","","","NT03","Gamma","","","","","3194","","","+441162690770","","S7AEADD5F48F4B310F10920176CC32650","GBP","+443300539660","","","","","","","","","","",""
"N","0","+443300538880","+447741xxxxxx","27/07/2017","12:03:25","100","","","UK STOKE-ON-TRENT","UKN","1","0.012000","","","","","NT03","Gamma","","","","","3194","","","+441782898004","","SD0E3C3123BC5ADE91F470C6E4BFF03FB","GBP","+443300538880","","","","","","","","","","",""
"N","0","+443300538880","+447741xxxxxx","27/07/2017","12:06:59","91","","","UK STOKE-ON-TRENT","UKN","1","0.011000","","","","","NT03","Gamma","","","","","3194","","","+441782898004","","SAE0765D3410E9593805B65BD70BCBC9D","GBP","+443300538880","","","","","","","","","","",""
"N","0","+443300539660","+441162xxxxxx","27/07/2017","12:09:12","79","","","UK LEICESTER","UKN","1","0.010000","","","","","NT03","Gamma","","","","","3194","","","+441162690770","","S6E4B577EE1BB4A9E91B81A4A1E4C5A4A","GBP","+443300539660","","","","","","","","","","",""
"N","0","+443300539660","+447714xxxxxx","27/07/2017","12:10:20","440","","","UK LEICESTER","UKN","1","0.053000","","","","","NT03","Gamma","","","","","3194","","","+441162690770","","S67ED32726AE189A233AF9E1E0D2620C3","GBP","+443300539660","","","","","","","","","","",""
"N","0","+443300539660","+447950xxxxxx","27/07/2017","12:34:52","103","","","UK LEICESTER","UKN","1","0.013000","","","","","NT03","Gamma","","","","","3194","","","+441162690770","","S01205AF8CEC345A99D5F3D57E16B7EF9","GBP","+443300539660","","","","","","","","","","",""
"N","0","+443300539660","+447766xxxxxx","27/07/2017","12:40:33","207","","","UK LEICESTER","UKN","1","0.025000","","","","","NT03","Gamma","","","","","3194","","","+441162690770","","S563B4B2CCF7F0647280CDCE874C0DED6","GBP","+443300539660","","","","","","","","","","",""
"N","0","+443300538880","+441844xxxxxx","27/07/2017","13:24:37","138","","","UK STOKE-ON-TRENT","UKN","1","0.017000","","","","","NT03","Gamma","","","","","3194","","","+441782898004","","S6CE63C900D6B3BF4324F814309EA603A","GBP","+443300538880","","","","","","","","","","",""
"N","0","+443300538880","+447718xxxxxx","27/07/2017","14:20:01","5","","","UK STOKE-ON-TRENT","UKN","1","0.001000","","","","","NT03","Gamma","","","","","3194","","","+441782898004","","S22D7B1EEB6E6BA50A67D3F8436CD1A25","GBP","+443300538880","","","","","","","","","","",""
"N","0","+443300538880","+441949xxxxxx","27/07/2017","14:45:58","326","","","UK STOKE-ON-TRENT","UKN","1","0.040000","","","","","NT03","Gamma","","","","","3194","","","+441782898004","","S2575311894CF798C8A5681CC13294699","GBP","+443300538880","","","","","","","","","","",""
"N","0","+443300538880","+447718xxxxxx","27/07/2017","15:01:49","159","","","UK STOKE-ON-TRENT","UKN","1","0.020000","","","","","NT03","Gamma","","","","","3194","","","+441782898004","","S4B48D3B39AD4AC349B923A0C19D3910C","GBP","+443300538880","","","","","","","","","","",""
"N","0","+443300538880","+441480xxxxxx","27/07/2017","15:16:52","78","","","UK STOKE-ON-TRENT","UKN","1","0.010000","","","","","NT03","Gamma","","","","","3194","","","+441782898004","","SC7E055ABC39B0B57FE67278F0B180F6D","GBP","+443300538880","","","","","","","","","","",""
"N","0","+443300538880","+447796xxxxxx","27/07/2017","15:21:20","121","","","UK STOKE-ON-TRENT","UKN","1","0.015000","","","","","NT03","Gamma","","","","","3194","","","+441782898004","","S18D9F9E16730D36F2BAEC934ECADBAD2","GBP","+443300538880","","","","","","","","","","",""
"N","0","+443300538880","+447796xxxxxx","27/07/2017","15:29:51","166","","","UK STOKE-ON-TRENT","UKN","1","0.020000","","","","","NT03","Gamma","","","","","3194","","","+441782898004","","SF06473CF2FEE555D04ECAF131152CF20","GBP","+443300538880","","","","","","","","","","",""
"N","0","+443300538880","+441942xxxxxx","27/07/2017","15:44:10","97","","","UK STOKE-ON-TRENT","UKN","1","0.012000","","","","","NT03","Gamma","","","","","3194","","","+441782898004","","S8c4723b7115ade147fa42f62cc046b58","GBP","+443300538880","","","","","","","","","","",""
"N","0","+443300538880","+447796xxxxxx","27/07/2017","15:47:11","44","","","UK STOKE-ON-TRENT","UKN","1","0.006000","","","","","NT03","Gamma","","","","","3194","","","+441782898004","","SA66F20220BFB198C23F521627D8EC7B8","GBP","+443300538880","","","","","","","","","","",""
"N","0","+443300539660","+277907xxxxxx","27/07/2017","15:47:34","324","","","UK LEICESTER","UKN","1","0.039000","","","","","NT03","Gamma","","","","","3194","","","+441162690770","","S5BC9086BF8D4D51CED28B9EA7EED6ABA","GBP","+443300539660","","","","","","","","","","",""
"N","0","+443300539660","+277907xxxxxx","27/07/2017","16:21:26","30","","","UK LEICESTER","UKN","1","0.004000","","","","","NT03","Gamma","","","","","3194","","","+441162690770","","S3B8033F1E158A6EC200A539874A3857F","GBP","+443300539660","","","","","","","","","","",""
"N","0","+443300539660","+277907xxxxxx","27/07/2017","16:22:05","124","","","UK LEICESTER","UKN","1","0.015000","","","","","NT03","Gamma","","","","","3194","","","+441162690770","","SA56ECED90FFA4B95296A9C8251FA8ADE","GBP","+443300539660","","","","","","","","","","",""
"N","0","+443300539660","+277907xxxxxx","27/07/2017","16:24:18","36","","","UK LEICESTER","UKN","1","0.005000","","","","","NT03","Gamma","","","","","3194","","","+441162690770","","S15D5942E8BF8B76CDB6422BA2D500BE2","GBP","+443300539660","","","","","","","","","","",""
"N","0","+443300539660","+277907xxxxxx","27/07/2017","16:34:44","364","","","UK LEICESTER","UKN","1","0.044000","","","","","NT03","Gamma","","","","","3194","","","+441162690770","","SB192F35B492BC4D1EA56129BDB4DC0B3","GBP","+443300539660","","","","","","","","","","",""
"N","0","+443300538880","+441205xxxxxx","27/07/2017","16:59:14","88","","","UK STOKE-ON-TRENT","UKN","1","0.011000","","","","","NT03","Gamma","","","","","3194","","","+441782898004","","S33B0BE38B9329FE5532383683F12AD1C","GBP","+443300538880","","","","","","","","","","",""
"N","0","+443300538880","+447718xxxxxx","27/07/2017","17:07:12","103","","","UK STOKE-ON-TRENT","UKN","1","0.013000","","","","","NT03","Gamma","","","","","3194","","","+441782898004","","S3F3BCBD3CB53D461D2DEAF6EDA7394D0","GBP","+443300538880","","","","","","","","","","",""
