"Call Type","Call Cause Definition Required","Customer Identifier","Non-Charged Party","Call Date","Call Time","Duration","Bytes Transmitted","Bytes Received","Description","Chargecode","Time Band","Salesprice","Salesprice (Pre-Bundle)","Extension","DDI","Grouping ID","Call Class (Feature)","Carrier","Recording","VAT","Country of Origin","Network","Retail Tariff Code","Remote Network","APN","Diverted Number","Ring time","Record ID","Currency","Caller Line Identity","Network Access Reference","NGCS Access Charge","NGCS Service Charge","Total Bytes Transferred","User ID","Onward Billing Reference","Contract Name","Bundle Name","Bundle Allowance","Discount Reference","Routing Code"
"N","0","+443300538880","+441480xxxxxx","05/10/2017","08:50:52","173","","","UK STOKE-ON-TRENT","UKN","1","0.021000","","","","","NT03","Gamma","","","","","3194","","","+441782898004","","SA07446CEBE048924406BFD34941D63AF","GBP","+443300538880","","","","","","","","","","",""
"N","0","+443300539660","+447900xxxxxx","05/10/2017","08:50:58","9","","","UK LEICESTER","UKN","1","0.002000","","","","","NT03","Gamma","","","","","3194","","","+441162690770","","S3595D8183B21A9C9C2F89BC8888A240F","GBP","+443300539660","","","","","","","","","","",""
"N","0","+443300538880","+447487xxxxxx","05/10/2017","08:56:26","44","","","UK STOKE-ON-TRENT","UKN","1","0.006000","","","","","NT03","Gamma","","","","","3194","","","+441782898004","","S4ADE2BBC25870F7DE5992BEABED2480A","GBP","+443300538880","","","","","","","","","","",""
"N","0","+443300538880","+441620xxxxxx","05/10/2017","09:06:06","58","","","UK STOKE-ON-TRENT","UKN","1","0.007000","","","","","NT03","Gamma","","","","","3194","","","+441782898004","","S9e3c0599ce6c9da816f99cf5174b71c4","GBP","+443300538880","","","","","","","","","","",""
"N","0","+443300539660","+447900xxxxxx","05/10/2017","09:06:07","33","","","UK LEICESTER","UKN","1","0.004000","","","","","NT03","Gamma","","","","","3194","","","+441162690770","","SC1AA3E78385624AA55E84CD4CBF0466A","GBP","+443300539660","","","","","","","","","","",""
"N","0","+443300538880","+447710xxxxxx","05/10/2017","09:06:09","86","","","UK STOKE-ON-TRENT","UKN","1","0.011000","","","","","NT03","Gamma","","","","","3194","","","+441782898004","","Sfbaf2fdc25b7c24cfd7a2e716630c06c","GBP","+443300538880","","","","","","","","","","",""
"N","0","+443300538880","+447739xxxxxx","05/10/2017","09:09:19","321","","","UK STOKE-ON-TRENT","UKN","1","0.039000","","","","","NT03","Gamma","","","","","3194","","","+441782898004","","S085a0898add93f6ca1349515e25c4b5d","GBP","+443300538880","","","","","","","","","","",""
"N","0","+443300538880","+447710xxxxxx","05/10/2017","09:31:31","5","","","UK STOKE-ON-TRENT","UKN","1","0.001000","","","","","NT03","Gamma","","","","","3194","","","+441782898004","","SD43536CF560C5C57F804B2195891ACCD","GBP","+443300538880","","","","","","","","","","",""
"N","0","+443300538880","+441856xxxxxx","05/10/2017","09:50:34","209","","","UK STOKE-ON-TRENT","UKN","1","0.026000","","","","","NT03","Gamma","","","","","3194","","","+441782898004","","Sa3d71c674bbe901af7662efa79dbe55c","GBP","+443300538880","","","","","","","","","","",""
"N","0","+443300538880","+441617xxxxxx","05/10/2017","09:56:33","76","","","UK STOKE-ON-TRENT","UKN","1","0.010000","","","","","NT03","Gamma","","","","","3194","","","+441782898004","","SCF7F088DD407E96FAC7199488A76B298","GBP","+443300538880","","","","","","","","","","",""
"N","0","+443300538880","+447518xxxxxx","05/10/2017","10:22:00","133","","","UK STOKE-ON-TRENT","UKN","1","0.016000","","","","","NT03","Gamma","","","","","3194","","","+441782898004","","SB6294DA4AEDD8DA114338DDE339E0DF6","GBP","+443300538880","","","","","","","","","","",""
"N","0","+443300538880","+447776xxxxxx","05/10/2017","10:38:13","1","","","UK STOKE-ON-TRENT","UKN","1","0.001000","","","","","NT03","Gamma","","","","","3194","","","+441782898004","","S158B09023253D57E03E2B205D41688EE","GBP","+443300538880","","","","","","","","","","",""
"N","0","+443300538880","+441782xxxxxx","05/10/2017","10:38:36","219","","","UK STOKE-ON-TRENT","UKN","1","0.027000","","","","","NT03","Gamma","","","","","3194","","","+441782898004","","S5E62B6F4706E7AB42B220D1B99B9A647","GBP","+443300538880","","","","","","","","","","",""
"N","0","+443300539660","+447799xxxxxx","05/10/2017","10:43:22","93","","","UK LEICESTER","UKN","1","0.012000","","","","","NT03","Gamma","","","","","3194","","","+441162690770","","S6175C3A32B1F4247714DA22F7FD9405E","GBP","+443300539660","","","","","","","","","","",""
"N","0","+443300538880","+441353xxxxxx","05/10/2017","10:46:17","244","","","UK STOKE-ON-TRENT","UKN","1","0.030000","","","","","NT03","Gamma","","","","","3194","","","+441782898004","","S6993230B9E0B4BC4EEBD018AE47EBE50","GBP","+443300538880","","","","","","","","","","",""
"N","0","+443300539660","+353866xxxxxx","05/10/2017","11:21:36","65","","","UK LEICESTER","UKN","1","0.008000","","","","","NT03","Gamma","","","","","3194","","","+441162690770","","S41841306CDE7B934F9C25107FA680699","GBP","+443300539660","","","","","","","","","","",""
"N","0","+443300539660","+353866xxxxxx","05/10/2017","11:24:05","187","","","UK LEICESTER","UKN","1","0.023000","","","","","NT03","Gamma","","","","","3194","","","+441162690770","","SE33E98F6E7464295AAAC228218CACB9F","GBP","+443300539660","","","","","","","","","","",""
"N","0","+443300538880","+441768xxxxxx","05/10/2017","11:32:56","82","","","UK STOKE-ON-TRENT","UKN","1","0.010000","","","","","NT03","Gamma","","","","","3194","","","+441782898004","","S9FAC1502F808418BBD5B71ED31C57970","GBP","+443300538880","","","","","","","","","","",""
"N","0","+443300538880","+447557xxxxxx","05/10/2017","11:37:51","57","","","UK STOKE-ON-TRENT","UKN","1","0.007000","","","","","NT03","Gamma","","","","","3194","","","+441782898004","","SCFEE86E6459087B31DAAC951C57AE6DF","GBP","+443300538880","","","","","","","","","","",""
"N","0","+443300538880","+447495xxxxxx","05/10/2017","11:42:46","146","","","UK STOKE-ON-TRENT","UKN","1","0.018000","","","","","NT03","Gamma","","","","","3194","","","+441782898004","","SF36E9C3C16410FAAC08F6CE47F7626E6","GBP","+443300538880","","","","","","","","","","",""
"N","0","+443300538880","+447495xxxxxx","05/10/2017","12:17:03","80","","","UK STOKE-ON-TRENT","UKN","1","0.010000","","","","","NT03","Gamma","","","","","3194","","","+441782898004","","SE456389B4B00C98E0C95BD3B7930BA83","GBP","+443300538880","","","","","","","","","","",""
"N","0","+443300539660","+442089xxxxxx","05/10/2017","12:20:44","44","","","UK LEICESTER","UKN","1","0.006000","","","","","NT03","Gamma","","","","","3194","","","+441162690770","","SDDC59A4AEEC5D892DCD1B68A4ADD452F","GBP","+443300539660","","","","","","","","","","",""
"N","0","+443300538880","+441827xxxxxx","05/10/2017","12:35:48","82","","","UK STOKE-ON-TRENT","UKN","1","0.010000","","","","","NT03","Gamma","","","","","3194","","","+441782898004","","S941539BDEC247980347BBADFFC00C5F1","GBP","+443300538880","","","","","","","","","","",""
"N","0","+443300539660","+447967xxxxxx","05/10/2017","12:41:25","120","","","UK LEICESTER","UKN","1","0.015000","","","","","NT03","Gamma","","","","","3194","","","+441162690770","","S0137F9BC9F80C75632A85B4039B124E8","GBP","+443300539660","","","","","","","","","","",""
"N","0","+443300538880","+441743xxxxxx","05/10/2017","12:42:37","74","","","UK STOKE-ON-TRENT","UKN","1","0.009000","","","","","NT03","Gamma","","","","","3194","","","+441782898004","","SF91AE282C0D38B333EAB856403A6736A","GBP","+443300538880","","","","","","","","","","",""
"N","0","+443300538880","+441785xxxxxx","05/10/2017","12:50:06","64","","","UK STOKE-ON-TRENT","UKN","1","0.008000","","","","","NT03","Gamma","","","","","3194","","","+441782898004","","S2605BDF7D3D35E1A40FECBE0C9E96517","GBP","+443300538880","","","","","","","","","","",""
"N","0","+443300538880","+447999xxxxxx","05/10/2017","12:54:49","48","","","UK STOKE-ON-TRENT","UKN","1","0.006000","","","","","NT03","Gamma","","","","","3194","","","+441782898004","","SBC98678F3CED9BD17D6F63E8BC7A651B","GBP","+443300538880","","","","","","","","","","",""
"N","0","+443300538880","+442076xxxxxx","05/10/2017","12:59:59","214","","","UK STOKE-ON-TRENT","UKN","1","0.026000","","","","","NT03","Gamma","","","","","3194","","","+441782898004","","Sbdb32ce949d5fff0ae2286a332d294b0","GBP","+443300538880","","","","","","","","","","",""
"N","0","+443300539660","+442084xxxxxx","05/10/2017","13:19:00","194","","","UK LEICESTER","UKN","1","0.024000","","","","","NT03","Gamma","","","","","3194","","","+441162690770","","S4FA7201A02FE655610BF0861A421C140","GBP","+443300539660","","","","","","","","","","",""
"N","0","+443300539660","+441732xxxxxx","05/10/2017","13:58:40","32","","","UK LEICESTER","UKN","1","0.004000","","","","","NT03","Gamma","","","","","3194","","","+441162690770","","S24AF78EBA37C1DF4BE7E6DCD896F7F0B","GBP","+443300539660","","","","","","","","","","",""
"N","0","+443300539660","+441732xxxxxx","05/10/2017","13:59:29","53","","","UK LEICESTER","UKN","1","0.007000","","","","","NT03","Gamma","","","","","3194","","","+441162690770","","SE4A3AF3956F5CF9DDDF3313BC06E10EC","GBP","+443300539660","","","","","","","","","","",""
"N","0","+443300539660","+441732xxxxxx","05/10/2017","14:00:41","41","","","UK LEICESTER","UKN","1","0.005000","","","","","NT03","Gamma","","","","","3194","","","+441162690770","","SCF168CFE9F5F0C6BCDEC2B40945F782E","GBP","+443300539660","","","","","","","","","","",""
"N","0","+443300539660","+441732xxxxxx","05/10/2017","14:01:37","308","","","UK LEICESTER","UKN","1","0.037000","","","","","NT03","Gamma","","","","","3194","","","+441162690770","","S218EF2508C32D04D22524C24F4FD6D4D","GBP","+443300539660","","","","","","","","","","",""
"N","0","+443300539660","+447758xxxxxx","05/10/2017","14:03:46","227","","","UK LEICESTER","UKN","1","0.028000","","","","","NT03","Gamma","","","","","3194","","","+441162690770","","SA7651742C5BBFD43E1D56C82608B0CAC","GBP","+443300539660","","","","","","","","","","",""
"N","0","+443300539660","+441234xxxxxx","05/10/2017","14:28:27","51","","","UK LEICESTER","UKN","1","0.007000","","","","","NT03","Gamma","","","","","3194","","","+441162690770","","SFADE6034B04A325F30C7FAC138B2C702","GBP","+443300539660","","","","","","","","","","",""
"N","0","+443300539660","+441234xxxxxx","05/10/2017","14:30:59","110","","","UK LEICESTER","UKN","1","0.014000","","","","","NT03","Gamma","","","","","3194","","","+441162690770","","SE5BB5E1D059A81644E62E347D03CF3B8","GBP","+443300539660","","","","","","","","","","",""
"N","0","+443300539660","+447817xxxxxx","05/10/2017","15:20:09","125","","","UK LEICESTER","UKN","1","0.015000","","","","","NT03","Gamma","","","","","3194","","","+441162690770","","S5210128E29D1FB79A1C790CB02821B4F","GBP","+443300539660","","","","","","","","","","",""
"N","0","+443300538880","+441604xxxxxx","05/10/2017","15:21:46","156","","","UK STOKE-ON-TRENT","UKN","1","0.019000","","","","","NT03","Gamma","","","","","3194","","","+441782898004","","S07d3e500fb6d5d2886a183fc6f1dc1eb","GBP","+443300538880","","","","","","","","","","",""
"N","0","+443300538880","+447738xxxxxx","05/10/2017","15:22:10","312","","","UK STOKE-ON-TRENT","UKN","1","0.038000","","","","","NT03","Gamma","","","","","3194","","","+441782898004","","Scd3d8aafdcc618fc4745438ab7a9437c","GBP","+443300538880","","","","","","","","","","",""
"N","0","+443300538880","+447487xxxxxx","05/10/2017","15:29:36","80","","","UK STOKE-ON-TRENT","UKN","1","0.010000","","","","","NT03","Gamma","","","","","3194","","","+441782898004","","S82DD6F3A3A3926F4DFF2917AFB68EEEA","GBP","+443300538880","","","","","","","","","","",""
"N","0","+443300539660","+447827xxxxxx","05/10/2017","16:08:38","95","","","UK LEICESTER","UKN","1","0.012000","","","","","NT03","Gamma","","","","","3194","","","+441162690770","","SA1A52C7F068EC27B85279BEE92F6DC39","GBP","+443300539660","","","","","","","","","","",""
"N","0","+443300539660","+441622xxxxxx","05/10/2017","16:19:49","58","","","UK LEICESTER","UKN","1","0.007000","","","","","NT03","Gamma","","","","","3194","","","+441162690770","","S95DD71DA7632B14682E3EB048F256737","GBP","+443300539660","","","","","","","","","","",""
"N","0","+443300538880","+441513xxxxxx","05/10/2017","16:30:04","67","","","UK STOKE-ON-TRENT","UKN","1","0.009000","","","","","NT03","Gamma","","","","","3194","","","+441782898004","","S70242b9951fe5249c9dee6b6c85ceffd","GBP","+443300538880","","","","","","","","","","",""
"N","0","+443300538880","+447741xxxxxx","05/10/2017","16:39:14","153","","","UK STOKE-ON-TRENT","UKN","1","0.019000","","","","","NT03","Gamma","","","","","3194","","","+441782898004","","S7BD65422D6D09D0631E277949F0D3846","GBP","+443300538880","","","","","","","","","","",""
