"Call Type","Call Cause Definition Required","Customer Identifier","Non-Charged Party","Call Date","Call Time","Duration","Bytes Transmitted","Bytes Received","Description","Chargecode","Time Band","Salesprice","Salesprice (Pre-Bundle)","Extension","DDI","Grouping ID","Call Class (Feature)","Carrier","Recording","VAT","Country of Origin","Network","Retail Tariff Code","Remote Network","APN","Diverted Number","Ring time","Record ID","Currency","Caller Line Identity","Network Access Reference","NGCS Access Charge","NGCS Service Charge","Total Bytes Transferred","User ID","Onward Billing Reference","Contract Name","Bundle Name","Bundle Allowance","Discount Reference","Routing Code"
"N","0","+443300538880","+447500xxxxxx","23/06/2017","09:15:01","150","","","UK STOKE-ON-TRENT","UKN","1","0.018000","","","","","NT03","Gamma","","","","","3194","","","+441782898004","","S018118B62D4D853F001D22719A782808","GBP","+443300538880","","","","","","","","","","",""
"N","0","+443300538880","+441782xxxxxx","23/06/2017","09:16:01","85","","","UK STOKE-ON-TRENT","UKN","1","0.011000","","","","","NT03","Gamma","","","","","3194","","","+441782898004","","S0B42C75776621741697DCC5B4B043691","GBP","+443300538880","","","","","","","","","","",""
"N","0","+443300538880","+447495xxxxxx","23/06/2017","09:52:28","59","","","UK STOKE-ON-TRENT","UKN","1","0.008000","","","","","NT03","Gamma","","","","","3194","","","+441782898004","","S157C32A817E4082BB8968786AE93D437","GBP","+443300538880","","","","","","","","","","",""
"N","0","+443300538880","+447741xxxxxx","23/06/2017","10:07:55","44","","","UK STOKE-ON-TRENT","UKN","1","0.006000","","","","","NT03","Gamma","","","","","3194","","","+441782898004","","SDF3C92F947305C1852C2D422CDF86721","GBP","+443300538880","","","","","","","","","","",""
"N","0","+443300538880","+447741xxxxxx","23/06/2017","11:58:34","133","","","UK STOKE-ON-TRENT","UKN","1","0.016000","","","","","NT03","Gamma","","","","","3194","","","+441782898004","","S90B9AE4162D245C7639B15331B068250","GBP","+443300538880","","","","","","","","","","",""
"N","0","+443300538880","+441213xxxxxx","23/06/2017","12:13:04","18","","","UK STOKE-ON-TRENT","UKN","1","0.003000","","","","","NT03","Gamma","","","","","3194","","","+441782898004","","S8A52A4CAD9450FAC86E4859F2FDE7B22","GBP","+443300538880","","","","","","","","","","",""
"N","0","+443300538880","+441213xxxxxx","23/06/2017","12:13:32","59","","","UK STOKE-ON-TRENT","UKN","1","0.008000","","","","","NT03","Gamma","","","","","3194","","","+441782898004","","S47B0D4555230E0EEA2F43E8A15D05852","GBP","+443300538880","","","","","","","","","","",""
"N","0","+443300538880","+441782xxxxxx","23/06/2017","12:14:12","319","","","UK STOKE-ON-TRENT","UKN","1","0.039000","","","","","NT03","Gamma","","","","","3194","","","+441782898004","","S12C7E2293AA88B8E09AD7FBCE714A36A","GBP","+443300538880","","","","","","","","","","",""
"N","0","+443300538880","+441782xxxxxx","23/06/2017","12:25:23","219","","","UK STOKE-ON-TRENT","UKN","1","0.027000","","","","","NT03","Gamma","","","","","3194","","","+441782898004","","S2981434D4568DC3219B9DEE6C069C5A9","GBP","+443300538880","","","","","","","","","","",""
"N","0","+443300538880","+447495xxxxxx","23/06/2017","12:41:33","131","","","UK STOKE-ON-TRENT","UKN","1","0.016000","","","","","NT03","Gamma","","","","","3194","","","+441782898004","","S9B76FA40437122588E171D31A3A091D1","GBP","+443300538880","","","","","","","","","","",""
"N","0","+443300538880","+447487xxxxxx","23/06/2017","13:10:53","167","","","UK STOKE-ON-TRENT","UKN","1","0.021000","","","","","NT03","Gamma","","","","","3194","","","+441782898004","","S849FA85CFCF552FA905ACF84B1A6D5A1","GBP","+443300538880","","","","","","","","","","",""
"N","0","+443300538880","+441948xxxxxx","23/06/2017","13:28:30","66","","","UK STOKE-ON-TRENT","UKN","1","0.008000","","","","","NT03","Gamma","","","","","3194","","","+441782898004","","S8a80bb93f998306ca6dfa686a1b2c44f","GBP","+443300538880","","","","","","","","","","",""
"N","0","+443300538880","+441584xxxxxx","23/06/2017","13:45:06","313","","","UK STOKE-ON-TRENT","UKN","1","0.038000","","","","","NT03","Gamma","","","","","3194","","","+441782898004","","S08BCDD8EA6E44AF3FACFEC4DAEBD487D","GBP","+443300538880","","","","","","","","","","",""
"N","0","+443300538880","+441387xxxxxx","23/06/2017","13:48:38","169","","","UK STOKE-ON-TRENT","UKN","1","0.021000","","","","","NT03","Gamma","","","","","3194","","","+441782898004","","S0FDDCD4D133BD26F334BF2196116AEE0","GBP","+443300538880","","","","","","","","","","",""
"N","0","+443300538880","+447487xxxxxx","23/06/2017","13:51:14","154","","","UK STOKE-ON-TRENT","UKN","1","0.019000","","","","","NT03","Gamma","","","","","3194","","","+441782898004","","S142CF081E1F3CC666B9F6E4C5CC7273C","GBP","+443300538880","","","","","","","","","","",""
"N","0","+443300538880","+447500xxxxxx","23/06/2017","13:55:31","102","","","UK STOKE-ON-TRENT","UKN","1","0.013000","","","","","NT03","Gamma","","","","","3194","","","+441782898004","","S2DDA8765BE77606512AD3D062536F722","GBP","+443300538880","","","","","","","","","","",""
"N","0","+443300538880","+441745xxxxxx","23/06/2017","14:05:48","350","","","UK STOKE-ON-TRENT","UKN","1","0.042000","","","","","NT03","Gamma","","","","","3194","","","+441782898004","","S69A12DF2676C6EB20EA658993C4A38AD","GBP","+443300538880","","","","","","","","","","",""
"N","0","+443300538880","+447495xxxxxx","23/06/2017","14:29:42","88","","","UK STOKE-ON-TRENT","UKN","1","0.011000","","","","","NT03","Gamma","","","","","3194","","","+441782898004","","S211C0ED261B9E9E3880A3CDB52FACC08","GBP","+443300538880","","","","","","","","","","",""
"N","0","+443300538880","+447495xxxxxx","23/06/2017","14:37:58","138","","","UK STOKE-ON-TRENT","UKN","1","0.017000","","","","","NT03","Gamma","","","","","3194","","","+441782898004","","S7F790D4E47BE199DA5DF31BEA34CA262","GBP","+443300538880","","","","","","","","","","",""
"N","0","+443300538880","+441782xxxxxx","23/06/2017","14:49:25","65","","","UK STOKE-ON-TRENT","UKN","1","0.008000","","","","","NT03","Gamma","","","","","3194","","","+441782898004","","S97EC3A25916FAD9D0167C5375C66322A","GBP","+443300538880","","","","","","","","","","",""
"N","0","+443300538880","+441782xxxxxx","23/06/2017","14:51:51","5","","","UK STOKE-ON-TRENT","UKN","1","0.001000","","","","","NT03","Gamma","","","","","3194","","","+441782898004","","SAD45CA278C548CF35090B1632E11C2A7","GBP","+443300538880","","","","","","","","","","",""
"N","0","+443300538880","+441617xxxxxx","23/06/2017","14:57:35","72","","","UK STOKE-ON-TRENT","UKN","1","0.009000","","","","","NT03","Gamma","","","","","3194","","","+441782898004","","SE5A63C3969D525653284F0EB8B5CBA3E","GBP","+443300538880","","","","","","","","","","",""
"N","0","+443300538880","+447973xxxxxx","23/06/2017","14:57:43","135","","","UK STOKE-ON-TRENT","UKN","1","0.017000","","","","","NT03","Gamma","","","","","3194","","","+441782898004","","S0B9F0C0D3552EDF95C598D0208DE08B7","GBP","+443300538880","","","","","","","","","","",""
"N","0","+443300538880","+441579xxxxxx","23/06/2017","15:28:52","100","","","UK STOKE-ON-TRENT","UKN","1","0.012000","","","","","NT03","Gamma","","","","","3194","","","+441782898004","","SF34150E89252FE13784EF2FF751D5B9F","GBP","+443300538880","","","","","","","","","","",""
